{
	"results": [
		{
			"idCalibration": "6087c1df-2af2-4e09-bbc6-e5cab12c48e9",
			"type": "delivery",
			"idDevice": "BC0035",
			"quantity": 10,
			"calibration_date": "2024-07-10T04:00:00.000Z",
			"created_by_id": "d7a541f2-d842-41e5-bb4c-3dde5886b214",
			"created_at": "2024-07-12T22:21:52.000Z",
			"updated_at": "2024-07-12T22:21:52.000Z",
			"device_name": "Silo 211",
			"poi_name": "ファーム",
			"capa_max": 12,
			"device_install_date": "2023-09-07T18:51:22.767Z",
			"created_by": {
				"idUser": "d7a541f2-d842-41e5-bb4c-3dde5886b214",
				"username": "antoine.pemeja@nanolike.com",
				"created_at": "2022-05-18T07:38:08.000Z",
				"updated_at": "2024-07-13T01:14:45.000Z",
				"email": "antoine.pemeja@nanolike.com",
				"acl": 2,
				"last_login": "2024-07-13T01:14:45.000Z",
				"date_joined": "2022-05-18T07:03:44.000Z",
				"configuration": {
					"display_forecast": true,
					"display_remaining": true,
					"notification_push": true,
					"display_last_order": true,
					"notification_email": true,
					"preferred_language": "fr",
					"preferred_timezone": "UTC",
					"display_quick_actions": true,
					"firebase_device_tokens": [
						"cHYgL0Sk_0Y0k61MxNuZsM:APA91bFPzBA2ERn4BSIaHnBYzrbeOrJ7iZW9OHWhnNbHvGcilOJeHzjVmQeAlsON_QBhLu0DjTHfo0Py509TSuZIuprCbaAm7xKukZt0pqjuuQz7KQeftpRO9GQjExwFpyxyMc34rEZ0",
						"fhEsEi4JLUuoqChDEudaUO:APA91bFWqRppFubXhDFEurvy2D8dYSOZELLcPvBUoKlwwWajB_SM5fsI8xlzi8A0hAGIsgqE1O1vTqYAYfDEUXpk1-Y1hF63zx_Ors4N-U3Og17EFRIT8Bz62Ob2G27QIuEeiRcWdGbY",
						"fYSCrNQx5E9-lfp5VUuzTW:APA91bFlxgGTtQTohcn2VYRRy5Hz2EwIaR-KypJxo5X76wQvrz9uMfD9s1TV5crqSdgzOK3hX70uicgDC3AVFsoPg37FA3EDpz7mJdGcsaCArN50V1DkaopcLqbbUkCTGymg2907RPo_",
						"cDUUNLritEM_rzSXKoWivt:APA91bFdzPbNpj1pkPVruMCbV0TPip3sKIJzHasmSdW7-Ebct7OIHk6PozLQbefZA0upcGdEp2qQYRXXYb6po_xKLo1qzm_EQGnL_RrwuxqjDu35H1OF9TkXN2qahLqtmoflMhcRnZnu",
						"eNu_AyBr6ko6of2la5CSo2:APA91bHhMYJY32hJEaV3GJaUtH1GpHakEtGEF0Ndmpq5k_VAh2sx22iE08EZb0v0eHqWGsekIpcBQTf5UKEzgmU9rXuXqZgHCMmMYnVAXxMUD70MMmuBvmjyINavdP2mFnJqP3DAcvdi",
						"dq8sLj8ztk40gLIjHYqA7J:APA91bFHneQjybBf1guwqMikoxX7tzd_qTcKKcdE79zd7hbVwhE29RzDGeBLaSj6iX-6IwyCjKF97h6vbuD8Vlq04KMsR1JEVHF7QdhrOBJDyT2eLxMbHP2j97OuHyXfW8bzq3oWmYy1",
						"dkzMgIbRh0gltRNbms8L0z:APA91bG6mB4dPpVEv-TrdPGKe1L8UJoJkG6lSPFNN8jmNRXmFq6O3e5NUlF_wpl8YoNn7xCktdxK6ngncfX6czVMEiA4YRCibc8jkwtlNY6FetGeA1c_JnPqLo08fTHeh1LqGgmuy0Ck",
						"euEKlZvpfEFfhRDjS_OkP1:APA91bFx1YmTLMKpEtLl3txlsaGuEN6hPIyiwtXkl7LK9jiGma4aqax08j07kjDDNR6fb42eFZrsEHEkh6sd4HFbvWCy2AW39p2LY2rvWUWU4rQvRRW57Y72p0X4fEjtfbdOkwxVNLmz",
						"dq1ZdLR56Uhqq4-bonz1G7:APA91bG8elN2QH6xMcSwkaFumhdQ_wEiM8glakHToM32CSBaThyOyClFsJway84eB_KkIV7ew1Mc-PJu3obuj-ZjL52e8U_cXYJ_Nb2T8q4Ye7qTFKzNnwu4h8AoDCUPnpAKlO7OpL3I"
					],
					"display_quick_action_order": true
				},
				"is_terms_accepted": 1,
				"is_invitation_pending": 0,
				"first_name": "antoine",
				"last_name": "Pemeja",
				"is_nano_staff": 1,
				"invite_expire_at": null,
				"phone_number": null,
				"idRole": "e2cbd908-b5ce-47cd-baec-e6ecdfd716f9",
				"workspaces": [],
				"allowed_workspaces": []
			},
			"source": "delivery"
		},
		{
			"idCalibration": "9d8f2418-b1ca-4fd3-b942-46d7b24709d5",
			"type": "level",
			"idDevice": "BC0047",
			"quantity": 0,
			"calibration_date": "2024-07-07T04:39:00.000Z",
			"created_by_id": "33025a40-dec1-11ed-9d85-b5ce82fd227f",
			"updated_at": "2024-07-07T04:40:11.000Z",
			"created_at": "2024-07-07T04:40:11.000Z",
			"device_name": "Bin 1-bis",
			"poi_name": "Ferme A",
			"device_install_date": "2023-09-07T18:21:38.636Z",
			"created_by": {
				"idUser": "33025a40-dec1-11ed-9d85-b5ce82fd227f",
				"username": "IMPORTED",
				"created_at": "2021-07-22T14:26:25.000Z",
				"updated_at": "2021-07-22T14:26:25.000Z",
				"email": null,
				"acl": 1,
				"last_login": null,
				"date_joined": null,
				"configuration": {
					"display_forecast": true,
					"display_remaining": true,
					"notification_push": true,
					"display_last_order": true,
					"notification_email": true,
					"display_quick_actions": true,
					"display_quick_action_order": true
				},
				"is_terms_accepted": 1,
				"is_invitation_pending": 0,
				"first_name": null,
				"last_name": null,
				"is_nano_staff": 1,
				"invite_expire_at": null,
				"phone_number": null,
				"idRole": "2e03c697-57fa-4859-84d6-b838ff236f08",
				"workspaces": [],
				"allowed_workspaces": []
			},
			"source": "manual"
		},
		{
			"idCalibration": "182478f7-77cf-4bc3-9278-bcf17a07db2d",
			"type": "level",
			"idDevice": "BC0002",
			"quantity": 12,
			"calibration_date": "2024-07-07T04:29:00.000Z",
			"created_by_id": "33025a40-dec1-11ed-9d85-b5ce82fd227f",
			"updated_at": "2024-07-07T04:29:29.000Z",
			"created_at": "2024-07-07T04:29:29.000Z",
			"device_name": "Bin 2",
			"poi_name": "John Doe Farm",
			"device_install_date": "2023-09-07T18:17:08.975Z",
			"created_by": {
				"idUser": "33025a40-dec1-11ed-9d85-b5ce82fd227f",
				"username": "IMPORTED",
				"created_at": "2021-07-22T14:26:25.000Z",
				"updated_at": "2021-07-22T14:26:25.000Z",
				"email": null,
				"acl": 1,
				"last_login": null,
				"date_joined": null,
				"configuration": {
					"display_forecast": true,
					"display_remaining": true,
					"notification_push": true,
					"display_last_order": true,
					"notification_email": true,
					"display_quick_actions": true,
					"display_quick_action_order": true
				},
				"is_terms_accepted": 1,
				"is_invitation_pending": 0,
				"first_name": null,
				"last_name": null,
				"is_nano_staff": 1,
				"invite_expire_at": null,
				"phone_number": null,
				"idRole": "2e03c697-57fa-4859-84d6-b838ff236f08",
				"clients": [],
				"workspaces": [],
				"allowed_workspaces": []
			},
			"source": "manual"
		},
		{
			"idCalibration": "f46ca77b-a6da-4bff-91ec-02970231e819",
			"type": "delivery",
			"idDevice": "BC0049",
			"quantity": 1,
			"calibration_date": "2024-07-06T22:50:00.000Z",
			"created_by_id": "33025a40-dec1-11ed-9d85-b5ce82fd227f",
			"created_at": "2024-07-07T04:38:34.000Z",
			"updated_at": "2024-07-07T04:38:34.000Z",
			"device_name": "Silo B1",
			"poi_name": "Robin Farm",
			"capa_max": 20,
			"device_install_date": "2023-09-07T18:52:30.010Z",
			"created_by": {
				"idUser": "33025a40-dec1-11ed-9d85-b5ce82fd227f",
				"username": "IMPORTED",
				"created_at": "2021-07-22T14:26:25.000Z",
				"updated_at": "2021-07-22T14:26:25.000Z",
				"email": null,
				"acl": 1,
				"last_login": null,
				"date_joined": null,
				"configuration": {
					"display_forecast": true,
					"display_remaining": true,
					"notification_push": true,
					"display_last_order": true,
					"notification_email": true,
					"display_quick_actions": true,
					"display_quick_action_order": true
				},
				"is_terms_accepted": 1,
				"is_invitation_pending": 0,
				"first_name": null,
				"last_name": null,
				"is_nano_staff": 1,
				"invite_expire_at": null,
				"phone_number": null,
				"idRole": "2e03c697-57fa-4859-84d6-b838ff236f08",
				"workspaces": [],
				"allowed_workspaces": []
			},
			"source": "delivery"
		},
		{
			"idCalibration": "d81a5e91-24ff-4723-a8d5-bc8f0e4fa26a",
			"type": "delivery",
			"idDevice": "BC0002",
			"quantity": 12,
			"calibration_date": "2024-07-06T18:30:00.000Z",
			"created_by_id": "33025a40-dec1-11ed-9d85-b5ce82fd227f",
			"created_at": "2024-07-07T04:29:43.000Z",
			"updated_at": "2024-07-07T04:29:43.000Z",
			"device_name": "Bin 2",
			"poi_name": "John Doe Farm",
			"capa_max": 12,
			"device_install_date": "2023-09-07T18:17:08.975Z",
			"created_by": {
				"idUser": "33025a40-dec1-11ed-9d85-b5ce82fd227f",
				"username": "IMPORTED",
				"created_at": "2021-07-22T14:26:25.000Z",
				"updated_at": "2021-07-22T14:26:25.000Z",
				"email": null,
				"acl": 1,
				"last_login": null,
				"date_joined": null,
				"configuration": {
					"display_forecast": true,
					"display_remaining": true,
					"notification_push": true,
					"display_last_order": true,
					"notification_email": true,
					"display_quick_actions": true,
					"display_quick_action_order": true
				},
				"is_terms_accepted": 1,
				"is_invitation_pending": 0,
				"first_name": null,
				"last_name": null,
				"is_nano_staff": 1,
				"invite_expire_at": null,
				"phone_number": null,
				"idRole": "2e03c697-57fa-4859-84d6-b838ff236f08",
				"clients": [],
				"workspaces": [],
				"allowed_workspaces": []
			},
			"source": "delivery"
		},
		{
			"idCalibration": "d6064569-63d8-4578-9ab7-a50312ae04bc",
			"type": "delivery",
			"idDevice": "BC0035",
			"quantity": 23,
			"calibration_date": "2024-07-06T05:45:00.000Z",
			"created_by_id": "33025a40-dec1-11ed-9d85-b5ce82fd227f",
			"created_at": "2024-07-06T06:45:58.000Z",
			"updated_at": "2024-07-06T11:01:51.000Z",
			"device_name": "Silo 211",
			"poi_name": "ファーム",
			"capa_max": 12,
			"device_install_date": "2023-09-07T18:51:22.767Z",
			"created_by": {
				"idUser": "33025a40-dec1-11ed-9d85-b5ce82fd227f",
				"username": "IMPORTED",
				"created_at": "2021-07-22T14:26:25.000Z",
				"updated_at": "2021-07-22T14:26:25.000Z",
				"email": null,
				"acl": 1,
				"last_login": null,
				"date_joined": null,
				"configuration": {
					"display_forecast": true,
					"display_remaining": true,
					"notification_push": true,
					"display_last_order": true,
					"notification_email": true,
					"display_quick_actions": true,
					"display_quick_action_order": true
				},
				"is_terms_accepted": 1,
				"is_invitation_pending": 0,
				"first_name": null,
				"last_name": null,
				"is_nano_staff": 1,
				"invite_expire_at": null,
				"phone_number": null,
				"idRole": "2e03c697-57fa-4859-84d6-b838ff236f08",
				"clients": [],
				"workspaces": [],
				"allowed_workspaces": []
			},
			"source": "delivery"
		},
		{
			"idCalibration": "7486d82a-16d5-4ec0-a7b6-141ea5383fde",
			"type": "delivery",
			"idDevice": "BC0039",
			"quantity": 23,
			"calibration_date": "2024-07-06T04:45:00.000Z",
			"created_by_id": "33025a40-dec1-11ed-9d85-b5ce82fd227f",
			"created_at": "2024-07-06T06:42:49.000Z",
			"updated_at": "2024-07-06T06:42:49.000Z",
			"device_name": "Bin E",
			"poi_name": "Wilson Farm",
			"capa_max": 12,
			"device_install_date": "2023-09-07T18:52:30.010Z",
			"created_by": {
				"idUser": "33025a40-dec1-11ed-9d85-b5ce82fd227f",
				"username": "IMPORTED",
				"created_at": "2021-07-22T14:26:25.000Z",
				"updated_at": "2021-07-22T14:26:25.000Z",
				"email": null,
				"acl": 1,
				"last_login": null,
				"date_joined": null,
				"configuration": {
					"display_forecast": true,
					"display_remaining": true,
					"notification_push": true,
					"display_last_order": true,
					"notification_email": true,
					"display_quick_actions": true,
					"display_quick_action_order": true
				},
				"is_terms_accepted": 1,
				"is_invitation_pending": 0,
				"first_name": null,
				"last_name": null,
				"is_nano_staff": 1,
				"invite_expire_at": null,
				"phone_number": null,
				"idRole": "2e03c697-57fa-4859-84d6-b838ff236f08",
				"clients": [],
				"workspaces": [],
				"allowed_workspaces": []
			},
			"source": "delivery"
		},
		{
			"idCalibration": "91a130bc-0aff-49a4-a6b7-34feb59b0a12",
			"type": "delivery",
			"idDevice": "BC0001",
			"quantity": 3,
			"calibration_date": "2024-07-06T02:15:00.000Z",
			"created_by_id": "33025a40-dec1-11ed-9d85-b5ce82fd227f",
			"created_at": "2024-07-06T09:52:31.000Z",
			"updated_at": "2024-07-06T09:52:31.000Z",
			"device_name": "Bin 3",
			"poi_name": "John Doe Farm",
			"capa_max": 15,
			"device_install_date": "2023-09-07T18:16:45.502Z",
			"created_by": {
				"idUser": "33025a40-dec1-11ed-9d85-b5ce82fd227f",
				"username": "IMPORTED",
				"created_at": "2021-07-22T14:26:25.000Z",
				"updated_at": "2021-07-22T14:26:25.000Z",
				"email": null,
				"acl": 1,
				"last_login": null,
				"date_joined": null,
				"configuration": {
					"display_forecast": true,
					"display_remaining": true,
					"notification_push": true,
					"display_last_order": true,
					"notification_email": true,
					"display_quick_actions": true,
					"display_quick_action_order": true
				},
				"is_terms_accepted": 1,
				"is_invitation_pending": 0,
				"first_name": null,
				"last_name": null,
				"is_nano_staff": 1,
				"invite_expire_at": null,
				"phone_number": null,
				"idRole": "2e03c697-57fa-4859-84d6-b838ff236f08",
				"clients": [],
				"workspaces": [],
				"allowed_workspaces": []
			},
			"source": "delivery"
		},
		{
			"idCalibration": "1e3220e7-8d5d-4e8b-93e5-0c22e9eb564e",
			"type": "delivery",
			"idDevice": "BC0011",
			"quantity": 24,
			"calibration_date": "2024-07-05T23:30:00.000Z",
			"created_by_id": "33025a40-dec1-11ed-9d85-b5ce82fd227f",
			"created_at": "2024-07-06T06:42:50.000Z",
			"updated_at": "2024-07-06T06:42:50.000Z",
			"device_name": "Bin C",
			"poi_name": "Meuneries de Pierre Tremblay",
			"capa_max": 13,
			"device_install_date": "2023-09-07T18:21:21.571Z",
			"created_by": {
				"idUser": "33025a40-dec1-11ed-9d85-b5ce82fd227f",
				"username": "IMPORTED",
				"created_at": "2021-07-22T14:26:25.000Z",
				"updated_at": "2021-07-22T14:26:25.000Z",
				"email": null,
				"acl": 1,
				"last_login": null,
				"date_joined": null,
				"configuration": {
					"display_forecast": true,
					"display_remaining": true,
					"notification_push": true,
					"display_last_order": true,
					"notification_email": true,
					"display_quick_actions": true,
					"display_quick_action_order": true
				},
				"is_terms_accepted": 1,
				"is_invitation_pending": 0,
				"first_name": null,
				"last_name": null,
				"is_nano_staff": 1,
				"invite_expire_at": null,
				"phone_number": null,
				"idRole": "2e03c697-57fa-4859-84d6-b838ff236f08",
				"clients": [],
				"workspaces": [],
				"allowed_workspaces": []
			},
			"source": "delivery"
		},
		{
			"idCalibration": "2efca305-388c-4b23-9c88-f375489d9bcf",
			"type": "delivery",
			"idDevice": "BC0058",
			"quantity": 9,
			"calibration_date": "2024-07-05T23:00:00.000Z",
			"created_by_id": "33025a40-dec1-11ed-9d85-b5ce82fd227f",
			"created_at": "2024-07-06T11:54:19.000Z",
			"updated_at": "2024-07-06T11:54:19.000Z",
			"device_name": "Bin up",
			"poi_name": "Farm B",
			"capa_max": 14.5,
			"device_install_date": "2023-09-07T18:21:21.571Z",
			"created_by": {
				"idUser": "33025a40-dec1-11ed-9d85-b5ce82fd227f",
				"username": "IMPORTED",
				"created_at": "2021-07-22T14:26:25.000Z",
				"updated_at": "2021-07-22T14:26:25.000Z",
				"email": null,
				"acl": 1,
				"last_login": null,
				"date_joined": null,
				"configuration": {
					"display_forecast": true,
					"display_remaining": true,
					"notification_push": true,
					"display_last_order": true,
					"notification_email": true,
					"display_quick_actions": true,
					"display_quick_action_order": true
				},
				"is_terms_accepted": 1,
				"is_invitation_pending": 0,
				"first_name": null,
				"last_name": null,
				"is_nano_staff": 1,
				"invite_expire_at": null,
				"phone_number": null,
				"idRole": "2e03c697-57fa-4859-84d6-b838ff236f08",
				"clients": [],
				"workspaces": [],
				"allowed_workspaces": []
			},
			"source": "delivery"
		},
		{
			"idCalibration": "93e15224-4a64-4df0-aa4e-68abfc88164c",
			"type": "delivery",
			"idDevice": "BC0006",
			"quantity": 15,
			"calibration_date": "2024-06-30T18:30:00.000Z",
			"created_by_id": "33025a40-dec1-11ed-9d85-b5ce82fd227f",
			"created_at": "2024-07-07T04:35:20.000Z",
			"updated_at": "2024-07-07T04:35:20.000Z",
			"device_name": "Silo 11",
			"poi_name": "Granja de Juan Perez",
			"capa_max": 20,
			"device_install_date": "2023-09-07T18:24:04.010Z",
			"created_by": {
				"idUser": "33025a40-dec1-11ed-9d85-b5ce82fd227f",
				"username": "IMPORTED",
				"created_at": "2021-07-22T14:26:25.000Z",
				"updated_at": "2021-07-22T14:26:25.000Z",
				"email": null,
				"acl": 1,
				"last_login": null,
				"date_joined": null,
				"configuration": {
					"display_forecast": true,
					"display_remaining": true,
					"notification_push": true,
					"display_last_order": true,
					"notification_email": true,
					"display_quick_actions": true,
					"display_quick_action_order": true
				},
				"is_terms_accepted": 1,
				"is_invitation_pending": 0,
				"first_name": null,
				"last_name": null,
				"is_nano_staff": 1,
				"invite_expire_at": null,
				"phone_number": null,
				"idRole": "2e03c697-57fa-4859-84d6-b838ff236f08",
				"clients": [],
				"workspaces": [],
				"allowed_workspaces": []
			},
			"source": "delivery"
		},
		{
			"idCalibration": "73b1260a-cb10-45f2-9804-fb3ab1700b2b",
			"type": "delivery",
			"idDevice": "BC0045",
			"quantity": 21,
			"calibration_date": "2024-06-01T13:12:00.000Z",
			"created_by_id": "33025a40-dec1-11ed-9d85-b5ce82fd227f",
			"created_at": "2024-06-01T13:12:14.000Z",
			"updated_at": "2024-06-01T20:10:12.000Z",
			"device_name": "Bin B",
			"poi_name": "Wilson Farm",
			"capa_max": 20,
			"device_install_date": "2023-09-07T18:51:07.370Z",
			"created_by": {
				"idUser": "33025a40-dec1-11ed-9d85-b5ce82fd227f",
				"username": "IMPORTED",
				"created_at": "2021-07-22T14:26:25.000Z",
				"updated_at": "2021-07-22T14:26:25.000Z",
				"email": null,
				"acl": 1,
				"last_login": null,
				"date_joined": null,
				"configuration": {
					"display_forecast": true,
					"display_remaining": true,
					"notification_push": true,
					"display_last_order": true,
					"notification_email": true,
					"display_quick_actions": true,
					"display_quick_action_order": true
				},
				"is_terms_accepted": 1,
				"is_invitation_pending": 0,
				"first_name": null,
				"last_name": null,
				"is_nano_staff": 1,
				"invite_expire_at": null,
				"phone_number": null,
				"idRole": "2e03c697-57fa-4859-84d6-b838ff236f08",
				"clients": [],
				"workspaces": [],
				"allowed_workspaces": []
			},
			"source": "delivery"
		},
		{
			"idCalibration": "8c3d1221-0620-4ed2-b3de-580bd570e620",
			"type": "level",
			"idDevice": "BC0035",
			"quantity": 11,
			"calibration_date": "2024-06-01T06:45:00.000Z",
			"created_by_id": "33025a40-dec1-11ed-9d85-b5ce82fd227f",
			"updated_at": "2024-06-01T12:30:03.000Z",
			"created_at": "2024-06-01T06:45:53.000Z",
			"device_name": "Silo 211",
			"poi_name": "ファーム",
			"device_install_date": "2023-09-07T18:51:22.767Z",
			"created_by": {
				"idUser": "33025a40-dec1-11ed-9d85-b5ce82fd227f",
				"username": "IMPORTED",
				"created_at": "2021-07-22T14:26:25.000Z",
				"updated_at": "2021-07-22T14:26:25.000Z",
				"email": null,
				"acl": 1,
				"last_login": null,
				"date_joined": null,
				"configuration": {
					"display_forecast": true,
					"display_remaining": true,
					"notification_push": true,
					"display_last_order": true,
					"notification_email": true,
					"display_quick_actions": true,
					"display_quick_action_order": true
				},
				"is_terms_accepted": 1,
				"is_invitation_pending": 0,
				"first_name": null,
				"last_name": null,
				"is_nano_staff": 1,
				"invite_expire_at": null,
				"phone_number": null,
				"idRole": "2e03c697-57fa-4859-84d6-b838ff236f08",
				"clients": [],
				"workspaces": [],
				"allowed_workspaces": []
			},
			"source": "manual"
		},
		{
			"idCalibration": "b9a5a28a-aec5-47f4-afed-644a7b8ca493",
			"type": "level",
			"idDevice": "BC0063",
			"quantity": 1,
			"calibration_date": "2024-06-01T06:29:00.000Z",
			"created_by_id": "33025a40-dec1-11ed-9d85-b5ce82fd227f",
			"updated_at": "2024-06-01T06:30:04.000Z",
			"created_at": "2024-06-01T06:30:04.000Z",
			"device_name": "Bin 5",
			"poi_name": "Granja de Juan Perez",
			"device_install_date": "2023-09-07T18:18:11.120Z",
			"created_by": {
				"idUser": "33025a40-dec1-11ed-9d85-b5ce82fd227f",
				"username": "IMPORTED",
				"created_at": "2021-07-22T14:26:25.000Z",
				"updated_at": "2021-07-22T14:26:25.000Z",
				"email": null,
				"acl": 1,
				"last_login": null,
				"date_joined": null,
				"configuration": {
					"display_forecast": true,
					"display_remaining": true,
					"notification_push": true,
					"display_last_order": true,
					"notification_email": true,
					"display_quick_actions": true,
					"display_quick_action_order": true
				},
				"is_terms_accepted": 1,
				"is_invitation_pending": 0,
				"first_name": null,
				"last_name": null,
				"is_nano_staff": 1,
				"invite_expire_at": null,
				"phone_number": null,
				"idRole": "2e03c697-57fa-4859-84d6-b838ff236f08",
				"clients": [],
				"workspaces": [],
				"allowed_workspaces": []
			},
			"source": "manual"
		},
		{
			"idCalibration": "3131331b-f263-11ee-889a-0a8e0bac9777",
			"type": "level",
			"idDevice": "BC0063",
			"quantity": 1,
			"calibration_date": "2024-05-31T16:55:00.000Z",
			"created_by_id": "33025a40-dec1-11ed-9d85-b5ce82fd227f",
			"updated_at": "2024-06-01T06:28:22.000Z",
			"created_at": "2021-12-02T07:51:00.000Z",
			"device_name": "Bin 5",
			"poi_name": "Granja de Juan Perez",
			"device_install_date": "2023-09-07T18:18:11.120Z",
			"created_by": {
				"idUser": "33025a40-dec1-11ed-9d85-b5ce82fd227f",
				"username": "IMPORTED",
				"created_at": "2021-07-22T14:26:25.000Z",
				"updated_at": "2021-07-22T14:26:25.000Z",
				"email": null,
				"acl": 1,
				"last_login": null,
				"date_joined": null,
				"configuration": {
					"display_forecast": true,
					"display_remaining": true,
					"notification_push": true,
					"display_last_order": true,
					"notification_email": true,
					"display_quick_actions": true,
					"display_quick_action_order": true
				},
				"is_terms_accepted": 1,
				"is_invitation_pending": 0,
				"first_name": null,
				"last_name": null,
				"is_nano_staff": 1,
				"invite_expire_at": null,
				"phone_number": null,
				"idRole": "2e03c697-57fa-4859-84d6-b838ff236f08",
				"clients": [],
				"workspaces": [],
				"allowed_workspaces": []
			},
			"source": "manual"
		}
	],
	"page": 1,
	"pageSize": 15,
	"rowCount": 192,
	"pageCount": 13
}