{
    "idDevice": "3060A9",
    "messages": [
        {
            "seqNumber": 97,
            "timeData": "2022-01-04T06:10:16.000Z",
            "isDeviceOk": true,
            "status": "ok",
            "antennas": [
                {
                    "bsId": "042B",
                    "rssi": -120
                },
                {
                    "bsId": "042P",
                    "rssi": -121
                },
                {
                    "bsId": "13399",
                    "rssi": -130
                }
            ]
        },
        {
            "seqNumber": 96,
            "repeaters": [
                {
                    "bsId": "13399"
                },
                {
                    "bsId": "13392"
                }
            ],
            "antennas": [
                {
                    "bsId": "042B",
                    "rssi": -120
                },
                {
                    "bsId": "042P",
                    "rssi": -121
                },
                {
                    "bsId": "13399",
                    "rssi": -130
                },
                {
                    "bsId": "13199",
                    "rssi": -131
                },
                {
                    "bsId": "13391",
                    "rssi": null
                },
                {
                    "bsId": "13390"
                },
                {
                    "bsId": "3CA5",
                    "rssi": -81
                },
                {
                    "bsId": "60FA",
                    "rssi": -82
                },
                {
                    "bsId": "6148",
                    "rssi": -83
                },
                {
                    "bsId": "6164",
                    "rssi": -95
                },
                {
                    "bsId": "7021",
                    "rssi": -137
                },
                {
                    "bsId": "7CBD",
                    "rssi": -138
                },
                {
                    "bsId": "96C2",
                    "rssi": -131
                },
                {
                    "bsId": "DB96",
                    "rssi": -138
                },
                {
                    "bsId": "E5AF",
                    "rssi": -111
                }
            ],
            "timeData": "2022-01-04T14:10:18.000Z",
            "isDeviceOk": false,
            "status": "no_sensor"
        },
        {
            "seqNumber": 95,
            "repeaters": [
                {
                    "bsId": "13399"
                },
                {
                    "bsId": "13392"
                }
            ],
            "antennas": [
                {
                    "bsId": "13399",
                    "rssi": -115
                },
                {
                    "bsId": "3CA5",
                    "rssi": -81
                },
                {
                    "bsId": "60FA",
                    "rssi": -80
                },
                {
                    "bsId": "6148",
                    "rssi": -80
                },
                {
                    "bsId": "6164",
                    "rssi": -87
                },
                {
                    "bsId": "7021",
                    "rssi": -137
                },
                {
                    "bsId": "96C2",
                    "rssi": -129
                },
                {
                    "bsId": "E5AF",
                    "rssi": -108
                }
            ],
            "timeData": "2022-01-04T13:10:17.000Z",
            "isDeviceOk": false,
            "status": "adc_out_of_range"
        },
        {
            "seqNumber": 94,
            "antennas": [
                {
                    "bsId": "042B",
                    "rssi": -137
                },
                {
                    "bsId": "13399",
                    "rssi": -122
                },
                {
                    "bsId": "3CA5",
                    "rssi": -81
                },
                {
                    "bsId": "60FA",
                    "rssi": -82
                },
                {
                    "bsId": "6148",
                    "rssi": -82
                },
                {
                    "bsId": "6164",
                    "rssi": -88
                },
                {
                    "bsId": "7021",
                    "rssi": -143
                },
                {
                    "bsId": "7CBD",
                    "rssi": -139
                },
                {
                    "bsId": "96C2",
                    "rssi": -130
                },
                {
                    "bsId": "DFE7",
                    "rssi": -133
                },
                {
                    "bsId": "E5AF",
                    "rssi": -105
                }
            ],
            "timeData": "2022-01-04T12:10:18.000Z",
            "isDeviceOk": true,
            "status": "ok"
        },
        {
            "seqNumber": 93,
            "antennas": [
                {
                    "bsId": "042B",
                    "rssi": -136
                },
                {
                    "bsId": "051A",
                    "rssi": -135
                },
                {
                    "bsId": "13399",
                    "rssi": -123
                },
                {
                    "bsId": "3CA5",
                    "rssi": -81
                },
                {
                    "bsId": "60FA",
                    "rssi": -83
                },
                {
                    "bsId": "6148",
                    "rssi": -84
                },
                {
                    "bsId": "6164",
                    "rssi": -92
                },
                {
                    "bsId": "7021",
                    "rssi": -142
                },
                {
                    "bsId": "7CBD",
                    "rssi": -138
                },
                {
                    "bsId": "96C2",
                    "rssi": -127
                },
                {
                    "bsId": "DB96",
                    "rssi": -134
                },
                {
                    "bsId": "DFE7",
                    "rssi": -134
                },
                {
                    "bsId": "E5AF",
                    "rssi": -104
                }
            ],
            "timeData": "2022-01-04T11:10:17.000Z",
            "isDeviceOk": true
        },
        {
            "seqNumber": 92,
            "antennas": [
                {
                    "bsId": "3CA5",
                    "rssi": -82
                },
                {
                    "bsId": "60FA",
                    "rssi": -81
                },
                {
                    "bsId": "6148",
                    "rssi": -81
                },
                {
                    "bsId": "6164",
                    "rssi": -90
                },
                {
                    "bsId": "7021",
                    "rssi": -137
                },
                {
                    "bsId": "96C2",
                    "rssi": -132
                },
                {
                    "bsId": "E5AF",
                    "rssi": -100
                }
            ],
            "timeData": "2022-01-04T10:10:18.000Z",
            "isDeviceOk": false
        },
        {
            "seqNumber": 91,
            "antennas": [
                {
                    "bsId": "042B",
                    "rssi": -136
                },
                {
                    "bsId": "051A",
                    "rssi": -136
                },
                {
                    "bsId": "13399",
                    "rssi": -119
                },
                {
                    "bsId": "3CA5",
                    "rssi": -83
                },
                {
                    "bsId": "60FA",
                    "rssi": -79
                },
                {
                    "bsId": "6148",
                    "rssi": -81
                },
                {
                    "bsId": "6164",
                    "rssi": -86
                },
                {
                    "bsId": "7021",
                    "rssi": -138
                },
                {
                    "bsId": "7CBD",
                    "rssi": -140
                },
                {
                    "bsId": "96C2",
                    "rssi": -133
                },
                {
                    "bsId": "DB96",
                    "rssi": -129
                },
                {
                    "bsId": "E5AF",
                    "rssi": -120
                }
            ],
            "timeData": "2022-01-04T09:10:16.000Z",
            "isDeviceOk": false
        },
        {
            "seqNumber": 90,
            "antennas": [
                {
                    "bsId": "042B",
                    "rssi": -133
                },
                {
                    "bsId": "0D99",
                    "rssi": -136
                },
                {
                    "bsId": "13399",
                    "rssi": -118
                },
                {
                    "bsId": "3CA5",
                    "rssi": -81
                },
                {
                    "bsId": "60FA",
                    "rssi": -84
                },
                {
                    "bsId": "6148",
                    "rssi": -82
                },
                {
                    "bsId": "6164",
                    "rssi": -91
                },
                {
                    "bsId": "7021",
                    "rssi": -134
                },
                {
                    "bsId": "7CBD",
                    "rssi": -135
                },
                {
                    "bsId": "96C2",
                    "rssi": -133
                },
                {
                    "bsId": "E5AF",
                    "rssi": -112
                }
            ],
            "timeData": "2022-01-04T08:10:16.000Z",
            "isDeviceOk": false
        },
        {
            "seqNumber": 89,
            "antennas": [
                {
                    "bsId": "042B",
                    "rssi": -131
                },
                {
                    "bsId": "13399",
                    "rssi": -118
                },
                {
                    "bsId": "3CA5",
                    "rssi": -82
                },
                {
                    "bsId": "60FA",
                    "rssi": -82
                },
                {
                    "bsId": "6148",
                    "rssi": -82
                },
                {
                    "bsId": "6164",
                    "rssi": -91
                },
                {
                    "bsId": "7021",
                    "rssi": -139
                },
                {
                    "bsId": "96C2",
                    "rssi": -129
                },
                {
                    "bsId": "DB96",
                    "rssi": -134
                },
                {
                    "bsId": "DFE7",
                    "rssi": -135
                },
                {
                    "bsId": "E5AF",
                    "rssi": -108
                }
            ],
            "timeData": "2022-01-04T07:10:16.000Z",
            "isDeviceOk": false
        },
        {
            "seqNumber": 88,
            "repeaters": [
                {
                    "bsId": "042B"
                }
            ],
            "timeData": "2022-01-04T06:10:16.000Z",
            "isDeviceOk": true,
            "status": "ok"
        },
        {
            "seqNumber": 87,
            "antennas": [
                {
                    "bsId": "042B",
                    "rssi": -132
                }
            ],
            "timeData": "2022-01-04T06:10:16.000Z",
            "isDeviceOk": true,
            "status": "ok"
        },
        {
            "seqNumber": 86,
            "antennas": [
                {
                    "bsId": "042B",
                    "rssi": -132
                },
                {
                    "bsId": "13399",
                    "rssi": -119
                },
                {
                    "bsId": "3CA5",
                    "rssi": -83
                },
                {
                    "bsId": "60FA",
                    "rssi": -82
                },
                {
                    "bsId": "6148",
                    "rssi": -82
                },
                {
                    "bsId": "6164",
                    "rssi": -91
                },
                {
                    "bsId": "7021",
                    "rssi": -139
                },
                {
                    "bsId": "96C2",
                    "rssi": -129
                },
                {
                    "bsId": "DB96",
                    "rssi": -134
                },
                {
                    "bsId": "DFE7",
                    "rssi": -134
                },
                {
                    "bsId": "DFED",
                    "rssi": -136
                },
                {
                    "bsId": "E5AF",
                    "rssi": -104
                }
            ],
            "timeData": "2022-01-04T06:10:16.000Z",
            "isDeviceOk": false
        },
        {
            "seqNumber": 85,
            "antennas": [],
            "timeData": "2022-01-04T06:10:16.000Z",
            "isDeviceOk": true,
            "status": "ok"
        },
        {
            "seqNumber": 84,
            "antennas": [],
            "timeData": "2022-01-04T06:10:16.000Z",
            "isDeviceOk": false
        },
        {
            "seqNumber": 83,
            "antennas": [
                {
                    "bsId": "042B",
                    "rssi": -132
                },
                {
                    "bsId": "13399",
                    "rssi": -120
                },
                {
                    "bsId": "3CA5",
                    "rssi": -81
                },
                {
                    "bsId": "60FA",
                    "rssi": -82
                },
                {
                    "bsId": "6148",
                    "rssi": -83
                },
                {
                    "bsId": "6164",
                    "rssi": -88
                },
                {
                    "bsId": "7021",
                    "rssi": -141
                },
                {
                    "bsId": "96C2",
                    "rssi": -128
                },
                {
                    "bsId": "DB96",
                    "rssi": -131
                },
                {
                    "bsId": "E5AF",
                    "rssi": -107
                }
            ],
            "timeData": "2022-01-04T05:10:16.000Z",
            "isDeviceOk": false
        }
    ]
}
