{
  "idMedia": "59999e42-f6d6-42f8-bb34-faec0a4ff60d",
  "idDevice": "ST0001",
  "url": "https://picsum.photos/250?image=1",
  "key": "ST0001_1666984081270.jpg",
  "created_at": "2022-10-28T19:08:01.000Z",
  "updated_at": "2022-10-28T19:08:01.000Z"
}