{
    "device_id": "95f08945-3a16-49d8-b600-294e3199472e",
    "device_reference": "303366",
    "device_name": "Bin Pem",
    "device_address": "",
    "device_position": "",
    "device_description": "",
    "device_fabrication_date": null,
    "device_next_maintenance_date": null,
    "is_silo": true,
    "is_tank": false,
    "device_drug": null,
    "device_last_calibration": null,
    "device_supplement": null,
    "article_code_identifier": null,
    "color": null,
    "serial_number": "Pem",
    "is_fake": false,
    "capa_max": 12,
    "installed_by_id": "d7a541f2-d842-41e5-bb4c-3dde5886b214",
    "status": "pending",
    "device_install_date": "2022-06-06T18:11:15.309Z",
    "device_end_life_date": null,
    "error_type": null,
    "silo_type": "continuous",
    "metadata": {
        "silo_legs": 4
    },
    "is_combined": false,
    "device_content_id": null,
    "device_last_delivery": null,
    "device_fixed_lng": -122.0312186,
    "device_fixed_lat": 37.33233141,
    "groups": [
        {
            "group_id": "0a749e0f-00f2-4f72-9dae-6366361732ca",
            "group_name": "silo",
            "address_street": null,
            "address_town": null,
            "address_zipcode": null,
            "order_recipient_emails": [],
            "is_poi": false,
            "are_contents_exclusive": false,
            "client_poi_id": null,
            "_pivot_device_id": "95f08945-3a16-49d8-b600-294e3199472e",
            "_pivot_group_id": "0a749e0f-00f2-4f72-9dae-6366361732ca",
            "address": {
                "street": null,
                "town": null,
                "zipcode": null
            }
        },
        {
            "group_id": "0b499314-916f-4dfa-b5df-ced354038f10",
            "group_name": "Aa",
            "address_street": "",
            "address_town": "",
            "address_zipcode": "",
            "order_recipient_emails": [],
            "is_poi": true,
            "are_contents_exclusive": false,
            "client_poi_id": null,
            "_pivot_device_id": "95f08945-3a16-49d8-b600-294e3199472e",
            "_pivot_group_id": "0b499314-916f-4dfa-b5df-ced354038f10",
            "address": {
                "street": "",
                "town": "",
                "zipcode": ""
            }
        }
    ],
    "devicesCombined": [],
    "combinedDevice": [],
    "group_ids": [
        "0a749e0f-00f2-4f72-9dae-6366361732ca",
        "0b499314-916f-4dfa-b5df-ced354038f10"
    ],
    "silo_number": "Pem",
    "farm_name": "Aa",
    "farm_id": "0b499314-916f-4dfa-b5df-ced354038f10",
    "client_poi_id": null,
    "device_last_order_total": null,
    "device_next_delivery": null,
    "device_capacity": 12,
    "model": null
}