{
	"idUser": "d7a541f2-d842-41e5-bb4c-3dde5886b214",
	"username": "antoine.pemeja@nanolike.com",
	"password_hash": "pbkdf2_sha256$150000$PzVzx/8L0JKn/nS6dpdt/bm25JalaLJ9cbnHxg==$OU1R4s5ZhFUxz7WGBQtC7zSbsxPvOsSFUWhu7uTK1zU=",
	"created_at": "2022-05-18T07:38:08.000Z",
	"updated_at": "2024-06-14T14:28:17.000Z",
	"email": "antoine.pemeja@nanolike.com",
	"last_login": "2024-06-14T14:28:17.000Z",
	"date_joined": "2022-05-18T07:03:44.000Z",
	"configuration": {
		"display_forecast": true,
		"display_remaining": true,
		"notification_push": true,
		"display_last_order": true,
		"notification_email": true,
		"preferred_language": "en",
		"preferred_timezone": "America/Montreal",
		"display_quick_actions": true,
		"display_quick_action_order": true
	},
	"is_terms_accepted": 1,
	"is_invitation_pending": 0,
	"first_name": "antoine",
	"last_name": "pemejaa",
	"invite_expire_at": null,
	"phone_number": null,
	"idRole": "5a9f80bc-a7c8-4d38-bdca-f1c639f77658",
	"clients": [
		{
			"idClient": "0561ee87-101f-41bc-aebf-a30fab5414fd",
			"name": "COMBINATED-DEVICES",
			"created_at": "2023-10-11T12:01:33.000Z",
			"last_data_update": null,
			"status": "vip",
			"useCase": "silo",
			"settings": null,
			"_pivot_workspace_role": "Owner"
		},
		{
			"idClient": "081ae010-e3cb-4620-97fa-9854d15f9885",
			"name": "GESTCAV",
			"created_at": "2021-09-27T20:17:08.000Z",
			"last_data_update": "2023-08-13T22:15:39.000Z",
			"status": "vip",
			"useCase": "silo",
			"settings": null,
			"_pivot_workspace_role": "Owner"
		},
		{
			"idClient": "153cc5b5-e0f2-48e2-98f3-47765aeac3c4",
			"name": "LANTMANNEN",
			"created_at": "2023-12-22T09:11:57.000Z",
			"last_data_update": null,
			"status": "vip",
			"useCase": "silo",
			"settings": null,
			"_pivot_workspace_role": "Owner"
		},
		{
			"idClient": "18c68741-883a-4d88-af85-2096edccce0b",
			"name": "HOLCIM-DE",
			"created_at": "2022-03-11T14:23:27.000Z",
			"last_data_update": "2023-09-01T12:38:40.000Z",
			"status": "active",
			"useCase": "silo_industry",
			"settings": null,
			"_pivot_workspace_role": "Owner"
		},
		{
			"idClient": "1dc1244a-3a95-41ea-ae20-5b4961115748",
			"name": "WFS",
			"created_at": "2023-06-15T14:01:51.000Z",
			"last_data_update": "2023-09-06T12:34:00.000Z",
			"status": "vip",
			"useCase": "silo",
			"settings": null,
			"_pivot_workspace_role": "Owner"
		},
		{
			"idClient": "1e46073f-c789-4094-a635-79e7d41a05bc",
			"name": "HOLCIM-BELGIUM",
			"created_at": "2023-06-23T14:50:50.000Z",
			"last_data_update": "2023-09-06T14:28:42.000Z",
			"status": "vip",
			"useCase": "silo_industry",
			"settings": null,
			"_pivot_workspace_role": "Owner"
		},
		{
			"idClient": "20cf57d1-f492-49c5-b102-12c8ac831450",
			"name": "ADNOVUM",
			"created_at": "2023-10-16T15:17:58.000Z",
			"last_data_update": null,
			"status": "sleep",
			"useCase": "silo_industry",
			"settings": {
				"silo_mobile": true
			},
			"_pivot_workspace_role": "Owner"
		},
		{
			"idClient": "2535dcb5-c62d-4c56-b587-486084997587",
			"name": "RAIS",
			"created_at": "2022-03-11T14:23:02.000Z",
			"last_data_update": "2023-09-06T15:20:24.000Z",
			"status": "active",
			"useCase": "silo",
			"settings": null,
			"_pivot_workspace_role": "Owner"
		},
		{
			"idClient": "2b40edaf-7256-42dd-97d6-d205b864e343",
			"name": "HOLCIM-ES",
			"created_at": "2024-01-23T11:19:01.000Z",
			"last_data_update": null,
			"status": "vip",
			"useCase": "silo_industry",
			"settings": null,
			"_pivot_workspace_role": "Owner"
		},
		{
			"idClient": "37760c57-f2af-4ab8-984d-b0ea80fbe50e",
			"name": "LAFARGE-CIMENTS",
			"created_at": "2022-03-02T07:49:50.000Z",
			"last_data_update": "2023-09-01T13:09:50.000Z",
			"status": "vip",
			"useCase": "silo_industry",
			"settings": null,
			"_pivot_workspace_role": "Owner"
		},
		{
			"idClient": "37be1095-7328-4b89-8759-408f737c1bef",
			"name": "DORTMANSBROS",
			"created_at": "2023-12-11T15:52:58.000Z",
			"last_data_update": null,
			"status": "vip",
			"useCase": "silo",
			"settings": null,
			"_pivot_workspace_role": "Owner"
		},
		{
			"idClient": "388ac9d3-0704-445e-b4ae-34ad9b269306",
			"name": "BETRIEBSMITTELHELDEN",
			"created_at": "2021-10-21T07:36:20.000Z",
			"last_data_update": "2023-09-06T14:34:18.000Z",
			"status": "vip",
			"useCase": "silo",
			"settings": null,
			"_pivot_workspace_role": "Owner"
		},
		{
			"idClient": "39cef5e9-1ab0-4956-9eaa-86ce28eec968",
			"name": "PEM",
			"created_at": "2024-06-13T19:20:46.000Z",
			"last_data_update": null,
			"status": null,
			"useCase": "silo",
			"settings": null,
			"_pivot_workspace_role": "Owner"
		},
		{
			"idClient": "3ca58b49-9704-4157-97c4-fdbd9d01ecd5",
			"name": "HOLCIM-CO",
			"created_at": "2024-03-15T08:09:56.000Z",
			"last_data_update": null,
			"status": "vip",
			"useCase": "silo_industry",
			"settings": null,
			"_pivot_workspace_role": "Owner"
		},
		{
			"idClient": "3de3936b-3763-4ea4-9e85-b693baa9c5d3",
			"name": "MISSPIGGY",
			"created_at": "2021-10-25T12:05:43.000Z",
			"last_data_update": "2023-09-06T14:59:18.000Z",
			"status": "sleep",
			"useCase": "silo",
			"settings": null,
			"_pivot_workspace_role": "Owner"
		},
		{
			"idClient": "44708ef1-77c8-4d89-b817-b580b14db3da",
			"name": "SOPURA",
			"created_at": "2022-02-03T13:30:27.000Z",
			"last_data_update": null,
			"status": "active",
			"useCase": "ibc",
			"settings": null,
			"_pivot_workspace_role": "Owner"
		},
		{
			"idClient": "4ac4a555-691c-4a62-ae1d-cedf15937dcc",
			"name": "CPI",
			"created_at": "2023-11-30T14:26:12.000Z",
			"last_data_update": null,
			"status": "vip",
			"useCase": "silo_industry",
			"settings": {
				"silo_mobile": true
			},
			"_pivot_workspace_role": "Owner"
		},
		{
			"idClient": "4b942968-c590-4ae1-8f85-5deb8717df01",
			"name": "RAF",
			"created_at": "2023-09-05T19:11:42.000Z",
			"last_data_update": null,
			"status": "vip",
			"useCase": "silo",
			"settings": null,
			"_pivot_workspace_role": "Owner"
		},
		{
			"idClient": "4dbe2df2-8f19-447a-b814-8d46512c18c0",
			"name": "TEST",
			"created_at": "2024-04-09T07:57:34.000Z",
			"last_data_update": null,
			"status": "internal",
			"useCase": "silo",
			"settings": null,
			"_pivot_workspace_role": "Owner"
		},
		{
			"idClient": "536de516-f809-4416-a9be-a7997c94cce4",
			"name": "HOLCIM-AU",
			"created_at": "2023-03-07T07:54:43.000Z",
			"last_data_update": "2023-09-01T12:39:47.000Z",
			"status": "vip",
			"useCase": "silo_industry",
			"settings": null,
			"_pivot_workspace_role": "Owner"
		},
		{
			"idClient": "59282740-0bfb-11ec-af48-024a85d3068f",
			"name": "AGRITECH",
			"created_at": "2021-09-02T14:37:50.000Z",
			"last_data_update": null,
			"status": "sleep",
			"useCase": "silo",
			"settings": null,
			"_pivot_workspace_role": "Owner"
		},
		{
			"idClient": "59293b12-0bfb-11ec-af48-024a85d3068f",
			"name": "ARCHIVE_IBC",
			"created_at": "2021-09-02T14:37:50.000Z",
			"last_data_update": null,
			"status": "sleep",
			"useCase": "silo",
			"settings": null,
			"_pivot_workspace_role": "Owner"
		},
		{
			"idClient": "59293eab-0bfb-11ec-af48-024a85d3068f",
			"name": "ALICOOP",
			"created_at": "2021-09-02T14:37:50.000Z",
			"last_data_update": "2022-02-10T13:50:44.000Z",
			"status": "sleep",
			"useCase": "silo",
			"settings": null,
			"_pivot_workspace_role": "Owner"
		},
		{
			"idClient": "592ac4b2-0bfb-11ec-af48-024a85d3068f",
			"name": "ARCHIVE_SILO",
			"created_at": "2021-09-02T14:37:50.000Z",
			"last_data_update": null,
			"status": "internal",
			"useCase": "silo",
			"settings": null,
			"_pivot_workspace_role": "Owner"
		},
		{
			"idClient": "592af893-0bfb-11ec-af48-024a85d3068f",
			"name": "ARTERRIS",
			"created_at": "2021-09-02T14:37:50.000Z",
			"last_data_update": "2022-02-10T14:01:13.000Z",
			"status": "active",
			"useCase": "silo",
			"settings": null,
			"_pivot_workspace_role": "Owner"
		},
		{
			"idClient": "592e41d4-0bfb-11ec-af48-024a85d3068f",
			"name": "ATRIAL",
			"created_at": "2021-09-02T14:37:50.000Z",
			"last_data_update": null,
			"status": "sleep",
			"useCase": "silo",
			"settings": null,
			"_pivot_workspace_role": "Owner"
		},
		{
			"idClient": "592e8e83-0bfb-11ec-af48-024a85d3068f",
			"name": "AXEREAL",
			"created_at": "2021-09-02T14:37:50.000Z",
			"last_data_update": "2023-09-01T13:15:26.000Z",
			"status": "vip",
			"useCase": "silo",
			"settings": null,
			"_pivot_workspace_role": "Owner"
		},
		{
			"idClient": "592ff262-0bfb-11ec-af48-024a85d3068f",
			"name": "BARTER",
			"created_at": "2021-09-02T14:37:50.000Z",
			"last_data_update": null,
			"status": "vip",
			"useCase": "ibc",
			"settings": null,
			"_pivot_workspace_role": "Owner"
		},
		{
			"idClient": "5930002b-0bfb-11ec-af48-024a85d3068f",
			"name": "BERKEM",
			"created_at": "2021-09-02T14:37:50.000Z",
			"last_data_update": null,
			"status": "dead",
			"useCase": "ibc",
			"settings": null,
			"_pivot_workspace_role": "Owner"
		},
		{
			"idClient": "59307f40-0bfb-11ec-af48-024a85d3068f",
			"name": "BEST3",
			"created_at": "2021-09-02T14:37:50.000Z",
			"last_data_update": null,
			"status": "active",
			"useCase": "silo",
			"settings": null,
			"_pivot_workspace_role": "Owner"
		},
		{
			"idClient": "5930a5b4-0bfb-11ec-af48-024a85d3068f",
			"name": "BINDEWALD",
			"created_at": "2021-09-02T14:37:50.000Z",
			"last_data_update": null,
			"status": "active",
			"useCase": "silo",
			"settings": null,
			"_pivot_workspace_role": "Owner"
		},
		{
			"idClient": "5930ad71-0bfb-11ec-af48-024a85d3068f",
			"name": "BRENNTAG",
			"created_at": "2021-09-02T14:37:50.000Z",
			"last_data_update": null,
			"status": "active",
			"useCase": "silo",
			"settings": null,
			"_pivot_workspace_role": "Owner"
		},
		{
			"idClient": "5930c512-0bfb-11ec-af48-024a85d3068f",
			"name": "CAC68",
			"created_at": "2021-09-02T14:37:50.000Z",
			"last_data_update": null,
			"status": "active",
			"useCase": "silo",
			"settings": null,
			"_pivot_workspace_role": "Owner"
		},
		{
			"idClient": "5931f2e1-0bfb-11ec-af48-024a85d3068f",
			"name": "CARGOSENSO",
			"created_at": "2021-09-02T14:37:50.000Z",
			"last_data_update": null,
			"status": "active",
			"useCase": "silo",
			"settings": null,
			"_pivot_workspace_role": "Owner"
		},
		{
			"idClient": "593260a4-0bfb-11ec-af48-024a85d3068f",
			"name": "CASTE",
			"created_at": "2021-09-02T14:37:50.000Z",
			"last_data_update": "2022-02-10T13:59:15.000Z",
			"status": "active",
			"useCase": "silo",
			"settings": null,
			"_pivot_workspace_role": "Owner"
		},
		{
			"idClient": "59366c81-0bfb-11ec-af48-024a85d3068f",
			"name": "COOPERL",
			"created_at": "2021-09-02T14:37:50.000Z",
			"last_data_update": "2023-09-01T12:59:00.000Z",
			"status": "active",
			"useCase": "silo",
			"settings": null,
			"_pivot_workspace_role": "Owner"
		},
		{
			"idClient": "59367235-0bfb-11ec-af48-024a85d3068f",
			"name": "DEMO-IBC",
			"created_at": "2021-09-02T14:37:50.000Z",
			"last_data_update": null,
			"status": "active",
			"useCase": "ibc",
			"settings": null,
			"_pivot_workspace_role": "Owner"
		},
		{
			"idClient": "5937b217-0bfb-11ec-af48-024a85d3068f",
			"name": "DEMO-SILO",
			"created_at": "2021-09-02T14:37:50.000Z",
			"last_data_update": null,
			"status": "active",
			"useCase": "silo",
			"settings": null,
			"_pivot_workspace_role": "Owner"
		},
		{
			"idClient": "5937bfc8-0bfb-11ec-af48-024a85d3068f",
			"name": "DONAUCHEM",
			"created_at": "2021-09-02T14:37:50.000Z",
			"last_data_update": null,
			"status": "active",
			"useCase": "ibc",
			"settings": null,
			"_pivot_workspace_role": "Owner"
		},
		{
			"idClient": "5937c930-0bfb-11ec-af48-024a85d3068f",
			"name": "DUMMY",
			"created_at": "2021-09-02T14:37:50.000Z",
			"last_data_update": null,
			"status": "active",
			"useCase": "silo",
			"settings": null,
			"_pivot_workspace_role": "Owner"
		},
		{
			"idClient": "5937d4d9-0bfb-11ec-af48-024a85d3068f",
			"name": "EMSVECHTE",
			"created_at": "2021-09-02T14:37:50.000Z",
			"last_data_update": null,
			"status": "active",
			"useCase": "silo",
			"settings": null,
			"_pivot_workspace_role": "Owner"
		},
		{
			"idClient": "5937e56f-0bfb-11ec-af48-024a85d3068f",
			"name": "ENA",
			"created_at": "2021-09-02T14:37:50.000Z",
			"last_data_update": null,
			"status": "active",
			"useCase": "silo",
			"settings": null,
			"_pivot_workspace_role": "Owner"
		},
		{
			"idClient": "5937ec03-0bfb-11ec-af48-024a85d3068f",
			"name": "GACHES",
			"created_at": "2021-09-02T14:37:50.000Z",
			"last_data_update": null,
			"status": "active",
			"useCase": "ibc",
			"settings": null,
			"_pivot_workspace_role": "Owner"
		},
		{
			"idClient": "593990ea-0bfb-11ec-af48-024a85d3068f",
			"name": "GCSLR",
			"created_at": "2021-09-02T14:37:50.000Z",
			"last_data_update": null,
			"status": "active",
			"useCase": "silo",
			"settings": null,
			"_pivot_workspace_role": "Owner"
		},
		{
			"idClient": "5939a7fc-0bfb-11ec-af48-024a85d3068f",
			"name": "GREIF",
			"created_at": "2021-09-02T14:37:50.000Z",
			"last_data_update": null,
			"status": "active",
			"useCase": "ibc",
			"settings": null,
			"_pivot_workspace_role": "Owner"
		},
		{
			"idClient": "593d7677-0bfb-11ec-af48-024a85d3068f",
			"name": "GRIMAUD",
			"created_at": "2021-09-02T14:37:50.000Z",
			"last_data_update": null,
			"status": "active",
			"useCase": "silo",
			"settings": null,
			"_pivot_workspace_role": "Owner"
		},
		{
			"idClient": "593d7f0b-0bfb-11ec-af48-024a85d3068f",
			"name": "HAEFFNER",
			"created_at": "2021-09-02T14:37:50.000Z",
			"last_data_update": null,
			"status": "active",
			"useCase": "silo",
			"settings": null,
			"_pivot_workspace_role": "Owner"
		},
		{
			"idClient": "593f1bf7-0bfb-11ec-af48-024a85d3068f",
			"name": "IBC",
			"created_at": "2021-09-02T14:37:50.000Z",
			"last_data_update": null,
			"status": "active",
			"useCase": "ibc",
			"settings": null,
			"_pivot_workspace_role": "Owner"
		},
		{
			"idClient": "593f2774-0bfb-11ec-af48-024a85d3068f",
			"name": "IOT_VALLEY",
			"created_at": "2021-09-02T14:37:50.000Z",
			"last_data_update": null,
			"status": "active",
			"useCase": "silo",
			"settings": null,
			"_pivot_workspace_role": "Owner"
		},
		{
			"idClient": "593f32fc-0bfb-11ec-af48-024a85d3068f",
			"name": "IPRONA",
			"created_at": "2021-09-02T14:37:50.000Z",
			"last_data_update": null,
			"status": "active",
			"useCase": "ibc",
			"settings": null,
			"_pivot_workspace_role": "Owner"
		},
		{
			"idClient": "593f76a0-0bfb-11ec-af48-024a85d3068f",
			"name": "KERSIA",
			"created_at": "2021-09-02T14:37:50.000Z",
			"last_data_update": null,
			"status": "active",
			"useCase": "ibc",
			"settings": null,
			"_pivot_workspace_role": "Owner"
		},
		{
			"idClient": "593f85c5-0bfb-11ec-af48-024a85d3068f",
			"name": "KINGSPAN",
			"created_at": "2021-09-02T14:37:50.000Z",
			"last_data_update": null,
			"status": "active",
			"useCase": "silo",
			"settings": null,
			"_pivot_workspace_role": "Owner"
		},
		{
			"idClient": "593fcd66-0bfb-11ec-af48-024a85d3068f",
			"name": "LAFARGEHOLCIM",
			"created_at": "2021-09-02T14:37:50.000Z",
			"last_data_update": "2023-09-01T12:45:49.000Z",
			"status": "active",
			"useCase": "silo_industry",
			"settings": null,
			"_pivot_workspace_role": "Owner"
		},
		{
			"idClient": "594094ff-0bfb-11ec-af48-024a85d3068f",
			"name": "LAMPING",
			"created_at": "2021-09-02T14:37:50.000Z",
			"last_data_update": "2022-02-10T13:52:50.000Z",
			"status": "active",
			"useCase": "silo",
			"settings": null,
			"_pivot_workspace_role": "Owner"
		},
		{
			"idClient": "59409f19-0bfb-11ec-af48-024a85d3068f",
			"name": "LEPREAU",
			"created_at": "2021-09-02T14:37:50.000Z",
			"last_data_update": null,
			"status": "active",
			"useCase": "silo",
			"settings": null,
			"_pivot_workspace_role": "Owner"
		},
		{
			"idClient": "59447251-0bfb-11ec-af48-024a85d3068f",
			"name": "MAUSER",
			"created_at": "2021-09-02T14:37:50.000Z",
			"last_data_update": null,
			"status": "sleep",
			"useCase": "silo",
			"settings": null,
			"_pivot_workspace_role": "Owner"
		},
		{
			"idClient": "59447aed-0bfb-11ec-af48-024a85d3068f",
			"name": "LINDE_PILOTE",
			"created_at": "2021-09-02T14:37:50.000Z",
			"last_data_update": null,
			"status": "active",
			"useCase": "silo",
			"settings": null,
			"_pivot_workspace_role": "Owner"
		},
		{
			"idClient": "5946d19b-0bfb-11ec-af48-024a85d3068f",
			"name": "MEGA",
			"created_at": "2021-09-02T14:37:50.000Z",
			"last_data_update": "2022-02-10T13:50:52.000Z",
			"status": "active",
			"useCase": "silo",
			"settings": null,
			"_pivot_workspace_role": "Owner"
		},
		{
			"idClient": "5946da90-0bfb-11ec-af48-024a85d3068f",
			"name": "NANTA",
			"created_at": "2021-09-02T14:37:50.000Z",
			"last_data_update": null,
			"status": "active",
			"useCase": "silo",
			"settings": null,
			"_pivot_workspace_role": "Owner"
		},
		{
			"idClient": "5946e57b-0bfb-11ec-af48-024a85d3068f",
			"name": "NATUP",
			"created_at": "2021-09-02T14:37:50.000Z",
			"last_data_update": null,
			"status": "active",
			"useCase": "silo",
			"settings": null,
			"_pivot_workspace_role": "Owner"
		},
		{
			"idClient": "594708b5-0bfb-11ec-af48-024a85d3068f",
			"name": "NUTRISERVICE",
			"created_at": "2021-09-02T14:37:50.000Z",
			"last_data_update": null,
			"status": "active",
			"useCase": "silo",
			"settings": null,
			"_pivot_workspace_role": "Owner"
		},
		{
			"idClient": "59471174-0bfb-11ec-af48-024a85d3068f",
			"name": "PROD_ACEMIS_IBC",
			"created_at": "2021-09-02T14:37:50.000Z",
			"last_data_update": null,
			"status": "active",
			"useCase": "silo",
			"settings": null,
			"_pivot_workspace_role": "Owner"
		},
		{
			"idClient": "59474d7c-0bfb-11ec-af48-024a85d3068f",
			"name": "PROD_ACEMIS_SILO",
			"created_at": "2021-09-02T14:37:50.000Z",
			"last_data_update": null,
			"status": "active",
			"useCase": "silo",
			"settings": null,
			"_pivot_workspace_role": "Owner"
		},
		{
			"idClient": "59479443-0bfb-11ec-af48-024a85d3068f",
			"name": "ROEFIX",
			"created_at": "2021-09-02T14:37:50.000Z",
			"last_data_update": null,
			"status": "active",
			"useCase": "silo",
			"settings": null,
			"_pivot_workspace_role": "Owner"
		},
		{
			"idClient": "5947ae95-0bfb-11ec-af48-024a85d3068f",
			"name": "ROTHKOETTER",
			"created_at": "2021-09-02T14:37:50.000Z",
			"last_data_update": "2022-02-10T13:55:36.000Z",
			"status": "active",
			"useCase": "silo",
			"settings": null,
			"_pivot_workspace_role": "Owner"
		},
		{
			"idClient": "594b926e-0bfb-11ec-af48-024a85d3068f",
			"name": "SCHOELLER",
			"created_at": "2021-09-02T14:37:50.000Z",
			"last_data_update": null,
			"status": "active",
			"useCase": "ibc",
			"settings": null,
			"_pivot_workspace_role": "Owner"
		},
		{
			"idClient": "594bb4b8-0bfb-11ec-af48-024a85d3068f",
			"name": "SILO",
			"created_at": "2021-09-02T14:37:50.000Z",
			"last_data_update": "2022-04-06T11:33:53.000Z",
			"status": "active",
			"useCase": "silo",
			"settings": null,
			"_pivot_workspace_role": "Owner"
		},
		{
			"idClient": "594e16ba-0bfb-11ec-af48-024a85d3068f",
			"name": "SNCF",
			"created_at": "2021-09-02T14:37:50.000Z",
			"last_data_update": null,
			"status": "active",
			"useCase": "silo",
			"settings": null,
			"_pivot_workspace_role": "Owner"
		},
		{
			"idClient": "594e209b-0bfb-11ec-af48-024a85d3068f",
			"name": "SOTRALENTZ",
			"created_at": "2021-09-02T14:37:50.000Z",
			"last_data_update": null,
			"status": "active",
			"useCase": "ibc",
			"settings": null,
			"_pivot_workspace_role": "Owner"
		},
		{
			"idClient": "594e25c1-0bfb-11ec-af48-024a85d3068f",
			"name": "TECNOR",
			"created_at": "2021-09-02T14:37:50.000Z",
			"last_data_update": "2022-02-10T13:54:46.000Z",
			"status": "active",
			"useCase": "silo",
			"settings": null,
			"_pivot_workspace_role": "Owner"
		},
		{
			"idClient": "594e3659-0bfb-11ec-af48-024a85d3068f",
			"name": "TECNOTAMBORES",
			"created_at": "2021-09-02T14:37:50.000Z",
			"last_data_update": null,
			"status": "active",
			"useCase": "ibc",
			"settings": null,
			"_pivot_workspace_role": "Owner"
		},
		{
			"idClient": "594e4303-0bfb-11ec-af48-024a85d3068f",
			"name": "TOTAL",
			"created_at": "2021-09-02T14:37:50.000Z",
			"last_data_update": null,
			"status": "active",
			"useCase": "ibc",
			"settings": null,
			"_pivot_workspace_role": "Owner"
		},
		{
			"idClient": "594eb1ca-0bfb-11ec-af48-024a85d3068f",
			"name": "TUFFIGORAPIDEX",
			"created_at": "2021-09-02T14:37:50.000Z",
			"last_data_update": null,
			"status": "active",
			"useCase": "silo",
			"settings": null,
			"_pivot_workspace_role": "Owner"
		},
		{
			"idClient": "594f01b0-0bfb-11ec-af48-024a85d3068f",
			"name": "VENTUM",
			"created_at": "2021-09-02T14:37:50.000Z",
			"last_data_update": "2022-02-10T13:56:08.000Z",
			"status": "active",
			"useCase": "silo",
			"settings": null,
			"_pivot_workspace_role": "Owner"
		},
		{
			"idClient": "650cde2d-f86b-48a4-9102-34924169a933",
			"name": "SILOCONNECT",
			"created_at": "2023-01-11T09:14:20.000Z",
			"last_data_update": null,
			"status": "internal",
			"useCase": "silo_industry",
			"settings": null,
			"_pivot_workspace_role": "Owner"
		},
		{
			"idClient": "6669821e-351f-47f2-aac9-9c1db2d6267c",
			"name": "SMARTHOLSTEIN",
			"created_at": "2022-06-01T15:25:50.000Z",
			"last_data_update": "2023-09-06T15:22:28.000Z",
			"status": "active",
			"useCase": "silo",
			"settings": null,
			"_pivot_workspace_role": "Owner"
		},
		{
			"idClient": "69f4b448-cdf4-48e8-85aa-9cca6b77b6f0",
			"name": "CIMENTLACASSE",
			"created_at": "2023-09-14T20:11:03.000Z",
			"last_data_update": null,
			"status": "active",
			"useCase": "silo_industry",
			"settings": null,
			"_pivot_workspace_role": "Owner"
		},
		{
			"idClient": "7b8eb469-ca3e-4d8d-86a6-a1610a5d182f",
			"name": "ENVIROTECHAG",
			"created_at": "2023-03-13T20:15:48.000Z",
			"last_data_update": "2023-09-06T15:07:05.000Z",
			"status": "vip",
			"useCase": "silo",
			"settings": null,
			"_pivot_workspace_role": "Owner"
		},
		{
			"idClient": "878efd00-4ecd-11ec-b3a3-11e6a09f0a17",
			"name": "HOLCIM-NA",
			"created_at": "2021-11-26T15:28:55.000Z",
			"last_data_update": "2023-03-01T14:52:53.000Z",
			"status": "active",
			"useCase": "silo_industry",
			"settings": null,
			"_pivot_workspace_role": "Owner"
		},
		{
			"idClient": "8c4ae2ef-67a1-448a-9c93-6b788dbdb34a",
			"name": "SMI",
			"created_at": "2023-09-06T17:20:48.000Z",
			"last_data_update": null,
			"status": "vip",
			"useCase": "silo",
			"settings": null,
			"_pivot_workspace_role": "Owner"
		},
		{
			"idClient": "99ba35dc-ff7e-468d-87d4-4106d74dda6d",
			"name": "CEMEX",
			"created_at": "2022-03-03T16:07:40.000Z",
			"last_data_update": "2023-09-01T13:37:31.000Z",
			"status": "active",
			"useCase": "silo_industry",
			"settings": null,
			"_pivot_workspace_role": "Owner"
		},
		{
			"idClient": "9af56465-6f0d-4a11-b764-f0f26532b59e",
			"name": "AGRIPLAS",
			"created_at": "2021-10-26T08:14:13.000Z",
			"last_data_update": "2023-09-01T13:31:41.000Z",
			"status": "vip",
			"useCase": "silo_industry",
			"settings": null,
			"_pivot_workspace_role": "Owner"
		},
		{
			"idClient": "9fbb1450-d6e1-4cd2-a65b-bc2be7ce7d42",
			"name": "ACORNWATER",
			"created_at": "2022-09-20T14:33:28.000Z",
			"last_data_update": null,
			"status": "sleep",
			"useCase": "ibc",
			"settings": null,
			"_pivot_workspace_role": "Owner"
		},
		{
			"idClient": "b094bff9-40fc-43ae-94a2-a10acf7bb4a5",
			"name": "DEAL-RITEFEEDS",
			"created_at": "2022-11-10T15:58:29.000Z",
			"last_data_update": "2023-09-01T12:06:53.000Z",
			"status": "vip",
			"useCase": "silo",
			"settings": null,
			"_pivot_workspace_role": "Owner"
		},
		{
			"idClient": "ba84f6a0-73e0-4bb3-801f-b6390d9d5577",
			"name": "GOODVALLEY",
			"created_at": "2023-11-13T14:42:49.000Z",
			"last_data_update": null,
			"status": "vip",
			"useCase": "silo",
			"settings": null,
			"_pivot_workspace_role": "Owner"
		},
		{
			"idClient": "c40fb0b7-41f3-4aa0-8daf-37b64c5d0cd8",
			"name": "BWFEED",
			"created_at": "2022-03-21T16:29:04.000Z",
			"last_data_update": "2022-09-21T12:36:16.000Z",
			"status": "active",
			"useCase": "silo",
			"settings": null,
			"_pivot_workspace_role": "Owner"
		},
		{
			"idClient": "c97fef24-6b78-46a1-b683-894f1f22b66d",
			"name": "NEWHOLCIM",
			"created_at": "2024-05-03T13:48:12.000Z",
			"last_data_update": null,
			"status": null,
			"useCase": "silo_industry",
			"settings": null,
			"_pivot_workspace_role": "Owner"
		},
		{
			"idClient": "cc90aa28-1a14-4a8e-b16d-7c110116f510",
			"name": "MONDOU",
			"created_at": "2021-11-04T14:28:39.000Z",
			"last_data_update": "2023-09-01T13:35:46.000Z",
			"status": "vip",
			"useCase": "silo",
			"settings": null,
			"_pivot_workspace_role": "Owner"
		},
		{
			"idClient": "ce409d8a-4234-4438-a441-327258c72deb",
			"name": "AGRISOLUS",
			"created_at": "2022-04-05T12:38:12.000Z",
			"last_data_update": "2023-09-01T12:53:23.000Z",
			"status": "vip",
			"useCase": "silo",
			"settings": null,
			"_pivot_workspace_role": "Owner"
		},
		{
			"idClient": "d20b3b7a-1df2-4d63-b620-753aef4cb0be",
			"name": "CAN-MEXICO",
			"created_at": "2023-08-02T14:00:48.000Z",
			"last_data_update": "2023-09-06T14:33:54.000Z",
			"status": "vip",
			"useCase": "silo",
			"settings": null,
			"_pivot_workspace_role": "Owner"
		},
		{
			"idClient": "d6d1eff8-b138-4a1d-898e-2e15da065897",
			"name": "IDEALPORK",
			"created_at": "2024-01-22T16:15:15.000Z",
			"last_data_update": null,
			"status": "vip",
			"useCase": "silo",
			"settings": null,
			"_pivot_workspace_role": "Owner"
		},
		{
			"idClient": "db93f7d8-77b7-4744-862e-f18604680a4f",
			"name": "NANOLIKE-SILO",
			"created_at": "2022-03-16T10:32:25.000Z",
			"last_data_update": "2023-09-01T13:02:38.000Z",
			"status": "internal",
			"useCase": "silo",
			"settings": null,
			"_pivot_workspace_role": "Owner"
		},
		{
			"idClient": "dc15fbca-ecc1-465e-946d-9e1044c23222",
			"name": "DPT",
			"created_at": "2024-02-21T10:33:19.000Z",
			"last_data_update": null,
			"status": "dead",
			"useCase": "silo",
			"settings": null,
			"_pivot_workspace_role": "Owner"
		},
		{
			"idClient": "df1234e1-7f3b-478a-860a-c06340d523b9",
			"name": "SOLLIO",
			"created_at": "2021-11-10T10:19:26.000Z",
			"last_data_update": "2023-02-03T16:33:49.000Z",
			"status": "active",
			"useCase": "silo",
			"settings": null,
			"_pivot_workspace_role": "Owner"
		},
		{
			"idClient": "e120ea33-179c-11ec-b8db-0608877c59a5",
			"name": "AGRIAVI",
			"created_at": "2021-09-17T09:51:50.000Z",
			"last_data_update": "2022-02-11T15:37:10.000Z",
			"status": "active",
			"useCase": "silo",
			"settings": null,
			"_pivot_workspace_role": "Owner"
		},
		{
			"idClient": "e12bae2d-179c-11ec-b8db-0608877c59a5",
			"name": "DEMO",
			"created_at": "2021-09-17T09:51:50.000Z",
			"last_data_update": null,
			"status": "internal",
			"useCase": "silo",
			"settings": null,
			"_pivot_workspace_role": "Owner"
		},
		{
			"idClient": "e12e1d2d-179c-11ec-b8db-0608877c59a5",
			"name": "FUW",
			"created_at": "2021-09-17T09:51:50.000Z",
			"last_data_update": "2023-09-06T15:01:42.000Z",
			"status": "sleep",
			"useCase": "silo",
			"settings": null,
			"_pivot_workspace_role": "Owner"
		},
		{
			"idClient": "e137a5af-179c-11ec-b8db-0608877c59a5",
			"name": "MOLESWORTH",
			"created_at": "2021-09-17T09:51:50.000Z",
			"last_data_update": "2023-06-07T12:55:43.000Z",
			"status": "vip",
			"useCase": "silo",
			"settings": null,
			"_pivot_workspace_role": "Owner"
		},
		{
			"idClient": "e13d6c48-179c-11ec-b8db-0608877c59a5",
			"name": "SOREAL",
			"created_at": "2021-09-17T09:51:50.000Z",
			"last_data_update": null,
			"status": "active",
			"useCase": "silo",
			"settings": null,
			"_pivot_workspace_role": "Owner"
		},
		{
			"idClient": "e140d542-179c-11ec-b8db-0608877c59a5",
			"name": "ZUBAREV",
			"created_at": "2021-09-17T09:51:50.000Z",
			"last_data_update": "2022-03-25T20:00:36.000Z",
			"status": "dead",
			"useCase": "ibc",
			"settings": null,
			"_pivot_workspace_role": "Owner"
		},
		{
			"idClient": "e1aba49c-14f1-4e5b-b18e-334028cad469",
			"name": "TESTSCELLULAR",
			"created_at": "2022-06-02T13:30:46.000Z",
			"last_data_update": "2022-10-25T12:36:34.000Z",
			"status": "active",
			"useCase": "silo",
			"settings": null,
			"_pivot_workspace_role": "Owner"
		},
		{
			"idClient": "ed1ac5f9-c794-45ad-82ab-f7553950ab3b",
			"name": "CORBYROCKMILL",
			"created_at": "2021-11-02T13:17:34.000Z",
			"last_data_update": "2023-09-01T13:22:49.000Z",
			"status": "active",
			"useCase": "silo",
			"settings": null,
			"_pivot_workspace_role": "Owner"
		},
		{
			"idClient": "fb3ae030-378c-4ae6-a4c3-c5032615f993",
			"name": "FLAMBEAU",
			"created_at": "2023-06-09T13:26:36.000Z",
			"last_data_update": "2023-09-06T15:04:03.000Z",
			"status": "active",
			"useCase": "silo_industry",
			"settings": null,
			"_pivot_workspace_role": "Owner"
		}
	],
	"role": {
		"idRole": "5a9f80bc-a7c8-4d38-bdca-f1c639f77658",
		"name": "Nanolike Tech",
		"is_nanolike": 1,
		"dedicated_to_product": "",
		"dedicated_to_client_id": null,
		"group_role_delegation": 0,
		"global": 1,
		"hierarchy": -3,
		"description": "Access for Nanolike tech team, really permissive",
		"created_by_id": "1ab8ee70-b2e2-42fb-9b3c-198f9f5ed237",
		"updated_by_id": "1ab8ee70-b2e2-42fb-9b3c-198f9f5ed237",
		"created_at": "2023-12-15T09:02:45.000Z",
		"updated_at": "2023-12-15T09:02:45.000Z"
	}
}