{
  "count": 16,
  "results": [
    {
      "id": "f465f803-fe62-453a-b0ac-a7120053a297",
      "date": "2021-07-15",
      "date_range_end": null,
      "round": null,
      "created_by_id": "bf556306-a21e-4d9d-9834-909384256ee2",
      "timeSlot": "morning",
      "totalTonnage": 1,
      "comment": null,
      "source": "order",
      "created_by": null,
      "silos": [
        {
          "id": "ST0004",
          "device_name": "Silo 4",
          "tonnage": 1,
          "comment": null,
          "silo_number": "SILO 1",
          "group_ids": [
            "7b500e63-1f28-49d0-9f7a-7667a283650c",
            "df058fac-86c1-4f60-8bfd-7356a8cf0c5e"
          ],
          "farm_name": "Ferme Pierre Martin",
          "calibration_accepted": true,
          "content": {
            "name": "CONTENU",
            "type": "Test",
            "drug": "DRUG 1",
            "supplement": {
              "name": "SUPPLEMENT 1",
              "ratio": null
            }
          }
        }
      ],
      "created_at": "2021-07-13T13:37:01.668Z",
      "updated_at": "2021-07-13T13:38:30.446Z"
    },
    {
      "id": "7204653a-c32a-47bf-b169-4ddd005d8c4e",
      "date": "2021-12-05",
      "date_range_end": "2021-12-10",
      "round": "last",
      "created_by_id": "bf556306-a21e-4d9d-9834-909384256ee2",
      "timeSlot": "morning",
      "totalTonnage": 9,
      "comment": "Hello!",
      "source": "order",
      "created_by": null,
      "silos": [
        {
          "id": "ST0004",
          "device_name": "Silo 4",
          "tonnage": 9,
          "comment": null,
          "silo_number": 4,
          "group_ids": [
            "7b500e63-1f28-49d0-9f7a-7667a283650c",
            "df058fac-86c1-4f60-8bfd-7356a8cf0c5e"
          ],
          "farm_name": "Ferme Pierre Martin",
          "calibration_accepted": true,
          "content": {
            "name": "The content 1",
            "type": "CONTENT TYPE",
            "drug": "The drug 1",
            "supplement": {
              "name": "supplement 1",
              "ratio": 2
            }
          }
        }
      ],
      "created_at": "2021-12-02T09:21:42.352Z",
      "updated_at": "2021-12-02T09:21:42.352Z"
    },
    {
      "id": "1f0bb220-7805-43c5-892b-bf65daea5892",
      "date": "2021-12-06",
      "date_range_end": null,
      "round": "last",
      "created_by_id": "bf556306-a21e-4d9d-9834-909384256ee2",
      "timeSlot": "morning",
      "totalTonnage": 9,
      "comment": "Hello!",
      "source": "order",
      "created_by": null,
      "silos": [
        {
          "id": "ST0004",
          "device_name": "Silo 4",
          "tonnage": 9,
          "comment": null,
          "silo_number": null,
          "group_ids": [
            "7b500e63-1f28-49d0-9f7a-7667a283650c",
            "df058fac-86c1-4f60-8bfd-7356a8cf0c5e"
          ],
          "farm_name": "Ferme Pierre Martin",
          "calibration_accepted": true,
          "content": {
            "name": "The content 1",
            "type": "CONTENT TYPE",
            "drug": "The drug 1",
            "supplement": {
              "name": "supplement 1",
              "ratio": 2
            }
          }
        }
      ],
      "created_at": "2021-12-02T09:24:28.214Z",
      "updated_at": "2021-12-02T09:24:28.214Z"
    },
    {
      "id": "a1a0628e-44f3-4d51-bcf6-783085102f18",
      "date": "2022-05-12",
      "date_range_end": null,
      "round": null,
      "created_by_id": "1ab8ee70-b2e2-42fb-9b3c-198f9f5ed237",
      "timeSlot": "morning",
      "totalTonnage": 0,
      "comment": "Plop",
      "source": "order",
      "created_by": {
        "idUser": "1ab8ee70-b2e2-42fb-9b3c-198f9f5ed237",
        "username": "julien.coustillas@nanolike.com",
        "created_at": "2022-03-30T12:06:28.000Z",
        "updated_at": "2023-01-03T10:50:00.000Z",
        "email": "julien.coustillas@nanolike.com",
        "acl": 3,
        "last_login": "2023-01-03T10:50:00.000Z",
        "date_joined": "2022-03-30T12:10:53.000Z",
        "configuration": {
          "preferred_language": "en",
          "preferred_timezone": "UTC",
          "firebase_device_tokens": [
            "fDannaOiR7qB8BV_ZFxNp6:APA91bGQ_0eHmRWVhKXdGOz1Ciiozgx6PEsgYOq1iBaOzvZyLu6qxFhMjYkeTwFuyjWITA3k9DixsGOe-3DMLQmp_3_72jHur_YqLuH7owIjrYTLRWN0kFCIjcDWf6ZiDV0M74znpyhD"
          ]
        },
        "is_terms_accepted": 1,
        "is_invitation_pending": 0,
        "first_name": "Julien",
        "last_name": "Coustillas",
        "is_nano_staff": 1,
        "clients": [
          {
            "idClient": "594bb4b8-0bfb-11ec-af48-024a85d3068f",
            "name": "SILO",
            "created_at": "2021-09-02T14:37:50.000Z",
            "last_data_update": "2022-04-06T11:33:53.000Z",
            "status": null,
            "_pivot_idUser": "1ab8ee70-b2e2-42fb-9b3c-198f9f5ed237",
            "_pivot_idClient": "594bb4b8-0bfb-11ec-af48-024a85d3068f",
            "_pivot_is_active": 1,
            "_pivot_workspace_role": "Installer"
          }
        ],
        "workspaces": [
          "silo"
        ],
        "allowed_workspaces": [
          "silo"
        ]
      },
      "silos": [],
      "created_at": "2022-05-10T15:44:51.821Z",
      "updated_at": "2022-05-10T15:44:51.821Z"
    },
    {
      "id": "0692a0aa-8d45-49b4-9314-9cc1d1f59aad",
      "date": "2022-05-21",
      "date_range_end": null,
      "round": null,
      "created_by_id": "d7a541f2-d842-41e5-bb4c-3dde5886b214",
      "timeSlot": "morning",
      "totalTonnage": 0,
      "comment": null,
      "source": "order",
      "created_by": {
        "idUser": "d7a541f2-d842-41e5-bb4c-3dde5886b214",
        "username": "antoine.pemeja@nanolike.com",
        "created_at": "2022-05-18T07:38:08.000Z",
        "updated_at": "2023-01-03T15:09:45.000Z",
        "email": "antoine.pemeja@nanolike.com",
        "acl": 2,
        "last_login": "2023-01-03T15:09:45.000Z",
        "date_joined": "2022-05-18T07:03:44.000Z",
        "configuration": {
          "preferred_language": "en",
          "preferred_timezone": "America/Montreal",
          "firebase_device_tokens": [
            "coXlnKNQTWq5vnqc0o_1jr:APA91bG5u-4TPmFFV0W4pnHKTROKQ8li5TwmyOo0VwE9hAMgqzQ8kD9a2FK4-g9Jtu7PWr_ASgr_O_j7yABZBh3QgE8Cl2gID0fOOKmDWa51g3tL68bmTL0L-yiyF6CKxjPuUoGIdwMN",
            "dJ3REV-iS7WjygK8vTp7Xy:APA91bEEg4DTSGabdD4wX5BHJnOzSvgyLImwIJ9mQQfTcD7ieuXTgb38nVYhPniU7Js8TnmEzrBWz5_Prpx0qZrauWsEsS_8-Cvn92InVQFUZEH7yNGU2PyN9lacsYwFBzfVBiCf1zWr",
            "cHYgL0Sk_0Y0k61MxNuZsM:APA91bFPzBA2ERn4BSIaHnBYzrbeOrJ7iZW9OHWhnNbHvGcilOJeHzjVmQeAlsON_QBhLu0DjTHfo0Py509TSuZIuprCbaAm7xKukZt0pqjuuQz7KQeftpRO9GQjExwFpyxyMc34rEZ0",
            "czlC_sf7TeiypD11UPgs3l:APA91bE2Fp5KOapq56T4h5Nia1IJeoPWcv8gUi0ovbeFQC3475BdgrJGeeMUxlziPoXxRIdyyoRoT_Q-6MZGftOoU4D2KJ4nXL7kGIKzcy0nkaoQvOAvsPcFq6vMLIuvzW1cQ5MNukHF",
            "eUxowmthQ32VeMPmGLR_Zf:APA91bEDqxClSq7dmBWvP6sDOMaLBkruYltIvB6Of7JBwGqOvB3cVOorBhCCRa1hnw58qxxFsCAhzTQMBdnlaiEidUgiut9aETsW3KX_0DrYOZVOL614tVAk5HaYyCpIkCmmos3vKQr6",
            "fooNNVVpQT6zpjKh2gn6Q5:APA91bG8FEOjuffL0O_klh1_w1SA6SJHIvCKlme9kCid2SXyfw7g4qPcA_g7Mq6RZ0DHbkuW4-xj2QDT-31jP59-A-Ry2D2I9qSfb38jUghnL4jEVUGYFGG3PngTtR8XmqmTM-IyU3jj",
            "f08p7IPTRAqH9uGrdRgYYs:APA91bFdUd0AW6M3lzWsgn7oCt9WaFKdtQ4a3FIJOKAqp1elHmhrKXdmLSb04JEVXvl7W_iriS5m16bukhoLG2IGE5N3nntSVOsnwPRKGiNgaBAeGHw-TGgc-Ilak5xRlQ119b_Eqm9s",
            "ebM1HiY8SpqoQZa6ZRwwXw:APA91bENAtYZjRcT-aBfojlwz2jJ0xIjlVh2_YH94YQWMx9W43NMuTYeJoflusI8P-VDmraYzMt73XTm0gzijfdmUxoEZkrEeVofG9S3hJvxhasmCk9S-YHvuiiTpNjnvySv9HHWY7NF",
            "dXVmO2G5T4OEM8em60x34E:APA91bEzavoS31GmpNRMfLXInDm6wLQ4IXTuaKYqXoXzGEzWXyAeksURgJa2PFduTp3u6Td1oOu7DHfQuOGr_sM0JpnzbIPlDXY6tTulsI9culjP2EoubamTnIAH7JtfaXJr1vM8As99",
            "e4WkCEP-Q5WKvuivNkbsxm:APA91bGq4vKsHr3FDZaHqSpzEDbZgMFn6E9r3kMukDrUOvgJZw6h6U_zhgSgp-bTlcPeo9F_epsD3iqnj08x3gRA-yP2tDbFut2KbBIpqcVykSZbt_PItCTDlaTTPI5zN4SXhCKaICCd",
            "cpL7ArZH9UAHnQfoWPArsO:APA91bERymWtr6xY9RYRWi6OLItYB7ApNbQlhE-HJ_1aj4EM6wU-_xxNG0cO2-Od-awik8O-yOJYJauGeKRFgUNLTx6CY-qudQ0F1pFf05eJPdVsREFdUFn792cXX-unzeXdQ45HVaw_",
            "dm6ommNzDkbvivqdpzZq-J:APA91bEjSWMLG-gg5jC-F9bmFKJMaEdMFCC_7EA9pes-flrwjvNaIuOuMcn0RKYMS6VDGr2FqtABvyJr9axkzti7qtxzBaVMHB8hG_0Fgf6w9szormB-cjU9bkTdGFtxq8cvJQfzZZAk",
            "faKe4J63Ra6w2R3evYkbvz:APA91bHacOguHf00pi4PhKK6jAhbxV9u_TBIM4cMT2xuxEf8PfiiJuErZ4T5RQ5pkq4p7tvd6t8L4IA6CvDJRg_1-InH-IGOYCNdhi7-fXbN9Dlc9vQBfP4RlmNg4n0bB0BbU9vRVZ6p",
            "cyX5Z0krxkK2g8wLsfYPRO:APA91bElisALFwW2tr_mH7tPMeqfa8zLfTC0STxIO7rLxTrME0uGMc2oee_5RresR68yfkmOhoTZzSdO2mQvXG72TxV75vbwbFQ0177_-mYUPH2FhXetOezPhHAC-CGw0sdINGn0K2Xw",
            "czktAa10TLCViU9oVqdzVF:APA91bHRoBmLM-foAYTMfHazCI7fcn7qJsT7O2n2p8tOXOFqv4dWF2iNLn4B8icwm42Cq3bxPhRMHcyQBDaCmYGlmBTZIZ4VIWuXKZ18NhFonpLJo6_yD9yPiTQc6rNI6-oVQXrhFG5d",
            "cveVvMlRCECOirn6kftGum:APA91bFdIE3xiUyneDCVDh_4bYRZW0ZnXmEJgVl-oFKkhtqG1ajuuuynx_LlP2nzO4XAoBrZZc_IvwkEoHFjIkyP6gVq1wra3WHpaaLofG111fF_bab88omlFkYw3-QWJe3fu1SFj-zB",
            "eTu7SrBeQqKbK9XH8X0EQ_:APA91bH2PjixhMG0VvxpBWZFBH9IOyIjwubrCpzHT9sPjbXVzpFeLacyNBxZGTQ-V9-b06H4YfyhTLAOBxovijsyzMfFf0vPhvrO_d5_LDEp9SkbGpYaUHGmTR5B33fAzQ0XeVKNEpsL",
            "cieHo7xvDUdWhXZvXvu5jA:APA91bFdIFGJD6V1EeGAjC5l28o4waBMVsL9L7x8gGPNhrexwkZPtL6FfHAaSE4434HRm8bxfjcrZWMVhJhPXQFHCUgEFIbL0Pe97Ipa16u-MgHZQjyP4k0kL6aRzvAVpc6ltoUu4Dc9",
            "dtjiC6lfReiArRnOHwFs-k:APA91bFpZHk3AMZTVOySlO85uimIb66-D4vaBaXMMhcZeZo8SIxNqsK7WHrtTDVuVEa6zq33pIzIg9r5UbzcSjd1wnGpUEyAOdQdDKf_89KgKmrgl0X2C15ft850ipEau2XziFxtWlJU",
            "fFL8ABLqS5OakPQqSzz9nG:APA91bGb1k4V3BWmVdjKa7zqigsjx8WC-TrN-h7uV5kdD2JrnfM8ZQFVy9OCG68_cuHnHJfXN-_2Z_W5UMxW38jheJi2kH86OCu62uLd8WUBFg7ps96pKsJXH2hkNnUXNcZ9qwXRGgUc",
            "eWcb_QRdMEr_qbedTs4cc4:APA91bEKkcRXUypofz9UADfKM22fhPZpws0cymnKVfHeb9TVWBo12lspza_lsz9ezp5MEx7rqX4rPOpjYbPZO-_V_Wy-TMdQGNQNHx6buEcXGkjSjSpCKIjg55IP5d-ghkFg2ATVMorp",
            "c_wixWzrgkV0ltEO_daEiA:APA91bFsSSJ7yQmjOGkvtYFQt9l1XmE4fz-OWWIVqU4mzQakITg2oxnZYyQ8htsYPdFZYrudNIwpoo_N60oQRrYqAZ5iMXfamAXw7K96u7HlND_-TkyRJBrvDV4kgEHRBYFjIXUwm9Vf",
            "el8ArkScRdKHu6J08_Hcku:APA91bFTpreCVTfEzSt4XfG8whQjN7oOrRikchHgtoThECmaVkdH-12mRAJblCyPlkTqJ7fKxift74UjwVynU-QkWDLpi7BTO0P1jATiurr9HLJPLx2s4_yG1YNL7IEcDVafdUuo1bVZ",
            "d0XIUOMcR-KLn9AnJTvCZ3:APA91bHmvhm8S4b288x1NgkJwB63KkIxcerah7o2-WcIX9VdEz0HMTAoYxUzLi5Fi6xHol8WZU6lQqXboxxqQLrHrqIqkohQ6QMrUNOpJuGsl3M5PTHGZgwY-uETIce634R3vkJNiiOG",
            "fLUFCtPzTUyKhcRtLFyBts:APA91bGOkIVbMMAoUHuIfolzn2uN_xDn_qTfY3cheMwPKgPBYAQ3yDc0dvB66Tmp9_FfRFhRQGoe1FAGO8ZQv9brzeWC6lX5seOUdPuj_aSm3jLoMnVNpEbtePyUdg8YIJ4spJxuqiPV",
            "czZHJOViw0SHlrXrX2V5-Z:APA91bEiFOQ2d1WDdcYNCQ82FSKY8czzgg0j5u0Muu3SscfYfvU05_6_IDVzdGsZ4skk8h2XC91vaoL-z4EXEjuiIa6LccfmORRQ3MldltLUKVj99agV4a-1wgsEfXEZgSPYlgAOoQey"
          ]
        },
        "is_terms_accepted": 1,
        "is_invitation_pending": 0,
        "first_name": "antoine",
        "last_name": "Pemeja",
        "is_nano_staff": 1,
        "clients": [],
        "workspaces": [],
        "allowed_workspaces": []
      },
      "silos": [],
      "created_at": "2022-05-19T15:24:18.740Z",
      "updated_at": "2022-05-19T15:24:18.740Z"
    },
    {
      "id": "9d30d6e2-631a-451f-975a-a3d06236a391",
      "date": "2022-06-10",
      "date_range_end": null,
      "round": null,
      "created_by_id": "d7a541f2-d842-41e5-bb4c-3dde5886b214",
      "timeSlot": "morning",
      "totalTonnage": 0,
      "comment": null,
      "source": "order",
      "created_by": {
        "idUser": "d7a541f2-d842-41e5-bb4c-3dde5886b214",
        "username": "antoine.pemeja@nanolike.com",
        "created_at": "2022-05-18T07:38:08.000Z",
        "updated_at": "2023-01-03T15:09:45.000Z",
        "email": "antoine.pemeja@nanolike.com",
        "acl": 2,
        "last_login": "2023-01-03T15:09:45.000Z",
        "date_joined": "2022-05-18T07:03:44.000Z",
        "configuration": {
          "preferred_language": "en",
          "preferred_timezone": "America/Montreal",
          "firebase_device_tokens": [
            "coXlnKNQTWq5vnqc0o_1jr:APA91bG5u-4TPmFFV0W4pnHKTROKQ8li5TwmyOo0VwE9hAMgqzQ8kD9a2FK4-g9Jtu7PWr_ASgr_O_j7yABZBh3QgE8Cl2gID0fOOKmDWa51g3tL68bmTL0L-yiyF6CKxjPuUoGIdwMN",
            "dJ3REV-iS7WjygK8vTp7Xy:APA91bEEg4DTSGabdD4wX5BHJnOzSvgyLImwIJ9mQQfTcD7ieuXTgb38nVYhPniU7Js8TnmEzrBWz5_Prpx0qZrauWsEsS_8-Cvn92InVQFUZEH7yNGU2PyN9lacsYwFBzfVBiCf1zWr",
            "cHYgL0Sk_0Y0k61MxNuZsM:APA91bFPzBA2ERn4BSIaHnBYzrbeOrJ7iZW9OHWhnNbHvGcilOJeHzjVmQeAlsON_QBhLu0DjTHfo0Py509TSuZIuprCbaAm7xKukZt0pqjuuQz7KQeftpRO9GQjExwFpyxyMc34rEZ0",
            "czlC_sf7TeiypD11UPgs3l:APA91bE2Fp5KOapq56T4h5Nia1IJeoPWcv8gUi0ovbeFQC3475BdgrJGeeMUxlziPoXxRIdyyoRoT_Q-6MZGftOoU4D2KJ4nXL7kGIKzcy0nkaoQvOAvsPcFq6vMLIuvzW1cQ5MNukHF",
            "eUxowmthQ32VeMPmGLR_Zf:APA91bEDqxClSq7dmBWvP6sDOMaLBkruYltIvB6Of7JBwGqOvB3cVOorBhCCRa1hnw58qxxFsCAhzTQMBdnlaiEidUgiut9aETsW3KX_0DrYOZVOL614tVAk5HaYyCpIkCmmos3vKQr6",
            "fooNNVVpQT6zpjKh2gn6Q5:APA91bG8FEOjuffL0O_klh1_w1SA6SJHIvCKlme9kCid2SXyfw7g4qPcA_g7Mq6RZ0DHbkuW4-xj2QDT-31jP59-A-Ry2D2I9qSfb38jUghnL4jEVUGYFGG3PngTtR8XmqmTM-IyU3jj",
            "f08p7IPTRAqH9uGrdRgYYs:APA91bFdUd0AW6M3lzWsgn7oCt9WaFKdtQ4a3FIJOKAqp1elHmhrKXdmLSb04JEVXvl7W_iriS5m16bukhoLG2IGE5N3nntSVOsnwPRKGiNgaBAeGHw-TGgc-Ilak5xRlQ119b_Eqm9s",
            "ebM1HiY8SpqoQZa6ZRwwXw:APA91bENAtYZjRcT-aBfojlwz2jJ0xIjlVh2_YH94YQWMx9W43NMuTYeJoflusI8P-VDmraYzMt73XTm0gzijfdmUxoEZkrEeVofG9S3hJvxhasmCk9S-YHvuiiTpNjnvySv9HHWY7NF",
            "dXVmO2G5T4OEM8em60x34E:APA91bEzavoS31GmpNRMfLXInDm6wLQ4IXTuaKYqXoXzGEzWXyAeksURgJa2PFduTp3u6Td1oOu7DHfQuOGr_sM0JpnzbIPlDXY6tTulsI9culjP2EoubamTnIAH7JtfaXJr1vM8As99",
            "e4WkCEP-Q5WKvuivNkbsxm:APA91bGq4vKsHr3FDZaHqSpzEDbZgMFn6E9r3kMukDrUOvgJZw6h6U_zhgSgp-bTlcPeo9F_epsD3iqnj08x3gRA-yP2tDbFut2KbBIpqcVykSZbt_PItCTDlaTTPI5zN4SXhCKaICCd",
            "cpL7ArZH9UAHnQfoWPArsO:APA91bERymWtr6xY9RYRWi6OLItYB7ApNbQlhE-HJ_1aj4EM6wU-_xxNG0cO2-Od-awik8O-yOJYJauGeKRFgUNLTx6CY-qudQ0F1pFf05eJPdVsREFdUFn792cXX-unzeXdQ45HVaw_",
            "dm6ommNzDkbvivqdpzZq-J:APA91bEjSWMLG-gg5jC-F9bmFKJMaEdMFCC_7EA9pes-flrwjvNaIuOuMcn0RKYMS6VDGr2FqtABvyJr9axkzti7qtxzBaVMHB8hG_0Fgf6w9szormB-cjU9bkTdGFtxq8cvJQfzZZAk",
            "faKe4J63Ra6w2R3evYkbvz:APA91bHacOguHf00pi4PhKK6jAhbxV9u_TBIM4cMT2xuxEf8PfiiJuErZ4T5RQ5pkq4p7tvd6t8L4IA6CvDJRg_1-InH-IGOYCNdhi7-fXbN9Dlc9vQBfP4RlmNg4n0bB0BbU9vRVZ6p",
            "cyX5Z0krxkK2g8wLsfYPRO:APA91bElisALFwW2tr_mH7tPMeqfa8zLfTC0STxIO7rLxTrME0uGMc2oee_5RresR68yfkmOhoTZzSdO2mQvXG72TxV75vbwbFQ0177_-mYUPH2FhXetOezPhHAC-CGw0sdINGn0K2Xw",
            "czktAa10TLCViU9oVqdzVF:APA91bHRoBmLM-foAYTMfHazCI7fcn7qJsT7O2n2p8tOXOFqv4dWF2iNLn4B8icwm42Cq3bxPhRMHcyQBDaCmYGlmBTZIZ4VIWuXKZ18NhFonpLJo6_yD9yPiTQc6rNI6-oVQXrhFG5d",
            "cveVvMlRCECOirn6kftGum:APA91bFdIE3xiUyneDCVDh_4bYRZW0ZnXmEJgVl-oFKkhtqG1ajuuuynx_LlP2nzO4XAoBrZZc_IvwkEoHFjIkyP6gVq1wra3WHpaaLofG111fF_bab88omlFkYw3-QWJe3fu1SFj-zB",
            "eTu7SrBeQqKbK9XH8X0EQ_:APA91bH2PjixhMG0VvxpBWZFBH9IOyIjwubrCpzHT9sPjbXVzpFeLacyNBxZGTQ-V9-b06H4YfyhTLAOBxovijsyzMfFf0vPhvrO_d5_LDEp9SkbGpYaUHGmTR5B33fAzQ0XeVKNEpsL",
            "cieHo7xvDUdWhXZvXvu5jA:APA91bFdIFGJD6V1EeGAjC5l28o4waBMVsL9L7x8gGPNhrexwkZPtL6FfHAaSE4434HRm8bxfjcrZWMVhJhPXQFHCUgEFIbL0Pe97Ipa16u-MgHZQjyP4k0kL6aRzvAVpc6ltoUu4Dc9",
            "dtjiC6lfReiArRnOHwFs-k:APA91bFpZHk3AMZTVOySlO85uimIb66-D4vaBaXMMhcZeZo8SIxNqsK7WHrtTDVuVEa6zq33pIzIg9r5UbzcSjd1wnGpUEyAOdQdDKf_89KgKmrgl0X2C15ft850ipEau2XziFxtWlJU",
            "fFL8ABLqS5OakPQqSzz9nG:APA91bGb1k4V3BWmVdjKa7zqigsjx8WC-TrN-h7uV5kdD2JrnfM8ZQFVy9OCG68_cuHnHJfXN-_2Z_W5UMxW38jheJi2kH86OCu62uLd8WUBFg7ps96pKsJXH2hkNnUXNcZ9qwXRGgUc",
            "eWcb_QRdMEr_qbedTs4cc4:APA91bEKkcRXUypofz9UADfKM22fhPZpws0cymnKVfHeb9TVWBo12lspza_lsz9ezp5MEx7rqX4rPOpjYbPZO-_V_Wy-TMdQGNQNHx6buEcXGkjSjSpCKIjg55IP5d-ghkFg2ATVMorp",
            "c_wixWzrgkV0ltEO_daEiA:APA91bFsSSJ7yQmjOGkvtYFQt9l1XmE4fz-OWWIVqU4mzQakITg2oxnZYyQ8htsYPdFZYrudNIwpoo_N60oQRrYqAZ5iMXfamAXw7K96u7HlND_-TkyRJBrvDV4kgEHRBYFjIXUwm9Vf",
            "el8ArkScRdKHu6J08_Hcku:APA91bFTpreCVTfEzSt4XfG8whQjN7oOrRikchHgtoThECmaVkdH-12mRAJblCyPlkTqJ7fKxift74UjwVynU-QkWDLpi7BTO0P1jATiurr9HLJPLx2s4_yG1YNL7IEcDVafdUuo1bVZ",
            "d0XIUOMcR-KLn9AnJTvCZ3:APA91bHmvhm8S4b288x1NgkJwB63KkIxcerah7o2-WcIX9VdEz0HMTAoYxUzLi5Fi6xHol8WZU6lQqXboxxqQLrHrqIqkohQ6QMrUNOpJuGsl3M5PTHGZgwY-uETIce634R3vkJNiiOG",
            "fLUFCtPzTUyKhcRtLFyBts:APA91bGOkIVbMMAoUHuIfolzn2uN_xDn_qTfY3cheMwPKgPBYAQ3yDc0dvB66Tmp9_FfRFhRQGoe1FAGO8ZQv9brzeWC6lX5seOUdPuj_aSm3jLoMnVNpEbtePyUdg8YIJ4spJxuqiPV",
            "czZHJOViw0SHlrXrX2V5-Z:APA91bEiFOQ2d1WDdcYNCQ82FSKY8czzgg0j5u0Muu3SscfYfvU05_6_IDVzdGsZ4skk8h2XC91vaoL-z4EXEjuiIa6LccfmORRQ3MldltLUKVj99agV4a-1wgsEfXEZgSPYlgAOoQey"
          ]
        },
        "is_terms_accepted": 1,
        "is_invitation_pending": 0,
        "first_name": "antoine",
        "last_name": "Pemeja",
        "is_nano_staff": 1,
        "clients": [],
        "workspaces": [],
        "allowed_workspaces": []
      },
      "silos": [],
      "created_at": "2022-06-09T23:46:40.592Z",
      "updated_at": "2022-06-09T23:46:40.592Z"
    },
    {
      "id": "c27570db-1bf9-4d7d-b44d-f3c73f8f81d8",
      "date": "2022-06-25",
      "date_range_end": "2022-06-25",
      "round": null,
      "created_by_id": "d7a541f2-d842-41e5-bb4c-3dde5886b214",
      "timeSlot": "morning",
      "totalTonnage": 0,
      "comment": null,
      "source": "order",
      "created_by": {
        "idUser": "d7a541f2-d842-41e5-bb4c-3dde5886b214",
        "username": "antoine.pemeja@nanolike.com",
        "created_at": "2022-05-18T07:38:08.000Z",
        "updated_at": "2023-01-03T15:09:45.000Z",
        "email": "antoine.pemeja@nanolike.com",
        "acl": 2,
        "last_login": "2023-01-03T15:09:45.000Z",
        "date_joined": "2022-05-18T07:03:44.000Z",
        "configuration": {
          "preferred_language": "en",
          "preferred_timezone": "America/Montreal",
          "firebase_device_tokens": [
            "coXlnKNQTWq5vnqc0o_1jr:APA91bG5u-4TPmFFV0W4pnHKTROKQ8li5TwmyOo0VwE9hAMgqzQ8kD9a2FK4-g9Jtu7PWr_ASgr_O_j7yABZBh3QgE8Cl2gID0fOOKmDWa51g3tL68bmTL0L-yiyF6CKxjPuUoGIdwMN",
            "dJ3REV-iS7WjygK8vTp7Xy:APA91bEEg4DTSGabdD4wX5BHJnOzSvgyLImwIJ9mQQfTcD7ieuXTgb38nVYhPniU7Js8TnmEzrBWz5_Prpx0qZrauWsEsS_8-Cvn92InVQFUZEH7yNGU2PyN9lacsYwFBzfVBiCf1zWr",
            "cHYgL0Sk_0Y0k61MxNuZsM:APA91bFPzBA2ERn4BSIaHnBYzrbeOrJ7iZW9OHWhnNbHvGcilOJeHzjVmQeAlsON_QBhLu0DjTHfo0Py509TSuZIuprCbaAm7xKukZt0pqjuuQz7KQeftpRO9GQjExwFpyxyMc34rEZ0",
            "czlC_sf7TeiypD11UPgs3l:APA91bE2Fp5KOapq56T4h5Nia1IJeoPWcv8gUi0ovbeFQC3475BdgrJGeeMUxlziPoXxRIdyyoRoT_Q-6MZGftOoU4D2KJ4nXL7kGIKzcy0nkaoQvOAvsPcFq6vMLIuvzW1cQ5MNukHF",
            "eUxowmthQ32VeMPmGLR_Zf:APA91bEDqxClSq7dmBWvP6sDOMaLBkruYltIvB6Of7JBwGqOvB3cVOorBhCCRa1hnw58qxxFsCAhzTQMBdnlaiEidUgiut9aETsW3KX_0DrYOZVOL614tVAk5HaYyCpIkCmmos3vKQr6",
            "fooNNVVpQT6zpjKh2gn6Q5:APA91bG8FEOjuffL0O_klh1_w1SA6SJHIvCKlme9kCid2SXyfw7g4qPcA_g7Mq6RZ0DHbkuW4-xj2QDT-31jP59-A-Ry2D2I9qSfb38jUghnL4jEVUGYFGG3PngTtR8XmqmTM-IyU3jj",
            "f08p7IPTRAqH9uGrdRgYYs:APA91bFdUd0AW6M3lzWsgn7oCt9WaFKdtQ4a3FIJOKAqp1elHmhrKXdmLSb04JEVXvl7W_iriS5m16bukhoLG2IGE5N3nntSVOsnwPRKGiNgaBAeGHw-TGgc-Ilak5xRlQ119b_Eqm9s",
            "ebM1HiY8SpqoQZa6ZRwwXw:APA91bENAtYZjRcT-aBfojlwz2jJ0xIjlVh2_YH94YQWMx9W43NMuTYeJoflusI8P-VDmraYzMt73XTm0gzijfdmUxoEZkrEeVofG9S3hJvxhasmCk9S-YHvuiiTpNjnvySv9HHWY7NF",
            "dXVmO2G5T4OEM8em60x34E:APA91bEzavoS31GmpNRMfLXInDm6wLQ4IXTuaKYqXoXzGEzWXyAeksURgJa2PFduTp3u6Td1oOu7DHfQuOGr_sM0JpnzbIPlDXY6tTulsI9culjP2EoubamTnIAH7JtfaXJr1vM8As99",
            "e4WkCEP-Q5WKvuivNkbsxm:APA91bGq4vKsHr3FDZaHqSpzEDbZgMFn6E9r3kMukDrUOvgJZw6h6U_zhgSgp-bTlcPeo9F_epsD3iqnj08x3gRA-yP2tDbFut2KbBIpqcVykSZbt_PItCTDlaTTPI5zN4SXhCKaICCd",
            "cpL7ArZH9UAHnQfoWPArsO:APA91bERymWtr6xY9RYRWi6OLItYB7ApNbQlhE-HJ_1aj4EM6wU-_xxNG0cO2-Od-awik8O-yOJYJauGeKRFgUNLTx6CY-qudQ0F1pFf05eJPdVsREFdUFn792cXX-unzeXdQ45HVaw_",
            "dm6ommNzDkbvivqdpzZq-J:APA91bEjSWMLG-gg5jC-F9bmFKJMaEdMFCC_7EA9pes-flrwjvNaIuOuMcn0RKYMS6VDGr2FqtABvyJr9axkzti7qtxzBaVMHB8hG_0Fgf6w9szormB-cjU9bkTdGFtxq8cvJQfzZZAk",
            "faKe4J63Ra6w2R3evYkbvz:APA91bHacOguHf00pi4PhKK6jAhbxV9u_TBIM4cMT2xuxEf8PfiiJuErZ4T5RQ5pkq4p7tvd6t8L4IA6CvDJRg_1-InH-IGOYCNdhi7-fXbN9Dlc9vQBfP4RlmNg4n0bB0BbU9vRVZ6p",
            "cyX5Z0krxkK2g8wLsfYPRO:APA91bElisALFwW2tr_mH7tPMeqfa8zLfTC0STxIO7rLxTrME0uGMc2oee_5RresR68yfkmOhoTZzSdO2mQvXG72TxV75vbwbFQ0177_-mYUPH2FhXetOezPhHAC-CGw0sdINGn0K2Xw",
            "czktAa10TLCViU9oVqdzVF:APA91bHRoBmLM-foAYTMfHazCI7fcn7qJsT7O2n2p8tOXOFqv4dWF2iNLn4B8icwm42Cq3bxPhRMHcyQBDaCmYGlmBTZIZ4VIWuXKZ18NhFonpLJo6_yD9yPiTQc6rNI6-oVQXrhFG5d",
            "cveVvMlRCECOirn6kftGum:APA91bFdIE3xiUyneDCVDh_4bYRZW0ZnXmEJgVl-oFKkhtqG1ajuuuynx_LlP2nzO4XAoBrZZc_IvwkEoHFjIkyP6gVq1wra3WHpaaLofG111fF_bab88omlFkYw3-QWJe3fu1SFj-zB",
            "eTu7SrBeQqKbK9XH8X0EQ_:APA91bH2PjixhMG0VvxpBWZFBH9IOyIjwubrCpzHT9sPjbXVzpFeLacyNBxZGTQ-V9-b06H4YfyhTLAOBxovijsyzMfFf0vPhvrO_d5_LDEp9SkbGpYaUHGmTR5B33fAzQ0XeVKNEpsL",
            "cieHo7xvDUdWhXZvXvu5jA:APA91bFdIFGJD6V1EeGAjC5l28o4waBMVsL9L7x8gGPNhrexwkZPtL6FfHAaSE4434HRm8bxfjcrZWMVhJhPXQFHCUgEFIbL0Pe97Ipa16u-MgHZQjyP4k0kL6aRzvAVpc6ltoUu4Dc9",
            "dtjiC6lfReiArRnOHwFs-k:APA91bFpZHk3AMZTVOySlO85uimIb66-D4vaBaXMMhcZeZo8SIxNqsK7WHrtTDVuVEa6zq33pIzIg9r5UbzcSjd1wnGpUEyAOdQdDKf_89KgKmrgl0X2C15ft850ipEau2XziFxtWlJU",
            "fFL8ABLqS5OakPQqSzz9nG:APA91bGb1k4V3BWmVdjKa7zqigsjx8WC-TrN-h7uV5kdD2JrnfM8ZQFVy9OCG68_cuHnHJfXN-_2Z_W5UMxW38jheJi2kH86OCu62uLd8WUBFg7ps96pKsJXH2hkNnUXNcZ9qwXRGgUc",
            "eWcb_QRdMEr_qbedTs4cc4:APA91bEKkcRXUypofz9UADfKM22fhPZpws0cymnKVfHeb9TVWBo12lspza_lsz9ezp5MEx7rqX4rPOpjYbPZO-_V_Wy-TMdQGNQNHx6buEcXGkjSjSpCKIjg55IP5d-ghkFg2ATVMorp",
            "c_wixWzrgkV0ltEO_daEiA:APA91bFsSSJ7yQmjOGkvtYFQt9l1XmE4fz-OWWIVqU4mzQakITg2oxnZYyQ8htsYPdFZYrudNIwpoo_N60oQRrYqAZ5iMXfamAXw7K96u7HlND_-TkyRJBrvDV4kgEHRBYFjIXUwm9Vf",
            "el8ArkScRdKHu6J08_Hcku:APA91bFTpreCVTfEzSt4XfG8whQjN7oOrRikchHgtoThECmaVkdH-12mRAJblCyPlkTqJ7fKxift74UjwVynU-QkWDLpi7BTO0P1jATiurr9HLJPLx2s4_yG1YNL7IEcDVafdUuo1bVZ",
            "d0XIUOMcR-KLn9AnJTvCZ3:APA91bHmvhm8S4b288x1NgkJwB63KkIxcerah7o2-WcIX9VdEz0HMTAoYxUzLi5Fi6xHol8WZU6lQqXboxxqQLrHrqIqkohQ6QMrUNOpJuGsl3M5PTHGZgwY-uETIce634R3vkJNiiOG",
            "fLUFCtPzTUyKhcRtLFyBts:APA91bGOkIVbMMAoUHuIfolzn2uN_xDn_qTfY3cheMwPKgPBYAQ3yDc0dvB66Tmp9_FfRFhRQGoe1FAGO8ZQv9brzeWC6lX5seOUdPuj_aSm3jLoMnVNpEbtePyUdg8YIJ4spJxuqiPV",
            "czZHJOViw0SHlrXrX2V5-Z:APA91bEiFOQ2d1WDdcYNCQ82FSKY8czzgg0j5u0Muu3SscfYfvU05_6_IDVzdGsZ4skk8h2XC91vaoL-z4EXEjuiIa6LccfmORRQ3MldltLUKVj99agV4a-1wgsEfXEZgSPYlgAOoQey"
          ]
        },
        "is_terms_accepted": 1,
        "is_invitation_pending": 0,
        "first_name": "antoine",
        "last_name": "Pemeja",
        "is_nano_staff": 1,
        "clients": [],
        "workspaces": [],
        "allowed_workspaces": []
      },
      "silos": [],
      "created_at": "2022-06-09T23:48:11.605Z",
      "updated_at": "2022-06-09T23:48:11.605Z"
    },
    {
      "id": "67a45385-ccbc-43db-8868-3c2548408382",
      "date": "2022-06-10",
      "date_range_end": null,
      "round": null,
      "created_by_id": "d7a541f2-d842-41e5-bb4c-3dde5886b214",
      "timeSlot": "morning",
      "totalTonnage": 0,
      "comment": null,
      "source": "order",
      "created_by": {
        "idUser": "d7a541f2-d842-41e5-bb4c-3dde5886b214",
        "username": "antoine.pemeja@nanolike.com",
        "created_at": "2022-05-18T07:38:08.000Z",
        "updated_at": "2023-01-03T15:09:45.000Z",
        "email": "antoine.pemeja@nanolike.com",
        "acl": 2,
        "last_login": "2023-01-03T15:09:45.000Z",
        "date_joined": "2022-05-18T07:03:44.000Z",
        "configuration": {
          "preferred_language": "en",
          "preferred_timezone": "America/Montreal",
          "firebase_device_tokens": [
            "coXlnKNQTWq5vnqc0o_1jr:APA91bG5u-4TPmFFV0W4pnHKTROKQ8li5TwmyOo0VwE9hAMgqzQ8kD9a2FK4-g9Jtu7PWr_ASgr_O_j7yABZBh3QgE8Cl2gID0fOOKmDWa51g3tL68bmTL0L-yiyF6CKxjPuUoGIdwMN",
            "dJ3REV-iS7WjygK8vTp7Xy:APA91bEEg4DTSGabdD4wX5BHJnOzSvgyLImwIJ9mQQfTcD7ieuXTgb38nVYhPniU7Js8TnmEzrBWz5_Prpx0qZrauWsEsS_8-Cvn92InVQFUZEH7yNGU2PyN9lacsYwFBzfVBiCf1zWr",
            "cHYgL0Sk_0Y0k61MxNuZsM:APA91bFPzBA2ERn4BSIaHnBYzrbeOrJ7iZW9OHWhnNbHvGcilOJeHzjVmQeAlsON_QBhLu0DjTHfo0Py509TSuZIuprCbaAm7xKukZt0pqjuuQz7KQeftpRO9GQjExwFpyxyMc34rEZ0",
            "czlC_sf7TeiypD11UPgs3l:APA91bE2Fp5KOapq56T4h5Nia1IJeoPWcv8gUi0ovbeFQC3475BdgrJGeeMUxlziPoXxRIdyyoRoT_Q-6MZGftOoU4D2KJ4nXL7kGIKzcy0nkaoQvOAvsPcFq6vMLIuvzW1cQ5MNukHF",
            "eUxowmthQ32VeMPmGLR_Zf:APA91bEDqxClSq7dmBWvP6sDOMaLBkruYltIvB6Of7JBwGqOvB3cVOorBhCCRa1hnw58qxxFsCAhzTQMBdnlaiEidUgiut9aETsW3KX_0DrYOZVOL614tVAk5HaYyCpIkCmmos3vKQr6",
            "fooNNVVpQT6zpjKh2gn6Q5:APA91bG8FEOjuffL0O_klh1_w1SA6SJHIvCKlme9kCid2SXyfw7g4qPcA_g7Mq6RZ0DHbkuW4-xj2QDT-31jP59-A-Ry2D2I9qSfb38jUghnL4jEVUGYFGG3PngTtR8XmqmTM-IyU3jj",
            "f08p7IPTRAqH9uGrdRgYYs:APA91bFdUd0AW6M3lzWsgn7oCt9WaFKdtQ4a3FIJOKAqp1elHmhrKXdmLSb04JEVXvl7W_iriS5m16bukhoLG2IGE5N3nntSVOsnwPRKGiNgaBAeGHw-TGgc-Ilak5xRlQ119b_Eqm9s",
            "ebM1HiY8SpqoQZa6ZRwwXw:APA91bENAtYZjRcT-aBfojlwz2jJ0xIjlVh2_YH94YQWMx9W43NMuTYeJoflusI8P-VDmraYzMt73XTm0gzijfdmUxoEZkrEeVofG9S3hJvxhasmCk9S-YHvuiiTpNjnvySv9HHWY7NF",
            "dXVmO2G5T4OEM8em60x34E:APA91bEzavoS31GmpNRMfLXInDm6wLQ4IXTuaKYqXoXzGEzWXyAeksURgJa2PFduTp3u6Td1oOu7DHfQuOGr_sM0JpnzbIPlDXY6tTulsI9culjP2EoubamTnIAH7JtfaXJr1vM8As99",
            "e4WkCEP-Q5WKvuivNkbsxm:APA91bGq4vKsHr3FDZaHqSpzEDbZgMFn6E9r3kMukDrUOvgJZw6h6U_zhgSgp-bTlcPeo9F_epsD3iqnj08x3gRA-yP2tDbFut2KbBIpqcVykSZbt_PItCTDlaTTPI5zN4SXhCKaICCd",
            "cpL7ArZH9UAHnQfoWPArsO:APA91bERymWtr6xY9RYRWi6OLItYB7ApNbQlhE-HJ_1aj4EM6wU-_xxNG0cO2-Od-awik8O-yOJYJauGeKRFgUNLTx6CY-qudQ0F1pFf05eJPdVsREFdUFn792cXX-unzeXdQ45HVaw_",
            "dm6ommNzDkbvivqdpzZq-J:APA91bEjSWMLG-gg5jC-F9bmFKJMaEdMFCC_7EA9pes-flrwjvNaIuOuMcn0RKYMS6VDGr2FqtABvyJr9axkzti7qtxzBaVMHB8hG_0Fgf6w9szormB-cjU9bkTdGFtxq8cvJQfzZZAk",
            "faKe4J63Ra6w2R3evYkbvz:APA91bHacOguHf00pi4PhKK6jAhbxV9u_TBIM4cMT2xuxEf8PfiiJuErZ4T5RQ5pkq4p7tvd6t8L4IA6CvDJRg_1-InH-IGOYCNdhi7-fXbN9Dlc9vQBfP4RlmNg4n0bB0BbU9vRVZ6p",
            "cyX5Z0krxkK2g8wLsfYPRO:APA91bElisALFwW2tr_mH7tPMeqfa8zLfTC0STxIO7rLxTrME0uGMc2oee_5RresR68yfkmOhoTZzSdO2mQvXG72TxV75vbwbFQ0177_-mYUPH2FhXetOezPhHAC-CGw0sdINGn0K2Xw",
            "czktAa10TLCViU9oVqdzVF:APA91bHRoBmLM-foAYTMfHazCI7fcn7qJsT7O2n2p8tOXOFqv4dWF2iNLn4B8icwm42Cq3bxPhRMHcyQBDaCmYGlmBTZIZ4VIWuXKZ18NhFonpLJo6_yD9yPiTQc6rNI6-oVQXrhFG5d",
            "cveVvMlRCECOirn6kftGum:APA91bFdIE3xiUyneDCVDh_4bYRZW0ZnXmEJgVl-oFKkhtqG1ajuuuynx_LlP2nzO4XAoBrZZc_IvwkEoHFjIkyP6gVq1wra3WHpaaLofG111fF_bab88omlFkYw3-QWJe3fu1SFj-zB",
            "eTu7SrBeQqKbK9XH8X0EQ_:APA91bH2PjixhMG0VvxpBWZFBH9IOyIjwubrCpzHT9sPjbXVzpFeLacyNBxZGTQ-V9-b06H4YfyhTLAOBxovijsyzMfFf0vPhvrO_d5_LDEp9SkbGpYaUHGmTR5B33fAzQ0XeVKNEpsL",
            "cieHo7xvDUdWhXZvXvu5jA:APA91bFdIFGJD6V1EeGAjC5l28o4waBMVsL9L7x8gGPNhrexwkZPtL6FfHAaSE4434HRm8bxfjcrZWMVhJhPXQFHCUgEFIbL0Pe97Ipa16u-MgHZQjyP4k0kL6aRzvAVpc6ltoUu4Dc9",
            "dtjiC6lfReiArRnOHwFs-k:APA91bFpZHk3AMZTVOySlO85uimIb66-D4vaBaXMMhcZeZo8SIxNqsK7WHrtTDVuVEa6zq33pIzIg9r5UbzcSjd1wnGpUEyAOdQdDKf_89KgKmrgl0X2C15ft850ipEau2XziFxtWlJU",
            "fFL8ABLqS5OakPQqSzz9nG:APA91bGb1k4V3BWmVdjKa7zqigsjx8WC-TrN-h7uV5kdD2JrnfM8ZQFVy9OCG68_cuHnHJfXN-_2Z_W5UMxW38jheJi2kH86OCu62uLd8WUBFg7ps96pKsJXH2hkNnUXNcZ9qwXRGgUc",
            "eWcb_QRdMEr_qbedTs4cc4:APA91bEKkcRXUypofz9UADfKM22fhPZpws0cymnKVfHeb9TVWBo12lspza_lsz9ezp5MEx7rqX4rPOpjYbPZO-_V_Wy-TMdQGNQNHx6buEcXGkjSjSpCKIjg55IP5d-ghkFg2ATVMorp",
            "c_wixWzrgkV0ltEO_daEiA:APA91bFsSSJ7yQmjOGkvtYFQt9l1XmE4fz-OWWIVqU4mzQakITg2oxnZYyQ8htsYPdFZYrudNIwpoo_N60oQRrYqAZ5iMXfamAXw7K96u7HlND_-TkyRJBrvDV4kgEHRBYFjIXUwm9Vf",
            "el8ArkScRdKHu6J08_Hcku:APA91bFTpreCVTfEzSt4XfG8whQjN7oOrRikchHgtoThECmaVkdH-12mRAJblCyPlkTqJ7fKxift74UjwVynU-QkWDLpi7BTO0P1jATiurr9HLJPLx2s4_yG1YNL7IEcDVafdUuo1bVZ",
            "d0XIUOMcR-KLn9AnJTvCZ3:APA91bHmvhm8S4b288x1NgkJwB63KkIxcerah7o2-WcIX9VdEz0HMTAoYxUzLi5Fi6xHol8WZU6lQqXboxxqQLrHrqIqkohQ6QMrUNOpJuGsl3M5PTHGZgwY-uETIce634R3vkJNiiOG",
            "fLUFCtPzTUyKhcRtLFyBts:APA91bGOkIVbMMAoUHuIfolzn2uN_xDn_qTfY3cheMwPKgPBYAQ3yDc0dvB66Tmp9_FfRFhRQGoe1FAGO8ZQv9brzeWC6lX5seOUdPuj_aSm3jLoMnVNpEbtePyUdg8YIJ4spJxuqiPV",
            "czZHJOViw0SHlrXrX2V5-Z:APA91bEiFOQ2d1WDdcYNCQ82FSKY8czzgg0j5u0Muu3SscfYfvU05_6_IDVzdGsZ4skk8h2XC91vaoL-z4EXEjuiIa6LccfmORRQ3MldltLUKVj99agV4a-1wgsEfXEZgSPYlgAOoQey"
          ]
        },
        "is_terms_accepted": 1,
        "is_invitation_pending": 0,
        "first_name": "antoine",
        "last_name": "Pemeja",
        "is_nano_staff": 1,
        "clients": [],
        "workspaces": [],
        "allowed_workspaces": []
      },
      "silos": [],
      "created_at": "2022-06-09T23:52:23.453Z",
      "updated_at": "2022-06-09T23:52:23.453Z"
    },
    {
      "id": "36535e4b-fe94-4f1f-9d3f-2376b5fc085c",
      "date": "2022-06-17",
      "date_range_end": null,
      "round": null,
      "created_by_id": "d7a541f2-d842-41e5-bb4c-3dde5886b214",
      "timeSlot": "morning",
      "totalTonnage": 0,
      "comment": null,
      "source": "order",
      "created_by": {
        "idUser": "d7a541f2-d842-41e5-bb4c-3dde5886b214",
        "username": "antoine.pemeja@nanolike.com",
        "created_at": "2022-05-18T07:38:08.000Z",
        "updated_at": "2023-01-03T15:09:45.000Z",
        "email": "antoine.pemeja@nanolike.com",
        "acl": 2,
        "last_login": "2023-01-03T15:09:45.000Z",
        "date_joined": "2022-05-18T07:03:44.000Z",
        "configuration": {
          "preferred_language": "en",
          "preferred_timezone": "America/Montreal",
          "firebase_device_tokens": [
            "coXlnKNQTWq5vnqc0o_1jr:APA91bG5u-4TPmFFV0W4pnHKTROKQ8li5TwmyOo0VwE9hAMgqzQ8kD9a2FK4-g9Jtu7PWr_ASgr_O_j7yABZBh3QgE8Cl2gID0fOOKmDWa51g3tL68bmTL0L-yiyF6CKxjPuUoGIdwMN",
            "dJ3REV-iS7WjygK8vTp7Xy:APA91bEEg4DTSGabdD4wX5BHJnOzSvgyLImwIJ9mQQfTcD7ieuXTgb38nVYhPniU7Js8TnmEzrBWz5_Prpx0qZrauWsEsS_8-Cvn92InVQFUZEH7yNGU2PyN9lacsYwFBzfVBiCf1zWr",
            "cHYgL0Sk_0Y0k61MxNuZsM:APA91bFPzBA2ERn4BSIaHnBYzrbeOrJ7iZW9OHWhnNbHvGcilOJeHzjVmQeAlsON_QBhLu0DjTHfo0Py509TSuZIuprCbaAm7xKukZt0pqjuuQz7KQeftpRO9GQjExwFpyxyMc34rEZ0",
            "czlC_sf7TeiypD11UPgs3l:APA91bE2Fp5KOapq56T4h5Nia1IJeoPWcv8gUi0ovbeFQC3475BdgrJGeeMUxlziPoXxRIdyyoRoT_Q-6MZGftOoU4D2KJ4nXL7kGIKzcy0nkaoQvOAvsPcFq6vMLIuvzW1cQ5MNukHF",
            "eUxowmthQ32VeMPmGLR_Zf:APA91bEDqxClSq7dmBWvP6sDOMaLBkruYltIvB6Of7JBwGqOvB3cVOorBhCCRa1hnw58qxxFsCAhzTQMBdnlaiEidUgiut9aETsW3KX_0DrYOZVOL614tVAk5HaYyCpIkCmmos3vKQr6",
            "fooNNVVpQT6zpjKh2gn6Q5:APA91bG8FEOjuffL0O_klh1_w1SA6SJHIvCKlme9kCid2SXyfw7g4qPcA_g7Mq6RZ0DHbkuW4-xj2QDT-31jP59-A-Ry2D2I9qSfb38jUghnL4jEVUGYFGG3PngTtR8XmqmTM-IyU3jj",
            "f08p7IPTRAqH9uGrdRgYYs:APA91bFdUd0AW6M3lzWsgn7oCt9WaFKdtQ4a3FIJOKAqp1elHmhrKXdmLSb04JEVXvl7W_iriS5m16bukhoLG2IGE5N3nntSVOsnwPRKGiNgaBAeGHw-TGgc-Ilak5xRlQ119b_Eqm9s",
            "ebM1HiY8SpqoQZa6ZRwwXw:APA91bENAtYZjRcT-aBfojlwz2jJ0xIjlVh2_YH94YQWMx9W43NMuTYeJoflusI8P-VDmraYzMt73XTm0gzijfdmUxoEZkrEeVofG9S3hJvxhasmCk9S-YHvuiiTpNjnvySv9HHWY7NF",
            "dXVmO2G5T4OEM8em60x34E:APA91bEzavoS31GmpNRMfLXInDm6wLQ4IXTuaKYqXoXzGEzWXyAeksURgJa2PFduTp3u6Td1oOu7DHfQuOGr_sM0JpnzbIPlDXY6tTulsI9culjP2EoubamTnIAH7JtfaXJr1vM8As99",
            "e4WkCEP-Q5WKvuivNkbsxm:APA91bGq4vKsHr3FDZaHqSpzEDbZgMFn6E9r3kMukDrUOvgJZw6h6U_zhgSgp-bTlcPeo9F_epsD3iqnj08x3gRA-yP2tDbFut2KbBIpqcVykSZbt_PItCTDlaTTPI5zN4SXhCKaICCd",
            "cpL7ArZH9UAHnQfoWPArsO:APA91bERymWtr6xY9RYRWi6OLItYB7ApNbQlhE-HJ_1aj4EM6wU-_xxNG0cO2-Od-awik8O-yOJYJauGeKRFgUNLTx6CY-qudQ0F1pFf05eJPdVsREFdUFn792cXX-unzeXdQ45HVaw_",
            "dm6ommNzDkbvivqdpzZq-J:APA91bEjSWMLG-gg5jC-F9bmFKJMaEdMFCC_7EA9pes-flrwjvNaIuOuMcn0RKYMS6VDGr2FqtABvyJr9axkzti7qtxzBaVMHB8hG_0Fgf6w9szormB-cjU9bkTdGFtxq8cvJQfzZZAk",
            "faKe4J63Ra6w2R3evYkbvz:APA91bHacOguHf00pi4PhKK6jAhbxV9u_TBIM4cMT2xuxEf8PfiiJuErZ4T5RQ5pkq4p7tvd6t8L4IA6CvDJRg_1-InH-IGOYCNdhi7-fXbN9Dlc9vQBfP4RlmNg4n0bB0BbU9vRVZ6p",
            "cyX5Z0krxkK2g8wLsfYPRO:APA91bElisALFwW2tr_mH7tPMeqfa8zLfTC0STxIO7rLxTrME0uGMc2oee_5RresR68yfkmOhoTZzSdO2mQvXG72TxV75vbwbFQ0177_-mYUPH2FhXetOezPhHAC-CGw0sdINGn0K2Xw",
            "czktAa10TLCViU9oVqdzVF:APA91bHRoBmLM-foAYTMfHazCI7fcn7qJsT7O2n2p8tOXOFqv4dWF2iNLn4B8icwm42Cq3bxPhRMHcyQBDaCmYGlmBTZIZ4VIWuXKZ18NhFonpLJo6_yD9yPiTQc6rNI6-oVQXrhFG5d",
            "cveVvMlRCECOirn6kftGum:APA91bFdIE3xiUyneDCVDh_4bYRZW0ZnXmEJgVl-oFKkhtqG1ajuuuynx_LlP2nzO4XAoBrZZc_IvwkEoHFjIkyP6gVq1wra3WHpaaLofG111fF_bab88omlFkYw3-QWJe3fu1SFj-zB",
            "eTu7SrBeQqKbK9XH8X0EQ_:APA91bH2PjixhMG0VvxpBWZFBH9IOyIjwubrCpzHT9sPjbXVzpFeLacyNBxZGTQ-V9-b06H4YfyhTLAOBxovijsyzMfFf0vPhvrO_d5_LDEp9SkbGpYaUHGmTR5B33fAzQ0XeVKNEpsL",
            "cieHo7xvDUdWhXZvXvu5jA:APA91bFdIFGJD6V1EeGAjC5l28o4waBMVsL9L7x8gGPNhrexwkZPtL6FfHAaSE4434HRm8bxfjcrZWMVhJhPXQFHCUgEFIbL0Pe97Ipa16u-MgHZQjyP4k0kL6aRzvAVpc6ltoUu4Dc9",
            "dtjiC6lfReiArRnOHwFs-k:APA91bFpZHk3AMZTVOySlO85uimIb66-D4vaBaXMMhcZeZo8SIxNqsK7WHrtTDVuVEa6zq33pIzIg9r5UbzcSjd1wnGpUEyAOdQdDKf_89KgKmrgl0X2C15ft850ipEau2XziFxtWlJU",
            "fFL8ABLqS5OakPQqSzz9nG:APA91bGb1k4V3BWmVdjKa7zqigsjx8WC-TrN-h7uV5kdD2JrnfM8ZQFVy9OCG68_cuHnHJfXN-_2Z_W5UMxW38jheJi2kH86OCu62uLd8WUBFg7ps96pKsJXH2hkNnUXNcZ9qwXRGgUc",
            "eWcb_QRdMEr_qbedTs4cc4:APA91bEKkcRXUypofz9UADfKM22fhPZpws0cymnKVfHeb9TVWBo12lspza_lsz9ezp5MEx7rqX4rPOpjYbPZO-_V_Wy-TMdQGNQNHx6buEcXGkjSjSpCKIjg55IP5d-ghkFg2ATVMorp",
            "c_wixWzrgkV0ltEO_daEiA:APA91bFsSSJ7yQmjOGkvtYFQt9l1XmE4fz-OWWIVqU4mzQakITg2oxnZYyQ8htsYPdFZYrudNIwpoo_N60oQRrYqAZ5iMXfamAXw7K96u7HlND_-TkyRJBrvDV4kgEHRBYFjIXUwm9Vf",
            "el8ArkScRdKHu6J08_Hcku:APA91bFTpreCVTfEzSt4XfG8whQjN7oOrRikchHgtoThECmaVkdH-12mRAJblCyPlkTqJ7fKxift74UjwVynU-QkWDLpi7BTO0P1jATiurr9HLJPLx2s4_yG1YNL7IEcDVafdUuo1bVZ",
            "d0XIUOMcR-KLn9AnJTvCZ3:APA91bHmvhm8S4b288x1NgkJwB63KkIxcerah7o2-WcIX9VdEz0HMTAoYxUzLi5Fi6xHol8WZU6lQqXboxxqQLrHrqIqkohQ6QMrUNOpJuGsl3M5PTHGZgwY-uETIce634R3vkJNiiOG",
            "fLUFCtPzTUyKhcRtLFyBts:APA91bGOkIVbMMAoUHuIfolzn2uN_xDn_qTfY3cheMwPKgPBYAQ3yDc0dvB66Tmp9_FfRFhRQGoe1FAGO8ZQv9brzeWC6lX5seOUdPuj_aSm3jLoMnVNpEbtePyUdg8YIJ4spJxuqiPV",
            "czZHJOViw0SHlrXrX2V5-Z:APA91bEiFOQ2d1WDdcYNCQ82FSKY8czzgg0j5u0Muu3SscfYfvU05_6_IDVzdGsZ4skk8h2XC91vaoL-z4EXEjuiIa6LccfmORRQ3MldltLUKVj99agV4a-1wgsEfXEZgSPYlgAOoQey"
          ]
        },
        "is_terms_accepted": 1,
        "is_invitation_pending": 0,
        "first_name": "antoine",
        "last_name": "Pemeja",
        "is_nano_staff": 1,
        "clients": [],
        "workspaces": [],
        "allowed_workspaces": []
      },
      "silos": [],
      "created_at": "2022-06-10T16:04:28.986Z",
      "updated_at": "2022-06-10T16:04:28.986Z"
    },
    {
      "id": "11c76406-d270-4d2d-90dc-16b0e7e0f3a1",
      "date": "2022-08-07",
      "date_range_end": null,
      "round": null,
      "created_by_id": "d7a541f2-d842-41e5-bb4c-3dde5886b214",
      "timeSlot": "morning",
      "totalTonnage": 0,
      "comment": null,
      "source": "order",
      "created_by": {
        "idUser": "d7a541f2-d842-41e5-bb4c-3dde5886b214",
        "username": "antoine.pemeja@nanolike.com",
        "created_at": "2022-05-18T07:38:08.000Z",
        "updated_at": "2023-01-03T15:09:45.000Z",
        "email": "antoine.pemeja@nanolike.com",
        "acl": 2,
        "last_login": "2023-01-03T15:09:45.000Z",
        "date_joined": "2022-05-18T07:03:44.000Z",
        "configuration": {
          "preferred_language": "en",
          "preferred_timezone": "America/Montreal",
          "firebase_device_tokens": [
            "coXlnKNQTWq5vnqc0o_1jr:APA91bG5u-4TPmFFV0W4pnHKTROKQ8li5TwmyOo0VwE9hAMgqzQ8kD9a2FK4-g9Jtu7PWr_ASgr_O_j7yABZBh3QgE8Cl2gID0fOOKmDWa51g3tL68bmTL0L-yiyF6CKxjPuUoGIdwMN",
            "dJ3REV-iS7WjygK8vTp7Xy:APA91bEEg4DTSGabdD4wX5BHJnOzSvgyLImwIJ9mQQfTcD7ieuXTgb38nVYhPniU7Js8TnmEzrBWz5_Prpx0qZrauWsEsS_8-Cvn92InVQFUZEH7yNGU2PyN9lacsYwFBzfVBiCf1zWr",
            "cHYgL0Sk_0Y0k61MxNuZsM:APA91bFPzBA2ERn4BSIaHnBYzrbeOrJ7iZW9OHWhnNbHvGcilOJeHzjVmQeAlsON_QBhLu0DjTHfo0Py509TSuZIuprCbaAm7xKukZt0pqjuuQz7KQeftpRO9GQjExwFpyxyMc34rEZ0",
            "czlC_sf7TeiypD11UPgs3l:APA91bE2Fp5KOapq56T4h5Nia1IJeoPWcv8gUi0ovbeFQC3475BdgrJGeeMUxlziPoXxRIdyyoRoT_Q-6MZGftOoU4D2KJ4nXL7kGIKzcy0nkaoQvOAvsPcFq6vMLIuvzW1cQ5MNukHF",
            "eUxowmthQ32VeMPmGLR_Zf:APA91bEDqxClSq7dmBWvP6sDOMaLBkruYltIvB6Of7JBwGqOvB3cVOorBhCCRa1hnw58qxxFsCAhzTQMBdnlaiEidUgiut9aETsW3KX_0DrYOZVOL614tVAk5HaYyCpIkCmmos3vKQr6",
            "fooNNVVpQT6zpjKh2gn6Q5:APA91bG8FEOjuffL0O_klh1_w1SA6SJHIvCKlme9kCid2SXyfw7g4qPcA_g7Mq6RZ0DHbkuW4-xj2QDT-31jP59-A-Ry2D2I9qSfb38jUghnL4jEVUGYFGG3PngTtR8XmqmTM-IyU3jj",
            "f08p7IPTRAqH9uGrdRgYYs:APA91bFdUd0AW6M3lzWsgn7oCt9WaFKdtQ4a3FIJOKAqp1elHmhrKXdmLSb04JEVXvl7W_iriS5m16bukhoLG2IGE5N3nntSVOsnwPRKGiNgaBAeGHw-TGgc-Ilak5xRlQ119b_Eqm9s",
            "ebM1HiY8SpqoQZa6ZRwwXw:APA91bENAtYZjRcT-aBfojlwz2jJ0xIjlVh2_YH94YQWMx9W43NMuTYeJoflusI8P-VDmraYzMt73XTm0gzijfdmUxoEZkrEeVofG9S3hJvxhasmCk9S-YHvuiiTpNjnvySv9HHWY7NF",
            "dXVmO2G5T4OEM8em60x34E:APA91bEzavoS31GmpNRMfLXInDm6wLQ4IXTuaKYqXoXzGEzWXyAeksURgJa2PFduTp3u6Td1oOu7DHfQuOGr_sM0JpnzbIPlDXY6tTulsI9culjP2EoubamTnIAH7JtfaXJr1vM8As99",
            "e4WkCEP-Q5WKvuivNkbsxm:APA91bGq4vKsHr3FDZaHqSpzEDbZgMFn6E9r3kMukDrUOvgJZw6h6U_zhgSgp-bTlcPeo9F_epsD3iqnj08x3gRA-yP2tDbFut2KbBIpqcVykSZbt_PItCTDlaTTPI5zN4SXhCKaICCd",
            "cpL7ArZH9UAHnQfoWPArsO:APA91bERymWtr6xY9RYRWi6OLItYB7ApNbQlhE-HJ_1aj4EM6wU-_xxNG0cO2-Od-awik8O-yOJYJauGeKRFgUNLTx6CY-qudQ0F1pFf05eJPdVsREFdUFn792cXX-unzeXdQ45HVaw_",
            "dm6ommNzDkbvivqdpzZq-J:APA91bEjSWMLG-gg5jC-F9bmFKJMaEdMFCC_7EA9pes-flrwjvNaIuOuMcn0RKYMS6VDGr2FqtABvyJr9axkzti7qtxzBaVMHB8hG_0Fgf6w9szormB-cjU9bkTdGFtxq8cvJQfzZZAk",
            "faKe4J63Ra6w2R3evYkbvz:APA91bHacOguHf00pi4PhKK6jAhbxV9u_TBIM4cMT2xuxEf8PfiiJuErZ4T5RQ5pkq4p7tvd6t8L4IA6CvDJRg_1-InH-IGOYCNdhi7-fXbN9Dlc9vQBfP4RlmNg4n0bB0BbU9vRVZ6p",
            "cyX5Z0krxkK2g8wLsfYPRO:APA91bElisALFwW2tr_mH7tPMeqfa8zLfTC0STxIO7rLxTrME0uGMc2oee_5RresR68yfkmOhoTZzSdO2mQvXG72TxV75vbwbFQ0177_-mYUPH2FhXetOezPhHAC-CGw0sdINGn0K2Xw",
            "czktAa10TLCViU9oVqdzVF:APA91bHRoBmLM-foAYTMfHazCI7fcn7qJsT7O2n2p8tOXOFqv4dWF2iNLn4B8icwm42Cq3bxPhRMHcyQBDaCmYGlmBTZIZ4VIWuXKZ18NhFonpLJo6_yD9yPiTQc6rNI6-oVQXrhFG5d",
            "cveVvMlRCECOirn6kftGum:APA91bFdIE3xiUyneDCVDh_4bYRZW0ZnXmEJgVl-oFKkhtqG1ajuuuynx_LlP2nzO4XAoBrZZc_IvwkEoHFjIkyP6gVq1wra3WHpaaLofG111fF_bab88omlFkYw3-QWJe3fu1SFj-zB",
            "eTu7SrBeQqKbK9XH8X0EQ_:APA91bH2PjixhMG0VvxpBWZFBH9IOyIjwubrCpzHT9sPjbXVzpFeLacyNBxZGTQ-V9-b06H4YfyhTLAOBxovijsyzMfFf0vPhvrO_d5_LDEp9SkbGpYaUHGmTR5B33fAzQ0XeVKNEpsL",
            "cieHo7xvDUdWhXZvXvu5jA:APA91bFdIFGJD6V1EeGAjC5l28o4waBMVsL9L7x8gGPNhrexwkZPtL6FfHAaSE4434HRm8bxfjcrZWMVhJhPXQFHCUgEFIbL0Pe97Ipa16u-MgHZQjyP4k0kL6aRzvAVpc6ltoUu4Dc9",
            "dtjiC6lfReiArRnOHwFs-k:APA91bFpZHk3AMZTVOySlO85uimIb66-D4vaBaXMMhcZeZo8SIxNqsK7WHrtTDVuVEa6zq33pIzIg9r5UbzcSjd1wnGpUEyAOdQdDKf_89KgKmrgl0X2C15ft850ipEau2XziFxtWlJU",
            "fFL8ABLqS5OakPQqSzz9nG:APA91bGb1k4V3BWmVdjKa7zqigsjx8WC-TrN-h7uV5kdD2JrnfM8ZQFVy9OCG68_cuHnHJfXN-_2Z_W5UMxW38jheJi2kH86OCu62uLd8WUBFg7ps96pKsJXH2hkNnUXNcZ9qwXRGgUc",
            "eWcb_QRdMEr_qbedTs4cc4:APA91bEKkcRXUypofz9UADfKM22fhPZpws0cymnKVfHeb9TVWBo12lspza_lsz9ezp5MEx7rqX4rPOpjYbPZO-_V_Wy-TMdQGNQNHx6buEcXGkjSjSpCKIjg55IP5d-ghkFg2ATVMorp",
            "c_wixWzrgkV0ltEO_daEiA:APA91bFsSSJ7yQmjOGkvtYFQt9l1XmE4fz-OWWIVqU4mzQakITg2oxnZYyQ8htsYPdFZYrudNIwpoo_N60oQRrYqAZ5iMXfamAXw7K96u7HlND_-TkyRJBrvDV4kgEHRBYFjIXUwm9Vf",
            "el8ArkScRdKHu6J08_Hcku:APA91bFTpreCVTfEzSt4XfG8whQjN7oOrRikchHgtoThECmaVkdH-12mRAJblCyPlkTqJ7fKxift74UjwVynU-QkWDLpi7BTO0P1jATiurr9HLJPLx2s4_yG1YNL7IEcDVafdUuo1bVZ",
            "d0XIUOMcR-KLn9AnJTvCZ3:APA91bHmvhm8S4b288x1NgkJwB63KkIxcerah7o2-WcIX9VdEz0HMTAoYxUzLi5Fi6xHol8WZU6lQqXboxxqQLrHrqIqkohQ6QMrUNOpJuGsl3M5PTHGZgwY-uETIce634R3vkJNiiOG",
            "fLUFCtPzTUyKhcRtLFyBts:APA91bGOkIVbMMAoUHuIfolzn2uN_xDn_qTfY3cheMwPKgPBYAQ3yDc0dvB66Tmp9_FfRFhRQGoe1FAGO8ZQv9brzeWC6lX5seOUdPuj_aSm3jLoMnVNpEbtePyUdg8YIJ4spJxuqiPV",
            "czZHJOViw0SHlrXrX2V5-Z:APA91bEiFOQ2d1WDdcYNCQ82FSKY8czzgg0j5u0Muu3SscfYfvU05_6_IDVzdGsZ4skk8h2XC91vaoL-z4EXEjuiIa6LccfmORRQ3MldltLUKVj99agV4a-1wgsEfXEZgSPYlgAOoQey"
          ]
        },
        "is_terms_accepted": 1,
        "is_invitation_pending": 0,
        "first_name": "antoine",
        "last_name": "Pemeja",
        "is_nano_staff": 1,
        "clients": [],
        "workspaces": [],
        "allowed_workspaces": []
      },
      "silos": [],
      "created_at": "2022-06-10T18:25:27.047Z",
      "updated_at": "2022-06-10T18:25:27.047Z"
    },
    {
      "id": "5b19c666-140d-4f42-b9fc-6f6bb144f46d",
      "date": "2022-06-18",
      "date_range_end": null,
      "round": null,
      "created_by_id": "d7a541f2-d842-41e5-bb4c-3dde5886b214",
      "timeSlot": "morning",
      "totalTonnage": 0,
      "comment": null,
      "source": "order",
      "created_by": {
        "idUser": "d7a541f2-d842-41e5-bb4c-3dde5886b214",
        "username": "antoine.pemeja@nanolike.com",
        "created_at": "2022-05-18T07:38:08.000Z",
        "updated_at": "2023-01-03T15:09:45.000Z",
        "email": "antoine.pemeja@nanolike.com",
        "acl": 2,
        "last_login": "2023-01-03T15:09:45.000Z",
        "date_joined": "2022-05-18T07:03:44.000Z",
        "configuration": {
          "preferred_language": "en",
          "preferred_timezone": "America/Montreal",
          "firebase_device_tokens": [
            "coXlnKNQTWq5vnqc0o_1jr:APA91bG5u-4TPmFFV0W4pnHKTROKQ8li5TwmyOo0VwE9hAMgqzQ8kD9a2FK4-g9Jtu7PWr_ASgr_O_j7yABZBh3QgE8Cl2gID0fOOKmDWa51g3tL68bmTL0L-yiyF6CKxjPuUoGIdwMN",
            "dJ3REV-iS7WjygK8vTp7Xy:APA91bEEg4DTSGabdD4wX5BHJnOzSvgyLImwIJ9mQQfTcD7ieuXTgb38nVYhPniU7Js8TnmEzrBWz5_Prpx0qZrauWsEsS_8-Cvn92InVQFUZEH7yNGU2PyN9lacsYwFBzfVBiCf1zWr",
            "cHYgL0Sk_0Y0k61MxNuZsM:APA91bFPzBA2ERn4BSIaHnBYzrbeOrJ7iZW9OHWhnNbHvGcilOJeHzjVmQeAlsON_QBhLu0DjTHfo0Py509TSuZIuprCbaAm7xKukZt0pqjuuQz7KQeftpRO9GQjExwFpyxyMc34rEZ0",
            "czlC_sf7TeiypD11UPgs3l:APA91bE2Fp5KOapq56T4h5Nia1IJeoPWcv8gUi0ovbeFQC3475BdgrJGeeMUxlziPoXxRIdyyoRoT_Q-6MZGftOoU4D2KJ4nXL7kGIKzcy0nkaoQvOAvsPcFq6vMLIuvzW1cQ5MNukHF",
            "eUxowmthQ32VeMPmGLR_Zf:APA91bEDqxClSq7dmBWvP6sDOMaLBkruYltIvB6Of7JBwGqOvB3cVOorBhCCRa1hnw58qxxFsCAhzTQMBdnlaiEidUgiut9aETsW3KX_0DrYOZVOL614tVAk5HaYyCpIkCmmos3vKQr6",
            "fooNNVVpQT6zpjKh2gn6Q5:APA91bG8FEOjuffL0O_klh1_w1SA6SJHIvCKlme9kCid2SXyfw7g4qPcA_g7Mq6RZ0DHbkuW4-xj2QDT-31jP59-A-Ry2D2I9qSfb38jUghnL4jEVUGYFGG3PngTtR8XmqmTM-IyU3jj",
            "f08p7IPTRAqH9uGrdRgYYs:APA91bFdUd0AW6M3lzWsgn7oCt9WaFKdtQ4a3FIJOKAqp1elHmhrKXdmLSb04JEVXvl7W_iriS5m16bukhoLG2IGE5N3nntSVOsnwPRKGiNgaBAeGHw-TGgc-Ilak5xRlQ119b_Eqm9s",
            "ebM1HiY8SpqoQZa6ZRwwXw:APA91bENAtYZjRcT-aBfojlwz2jJ0xIjlVh2_YH94YQWMx9W43NMuTYeJoflusI8P-VDmraYzMt73XTm0gzijfdmUxoEZkrEeVofG9S3hJvxhasmCk9S-YHvuiiTpNjnvySv9HHWY7NF",
            "dXVmO2G5T4OEM8em60x34E:APA91bEzavoS31GmpNRMfLXInDm6wLQ4IXTuaKYqXoXzGEzWXyAeksURgJa2PFduTp3u6Td1oOu7DHfQuOGr_sM0JpnzbIPlDXY6tTulsI9culjP2EoubamTnIAH7JtfaXJr1vM8As99",
            "e4WkCEP-Q5WKvuivNkbsxm:APA91bGq4vKsHr3FDZaHqSpzEDbZgMFn6E9r3kMukDrUOvgJZw6h6U_zhgSgp-bTlcPeo9F_epsD3iqnj08x3gRA-yP2tDbFut2KbBIpqcVykSZbt_PItCTDlaTTPI5zN4SXhCKaICCd",
            "cpL7ArZH9UAHnQfoWPArsO:APA91bERymWtr6xY9RYRWi6OLItYB7ApNbQlhE-HJ_1aj4EM6wU-_xxNG0cO2-Od-awik8O-yOJYJauGeKRFgUNLTx6CY-qudQ0F1pFf05eJPdVsREFdUFn792cXX-unzeXdQ45HVaw_",
            "dm6ommNzDkbvivqdpzZq-J:APA91bEjSWMLG-gg5jC-F9bmFKJMaEdMFCC_7EA9pes-flrwjvNaIuOuMcn0RKYMS6VDGr2FqtABvyJr9axkzti7qtxzBaVMHB8hG_0Fgf6w9szormB-cjU9bkTdGFtxq8cvJQfzZZAk",
            "faKe4J63Ra6w2R3evYkbvz:APA91bHacOguHf00pi4PhKK6jAhbxV9u_TBIM4cMT2xuxEf8PfiiJuErZ4T5RQ5pkq4p7tvd6t8L4IA6CvDJRg_1-InH-IGOYCNdhi7-fXbN9Dlc9vQBfP4RlmNg4n0bB0BbU9vRVZ6p",
            "cyX5Z0krxkK2g8wLsfYPRO:APA91bElisALFwW2tr_mH7tPMeqfa8zLfTC0STxIO7rLxTrME0uGMc2oee_5RresR68yfkmOhoTZzSdO2mQvXG72TxV75vbwbFQ0177_-mYUPH2FhXetOezPhHAC-CGw0sdINGn0K2Xw",
            "czktAa10TLCViU9oVqdzVF:APA91bHRoBmLM-foAYTMfHazCI7fcn7qJsT7O2n2p8tOXOFqv4dWF2iNLn4B8icwm42Cq3bxPhRMHcyQBDaCmYGlmBTZIZ4VIWuXKZ18NhFonpLJo6_yD9yPiTQc6rNI6-oVQXrhFG5d",
            "cveVvMlRCECOirn6kftGum:APA91bFdIE3xiUyneDCVDh_4bYRZW0ZnXmEJgVl-oFKkhtqG1ajuuuynx_LlP2nzO4XAoBrZZc_IvwkEoHFjIkyP6gVq1wra3WHpaaLofG111fF_bab88omlFkYw3-QWJe3fu1SFj-zB",
            "eTu7SrBeQqKbK9XH8X0EQ_:APA91bH2PjixhMG0VvxpBWZFBH9IOyIjwubrCpzHT9sPjbXVzpFeLacyNBxZGTQ-V9-b06H4YfyhTLAOBxovijsyzMfFf0vPhvrO_d5_LDEp9SkbGpYaUHGmTR5B33fAzQ0XeVKNEpsL",
            "cieHo7xvDUdWhXZvXvu5jA:APA91bFdIFGJD6V1EeGAjC5l28o4waBMVsL9L7x8gGPNhrexwkZPtL6FfHAaSE4434HRm8bxfjcrZWMVhJhPXQFHCUgEFIbL0Pe97Ipa16u-MgHZQjyP4k0kL6aRzvAVpc6ltoUu4Dc9",
            "dtjiC6lfReiArRnOHwFs-k:APA91bFpZHk3AMZTVOySlO85uimIb66-D4vaBaXMMhcZeZo8SIxNqsK7WHrtTDVuVEa6zq33pIzIg9r5UbzcSjd1wnGpUEyAOdQdDKf_89KgKmrgl0X2C15ft850ipEau2XziFxtWlJU",
            "fFL8ABLqS5OakPQqSzz9nG:APA91bGb1k4V3BWmVdjKa7zqigsjx8WC-TrN-h7uV5kdD2JrnfM8ZQFVy9OCG68_cuHnHJfXN-_2Z_W5UMxW38jheJi2kH86OCu62uLd8WUBFg7ps96pKsJXH2hkNnUXNcZ9qwXRGgUc",
            "eWcb_QRdMEr_qbedTs4cc4:APA91bEKkcRXUypofz9UADfKM22fhPZpws0cymnKVfHeb9TVWBo12lspza_lsz9ezp5MEx7rqX4rPOpjYbPZO-_V_Wy-TMdQGNQNHx6buEcXGkjSjSpCKIjg55IP5d-ghkFg2ATVMorp",
            "c_wixWzrgkV0ltEO_daEiA:APA91bFsSSJ7yQmjOGkvtYFQt9l1XmE4fz-OWWIVqU4mzQakITg2oxnZYyQ8htsYPdFZYrudNIwpoo_N60oQRrYqAZ5iMXfamAXw7K96u7HlND_-TkyRJBrvDV4kgEHRBYFjIXUwm9Vf",
            "el8ArkScRdKHu6J08_Hcku:APA91bFTpreCVTfEzSt4XfG8whQjN7oOrRikchHgtoThECmaVkdH-12mRAJblCyPlkTqJ7fKxift74UjwVynU-QkWDLpi7BTO0P1jATiurr9HLJPLx2s4_yG1YNL7IEcDVafdUuo1bVZ",
            "d0XIUOMcR-KLn9AnJTvCZ3:APA91bHmvhm8S4b288x1NgkJwB63KkIxcerah7o2-WcIX9VdEz0HMTAoYxUzLi5Fi6xHol8WZU6lQqXboxxqQLrHrqIqkohQ6QMrUNOpJuGsl3M5PTHGZgwY-uETIce634R3vkJNiiOG",
            "fLUFCtPzTUyKhcRtLFyBts:APA91bGOkIVbMMAoUHuIfolzn2uN_xDn_qTfY3cheMwPKgPBYAQ3yDc0dvB66Tmp9_FfRFhRQGoe1FAGO8ZQv9brzeWC6lX5seOUdPuj_aSm3jLoMnVNpEbtePyUdg8YIJ4spJxuqiPV",
            "czZHJOViw0SHlrXrX2V5-Z:APA91bEiFOQ2d1WDdcYNCQ82FSKY8czzgg0j5u0Muu3SscfYfvU05_6_IDVzdGsZ4skk8h2XC91vaoL-z4EXEjuiIa6LccfmORRQ3MldltLUKVj99agV4a-1wgsEfXEZgSPYlgAOoQey"
          ]
        },
        "is_terms_accepted": 1,
        "is_invitation_pending": 0,
        "first_name": "antoine",
        "last_name": "Pemeja",
        "is_nano_staff": 1,
        "clients": [],
        "workspaces": [],
        "allowed_workspaces": []
      },
      "silos": [],
      "created_at": "2022-06-10T17:48:24.821Z",
      "updated_at": "2022-06-10T17:48:24.821Z"
    },
    {
      "id": "1f2fc07a-f57e-4e36-a62f-aaf2ce481259",
      "date": "2022-06-11",
      "date_range_end": null,
      "round": null,
      "created_by_id": "d7a541f2-d842-41e5-bb4c-3dde5886b214",
      "timeSlot": "afternoon",
      "totalTonnage": 0,
      "comment": null,
      "source": "order",
      "created_by": {
        "idUser": "d7a541f2-d842-41e5-bb4c-3dde5886b214",
        "username": "antoine.pemeja@nanolike.com",
        "created_at": "2022-05-18T07:38:08.000Z",
        "updated_at": "2023-01-03T15:09:45.000Z",
        "email": "antoine.pemeja@nanolike.com",
        "acl": 2,
        "last_login": "2023-01-03T15:09:45.000Z",
        "date_joined": "2022-05-18T07:03:44.000Z",
        "configuration": {
          "preferred_language": "en",
          "preferred_timezone": "America/Montreal",
          "firebase_device_tokens": [
            "coXlnKNQTWq5vnqc0o_1jr:APA91bG5u-4TPmFFV0W4pnHKTROKQ8li5TwmyOo0VwE9hAMgqzQ8kD9a2FK4-g9Jtu7PWr_ASgr_O_j7yABZBh3QgE8Cl2gID0fOOKmDWa51g3tL68bmTL0L-yiyF6CKxjPuUoGIdwMN",
            "dJ3REV-iS7WjygK8vTp7Xy:APA91bEEg4DTSGabdD4wX5BHJnOzSvgyLImwIJ9mQQfTcD7ieuXTgb38nVYhPniU7Js8TnmEzrBWz5_Prpx0qZrauWsEsS_8-Cvn92InVQFUZEH7yNGU2PyN9lacsYwFBzfVBiCf1zWr",
            "cHYgL0Sk_0Y0k61MxNuZsM:APA91bFPzBA2ERn4BSIaHnBYzrbeOrJ7iZW9OHWhnNbHvGcilOJeHzjVmQeAlsON_QBhLu0DjTHfo0Py509TSuZIuprCbaAm7xKukZt0pqjuuQz7KQeftpRO9GQjExwFpyxyMc34rEZ0",
            "czlC_sf7TeiypD11UPgs3l:APA91bE2Fp5KOapq56T4h5Nia1IJeoPWcv8gUi0ovbeFQC3475BdgrJGeeMUxlziPoXxRIdyyoRoT_Q-6MZGftOoU4D2KJ4nXL7kGIKzcy0nkaoQvOAvsPcFq6vMLIuvzW1cQ5MNukHF",
            "eUxowmthQ32VeMPmGLR_Zf:APA91bEDqxClSq7dmBWvP6sDOMaLBkruYltIvB6Of7JBwGqOvB3cVOorBhCCRa1hnw58qxxFsCAhzTQMBdnlaiEidUgiut9aETsW3KX_0DrYOZVOL614tVAk5HaYyCpIkCmmos3vKQr6",
            "fooNNVVpQT6zpjKh2gn6Q5:APA91bG8FEOjuffL0O_klh1_w1SA6SJHIvCKlme9kCid2SXyfw7g4qPcA_g7Mq6RZ0DHbkuW4-xj2QDT-31jP59-A-Ry2D2I9qSfb38jUghnL4jEVUGYFGG3PngTtR8XmqmTM-IyU3jj",
            "f08p7IPTRAqH9uGrdRgYYs:APA91bFdUd0AW6M3lzWsgn7oCt9WaFKdtQ4a3FIJOKAqp1elHmhrKXdmLSb04JEVXvl7W_iriS5m16bukhoLG2IGE5N3nntSVOsnwPRKGiNgaBAeGHw-TGgc-Ilak5xRlQ119b_Eqm9s",
            "ebM1HiY8SpqoQZa6ZRwwXw:APA91bENAtYZjRcT-aBfojlwz2jJ0xIjlVh2_YH94YQWMx9W43NMuTYeJoflusI8P-VDmraYzMt73XTm0gzijfdmUxoEZkrEeVofG9S3hJvxhasmCk9S-YHvuiiTpNjnvySv9HHWY7NF",
            "dXVmO2G5T4OEM8em60x34E:APA91bEzavoS31GmpNRMfLXInDm6wLQ4IXTuaKYqXoXzGEzWXyAeksURgJa2PFduTp3u6Td1oOu7DHfQuOGr_sM0JpnzbIPlDXY6tTulsI9culjP2EoubamTnIAH7JtfaXJr1vM8As99",
            "e4WkCEP-Q5WKvuivNkbsxm:APA91bGq4vKsHr3FDZaHqSpzEDbZgMFn6E9r3kMukDrUOvgJZw6h6U_zhgSgp-bTlcPeo9F_epsD3iqnj08x3gRA-yP2tDbFut2KbBIpqcVykSZbt_PItCTDlaTTPI5zN4SXhCKaICCd",
            "cpL7ArZH9UAHnQfoWPArsO:APA91bERymWtr6xY9RYRWi6OLItYB7ApNbQlhE-HJ_1aj4EM6wU-_xxNG0cO2-Od-awik8O-yOJYJauGeKRFgUNLTx6CY-qudQ0F1pFf05eJPdVsREFdUFn792cXX-unzeXdQ45HVaw_",
            "dm6ommNzDkbvivqdpzZq-J:APA91bEjSWMLG-gg5jC-F9bmFKJMaEdMFCC_7EA9pes-flrwjvNaIuOuMcn0RKYMS6VDGr2FqtABvyJr9axkzti7qtxzBaVMHB8hG_0Fgf6w9szormB-cjU9bkTdGFtxq8cvJQfzZZAk",
            "faKe4J63Ra6w2R3evYkbvz:APA91bHacOguHf00pi4PhKK6jAhbxV9u_TBIM4cMT2xuxEf8PfiiJuErZ4T5RQ5pkq4p7tvd6t8L4IA6CvDJRg_1-InH-IGOYCNdhi7-fXbN9Dlc9vQBfP4RlmNg4n0bB0BbU9vRVZ6p",
            "cyX5Z0krxkK2g8wLsfYPRO:APA91bElisALFwW2tr_mH7tPMeqfa8zLfTC0STxIO7rLxTrME0uGMc2oee_5RresR68yfkmOhoTZzSdO2mQvXG72TxV75vbwbFQ0177_-mYUPH2FhXetOezPhHAC-CGw0sdINGn0K2Xw",
            "czktAa10TLCViU9oVqdzVF:APA91bHRoBmLM-foAYTMfHazCI7fcn7qJsT7O2n2p8tOXOFqv4dWF2iNLn4B8icwm42Cq3bxPhRMHcyQBDaCmYGlmBTZIZ4VIWuXKZ18NhFonpLJo6_yD9yPiTQc6rNI6-oVQXrhFG5d",
            "cveVvMlRCECOirn6kftGum:APA91bFdIE3xiUyneDCVDh_4bYRZW0ZnXmEJgVl-oFKkhtqG1ajuuuynx_LlP2nzO4XAoBrZZc_IvwkEoHFjIkyP6gVq1wra3WHpaaLofG111fF_bab88omlFkYw3-QWJe3fu1SFj-zB",
            "eTu7SrBeQqKbK9XH8X0EQ_:APA91bH2PjixhMG0VvxpBWZFBH9IOyIjwubrCpzHT9sPjbXVzpFeLacyNBxZGTQ-V9-b06H4YfyhTLAOBxovijsyzMfFf0vPhvrO_d5_LDEp9SkbGpYaUHGmTR5B33fAzQ0XeVKNEpsL",
            "cieHo7xvDUdWhXZvXvu5jA:APA91bFdIFGJD6V1EeGAjC5l28o4waBMVsL9L7x8gGPNhrexwkZPtL6FfHAaSE4434HRm8bxfjcrZWMVhJhPXQFHCUgEFIbL0Pe97Ipa16u-MgHZQjyP4k0kL6aRzvAVpc6ltoUu4Dc9",
            "dtjiC6lfReiArRnOHwFs-k:APA91bFpZHk3AMZTVOySlO85uimIb66-D4vaBaXMMhcZeZo8SIxNqsK7WHrtTDVuVEa6zq33pIzIg9r5UbzcSjd1wnGpUEyAOdQdDKf_89KgKmrgl0X2C15ft850ipEau2XziFxtWlJU",
            "fFL8ABLqS5OakPQqSzz9nG:APA91bGb1k4V3BWmVdjKa7zqigsjx8WC-TrN-h7uV5kdD2JrnfM8ZQFVy9OCG68_cuHnHJfXN-_2Z_W5UMxW38jheJi2kH86OCu62uLd8WUBFg7ps96pKsJXH2hkNnUXNcZ9qwXRGgUc",
            "eWcb_QRdMEr_qbedTs4cc4:APA91bEKkcRXUypofz9UADfKM22fhPZpws0cymnKVfHeb9TVWBo12lspza_lsz9ezp5MEx7rqX4rPOpjYbPZO-_V_Wy-TMdQGNQNHx6buEcXGkjSjSpCKIjg55IP5d-ghkFg2ATVMorp",
            "c_wixWzrgkV0ltEO_daEiA:APA91bFsSSJ7yQmjOGkvtYFQt9l1XmE4fz-OWWIVqU4mzQakITg2oxnZYyQ8htsYPdFZYrudNIwpoo_N60oQRrYqAZ5iMXfamAXw7K96u7HlND_-TkyRJBrvDV4kgEHRBYFjIXUwm9Vf",
            "el8ArkScRdKHu6J08_Hcku:APA91bFTpreCVTfEzSt4XfG8whQjN7oOrRikchHgtoThECmaVkdH-12mRAJblCyPlkTqJ7fKxift74UjwVynU-QkWDLpi7BTO0P1jATiurr9HLJPLx2s4_yG1YNL7IEcDVafdUuo1bVZ",
            "d0XIUOMcR-KLn9AnJTvCZ3:APA91bHmvhm8S4b288x1NgkJwB63KkIxcerah7o2-WcIX9VdEz0HMTAoYxUzLi5Fi6xHol8WZU6lQqXboxxqQLrHrqIqkohQ6QMrUNOpJuGsl3M5PTHGZgwY-uETIce634R3vkJNiiOG",
            "fLUFCtPzTUyKhcRtLFyBts:APA91bGOkIVbMMAoUHuIfolzn2uN_xDn_qTfY3cheMwPKgPBYAQ3yDc0dvB66Tmp9_FfRFhRQGoe1FAGO8ZQv9brzeWC6lX5seOUdPuj_aSm3jLoMnVNpEbtePyUdg8YIJ4spJxuqiPV",
            "czZHJOViw0SHlrXrX2V5-Z:APA91bEiFOQ2d1WDdcYNCQ82FSKY8czzgg0j5u0Muu3SscfYfvU05_6_IDVzdGsZ4skk8h2XC91vaoL-z4EXEjuiIa6LccfmORRQ3MldltLUKVj99agV4a-1wgsEfXEZgSPYlgAOoQey"
          ]
        },
        "is_terms_accepted": 1,
        "is_invitation_pending": 0,
        "first_name": "antoine",
        "last_name": "Pemeja",
        "is_nano_staff": 1,
        "clients": [],
        "workspaces": [],
        "allowed_workspaces": []
      },
      "silos": [],
      "created_at": "2022-06-10T17:48:46.666Z",
      "updated_at": "2022-06-10T17:48:46.666Z"
    },
    {
      "id": "be5ba8fa-7fe3-453a-a7ed-50312ac5ee47",
      "date": "2022-06-11",
      "date_range_end": null,
      "round": null,
      "created_by_id": "d7a541f2-d842-41e5-bb4c-3dde5886b214",
      "timeSlot": "morning",
      "totalTonnage": 7,
      "comment": null,
      "source": "order",
      "created_by": {
        "idUser": "d7a541f2-d842-41e5-bb4c-3dde5886b214",
        "username": "antoine.pemeja@nanolike.com",
        "created_at": "2022-05-18T07:38:08.000Z",
        "updated_at": "2023-01-03T15:09:45.000Z",
        "email": "antoine.pemeja@nanolike.com",
        "acl": 2,
        "last_login": "2023-01-03T15:09:45.000Z",
        "date_joined": "2022-05-18T07:03:44.000Z",
        "configuration": {
          "preferred_language": "en",
          "preferred_timezone": "America/Montreal",
          "firebase_device_tokens": [
            "coXlnKNQTWq5vnqc0o_1jr:APA91bG5u-4TPmFFV0W4pnHKTROKQ8li5TwmyOo0VwE9hAMgqzQ8kD9a2FK4-g9Jtu7PWr_ASgr_O_j7yABZBh3QgE8Cl2gID0fOOKmDWa51g3tL68bmTL0L-yiyF6CKxjPuUoGIdwMN",
            "dJ3REV-iS7WjygK8vTp7Xy:APA91bEEg4DTSGabdD4wX5BHJnOzSvgyLImwIJ9mQQfTcD7ieuXTgb38nVYhPniU7Js8TnmEzrBWz5_Prpx0qZrauWsEsS_8-Cvn92InVQFUZEH7yNGU2PyN9lacsYwFBzfVBiCf1zWr",
            "cHYgL0Sk_0Y0k61MxNuZsM:APA91bFPzBA2ERn4BSIaHnBYzrbeOrJ7iZW9OHWhnNbHvGcilOJeHzjVmQeAlsON_QBhLu0DjTHfo0Py509TSuZIuprCbaAm7xKukZt0pqjuuQz7KQeftpRO9GQjExwFpyxyMc34rEZ0",
            "czlC_sf7TeiypD11UPgs3l:APA91bE2Fp5KOapq56T4h5Nia1IJeoPWcv8gUi0ovbeFQC3475BdgrJGeeMUxlziPoXxRIdyyoRoT_Q-6MZGftOoU4D2KJ4nXL7kGIKzcy0nkaoQvOAvsPcFq6vMLIuvzW1cQ5MNukHF",
            "eUxowmthQ32VeMPmGLR_Zf:APA91bEDqxClSq7dmBWvP6sDOMaLBkruYltIvB6Of7JBwGqOvB3cVOorBhCCRa1hnw58qxxFsCAhzTQMBdnlaiEidUgiut9aETsW3KX_0DrYOZVOL614tVAk5HaYyCpIkCmmos3vKQr6",
            "fooNNVVpQT6zpjKh2gn6Q5:APA91bG8FEOjuffL0O_klh1_w1SA6SJHIvCKlme9kCid2SXyfw7g4qPcA_g7Mq6RZ0DHbkuW4-xj2QDT-31jP59-A-Ry2D2I9qSfb38jUghnL4jEVUGYFGG3PngTtR8XmqmTM-IyU3jj",
            "f08p7IPTRAqH9uGrdRgYYs:APA91bFdUd0AW6M3lzWsgn7oCt9WaFKdtQ4a3FIJOKAqp1elHmhrKXdmLSb04JEVXvl7W_iriS5m16bukhoLG2IGE5N3nntSVOsnwPRKGiNgaBAeGHw-TGgc-Ilak5xRlQ119b_Eqm9s",
            "ebM1HiY8SpqoQZa6ZRwwXw:APA91bENAtYZjRcT-aBfojlwz2jJ0xIjlVh2_YH94YQWMx9W43NMuTYeJoflusI8P-VDmraYzMt73XTm0gzijfdmUxoEZkrEeVofG9S3hJvxhasmCk9S-YHvuiiTpNjnvySv9HHWY7NF",
            "dXVmO2G5T4OEM8em60x34E:APA91bEzavoS31GmpNRMfLXInDm6wLQ4IXTuaKYqXoXzGEzWXyAeksURgJa2PFduTp3u6Td1oOu7DHfQuOGr_sM0JpnzbIPlDXY6tTulsI9culjP2EoubamTnIAH7JtfaXJr1vM8As99",
            "e4WkCEP-Q5WKvuivNkbsxm:APA91bGq4vKsHr3FDZaHqSpzEDbZgMFn6E9r3kMukDrUOvgJZw6h6U_zhgSgp-bTlcPeo9F_epsD3iqnj08x3gRA-yP2tDbFut2KbBIpqcVykSZbt_PItCTDlaTTPI5zN4SXhCKaICCd",
            "cpL7ArZH9UAHnQfoWPArsO:APA91bERymWtr6xY9RYRWi6OLItYB7ApNbQlhE-HJ_1aj4EM6wU-_xxNG0cO2-Od-awik8O-yOJYJauGeKRFgUNLTx6CY-qudQ0F1pFf05eJPdVsREFdUFn792cXX-unzeXdQ45HVaw_",
            "dm6ommNzDkbvivqdpzZq-J:APA91bEjSWMLG-gg5jC-F9bmFKJMaEdMFCC_7EA9pes-flrwjvNaIuOuMcn0RKYMS6VDGr2FqtABvyJr9axkzti7qtxzBaVMHB8hG_0Fgf6w9szormB-cjU9bkTdGFtxq8cvJQfzZZAk",
            "faKe4J63Ra6w2R3evYkbvz:APA91bHacOguHf00pi4PhKK6jAhbxV9u_TBIM4cMT2xuxEf8PfiiJuErZ4T5RQ5pkq4p7tvd6t8L4IA6CvDJRg_1-InH-IGOYCNdhi7-fXbN9Dlc9vQBfP4RlmNg4n0bB0BbU9vRVZ6p",
            "cyX5Z0krxkK2g8wLsfYPRO:APA91bElisALFwW2tr_mH7tPMeqfa8zLfTC0STxIO7rLxTrME0uGMc2oee_5RresR68yfkmOhoTZzSdO2mQvXG72TxV75vbwbFQ0177_-mYUPH2FhXetOezPhHAC-CGw0sdINGn0K2Xw",
            "czktAa10TLCViU9oVqdzVF:APA91bHRoBmLM-foAYTMfHazCI7fcn7qJsT7O2n2p8tOXOFqv4dWF2iNLn4B8icwm42Cq3bxPhRMHcyQBDaCmYGlmBTZIZ4VIWuXKZ18NhFonpLJo6_yD9yPiTQc6rNI6-oVQXrhFG5d",
            "cveVvMlRCECOirn6kftGum:APA91bFdIE3xiUyneDCVDh_4bYRZW0ZnXmEJgVl-oFKkhtqG1ajuuuynx_LlP2nzO4XAoBrZZc_IvwkEoHFjIkyP6gVq1wra3WHpaaLofG111fF_bab88omlFkYw3-QWJe3fu1SFj-zB",
            "eTu7SrBeQqKbK9XH8X0EQ_:APA91bH2PjixhMG0VvxpBWZFBH9IOyIjwubrCpzHT9sPjbXVzpFeLacyNBxZGTQ-V9-b06H4YfyhTLAOBxovijsyzMfFf0vPhvrO_d5_LDEp9SkbGpYaUHGmTR5B33fAzQ0XeVKNEpsL",
            "cieHo7xvDUdWhXZvXvu5jA:APA91bFdIFGJD6V1EeGAjC5l28o4waBMVsL9L7x8gGPNhrexwkZPtL6FfHAaSE4434HRm8bxfjcrZWMVhJhPXQFHCUgEFIbL0Pe97Ipa16u-MgHZQjyP4k0kL6aRzvAVpc6ltoUu4Dc9",
            "dtjiC6lfReiArRnOHwFs-k:APA91bFpZHk3AMZTVOySlO85uimIb66-D4vaBaXMMhcZeZo8SIxNqsK7WHrtTDVuVEa6zq33pIzIg9r5UbzcSjd1wnGpUEyAOdQdDKf_89KgKmrgl0X2C15ft850ipEau2XziFxtWlJU",
            "fFL8ABLqS5OakPQqSzz9nG:APA91bGb1k4V3BWmVdjKa7zqigsjx8WC-TrN-h7uV5kdD2JrnfM8ZQFVy9OCG68_cuHnHJfXN-_2Z_W5UMxW38jheJi2kH86OCu62uLd8WUBFg7ps96pKsJXH2hkNnUXNcZ9qwXRGgUc",
            "eWcb_QRdMEr_qbedTs4cc4:APA91bEKkcRXUypofz9UADfKM22fhPZpws0cymnKVfHeb9TVWBo12lspza_lsz9ezp5MEx7rqX4rPOpjYbPZO-_V_Wy-TMdQGNQNHx6buEcXGkjSjSpCKIjg55IP5d-ghkFg2ATVMorp",
            "c_wixWzrgkV0ltEO_daEiA:APA91bFsSSJ7yQmjOGkvtYFQt9l1XmE4fz-OWWIVqU4mzQakITg2oxnZYyQ8htsYPdFZYrudNIwpoo_N60oQRrYqAZ5iMXfamAXw7K96u7HlND_-TkyRJBrvDV4kgEHRBYFjIXUwm9Vf",
            "el8ArkScRdKHu6J08_Hcku:APA91bFTpreCVTfEzSt4XfG8whQjN7oOrRikchHgtoThECmaVkdH-12mRAJblCyPlkTqJ7fKxift74UjwVynU-QkWDLpi7BTO0P1jATiurr9HLJPLx2s4_yG1YNL7IEcDVafdUuo1bVZ",
            "d0XIUOMcR-KLn9AnJTvCZ3:APA91bHmvhm8S4b288x1NgkJwB63KkIxcerah7o2-WcIX9VdEz0HMTAoYxUzLi5Fi6xHol8WZU6lQqXboxxqQLrHrqIqkohQ6QMrUNOpJuGsl3M5PTHGZgwY-uETIce634R3vkJNiiOG",
            "fLUFCtPzTUyKhcRtLFyBts:APA91bGOkIVbMMAoUHuIfolzn2uN_xDn_qTfY3cheMwPKgPBYAQ3yDc0dvB66Tmp9_FfRFhRQGoe1FAGO8ZQv9brzeWC6lX5seOUdPuj_aSm3jLoMnVNpEbtePyUdg8YIJ4spJxuqiPV",
            "czZHJOViw0SHlrXrX2V5-Z:APA91bEiFOQ2d1WDdcYNCQ82FSKY8czzgg0j5u0Muu3SscfYfvU05_6_IDVzdGsZ4skk8h2XC91vaoL-z4EXEjuiIa6LccfmORRQ3MldltLUKVj99agV4a-1wgsEfXEZgSPYlgAOoQey"
          ]
        },
        "is_terms_accepted": 1,
        "is_invitation_pending": 0,
        "first_name": "antoine",
        "last_name": "Pemeja",
        "is_nano_staff": 1,
        "clients": [],
        "workspaces": [],
        "allowed_workspaces": []
      },
      "silos": [
        {
          "id": "ST0004",
          "device_name": "Silo 4",
          "tonnage": 7,
          "comment": null,
          "silo_number": "4",
          "group_ids": [
            "7b500e63-1f28-49d0-9f7a-7667a283650c",
            "df058fac-86c1-4f60-8bfd-7356a8cf0c5e"
          ],
          "farm_name": "Ferme Pierre Martin",
          "calibration_accepted": true,
          "content": {
            "name": "Lacta 4",
            "type": "Granules",
            "drug": "The drug 1",
            "supplement": {
              "name": "supplement 1",
              "ratio": null
            }
          }
        }
      ],
      "created_at": "2022-06-10T17:53:11.282Z",
      "updated_at": "2022-06-10T17:53:11.282Z"
    },
    {
      "id": "5243f63e-be53-471e-bc55-af0c2236e271",
      "date": "2022-06-25",
      "date_range_end": null,
      "round": null,
      "created_by_id": "d7a541f2-d842-41e5-bb4c-3dde5886b214",
      "timeSlot": "morning",
      "totalTonnage": 0,
      "comment": null,
      "source": "order",
      "created_by": {
        "idUser": "d7a541f2-d842-41e5-bb4c-3dde5886b214",
        "username": "antoine.pemeja@nanolike.com",
        "created_at": "2022-05-18T07:38:08.000Z",
        "updated_at": "2023-01-03T15:09:45.000Z",
        "email": "antoine.pemeja@nanolike.com",
        "acl": 2,
        "last_login": "2023-01-03T15:09:45.000Z",
        "date_joined": "2022-05-18T07:03:44.000Z",
        "configuration": {
          "preferred_language": "en",
          "preferred_timezone": "America/Montreal",
          "firebase_device_tokens": [
            "coXlnKNQTWq5vnqc0o_1jr:APA91bG5u-4TPmFFV0W4pnHKTROKQ8li5TwmyOo0VwE9hAMgqzQ8kD9a2FK4-g9Jtu7PWr_ASgr_O_j7yABZBh3QgE8Cl2gID0fOOKmDWa51g3tL68bmTL0L-yiyF6CKxjPuUoGIdwMN",
            "dJ3REV-iS7WjygK8vTp7Xy:APA91bEEg4DTSGabdD4wX5BHJnOzSvgyLImwIJ9mQQfTcD7ieuXTgb38nVYhPniU7Js8TnmEzrBWz5_Prpx0qZrauWsEsS_8-Cvn92InVQFUZEH7yNGU2PyN9lacsYwFBzfVBiCf1zWr",
            "cHYgL0Sk_0Y0k61MxNuZsM:APA91bFPzBA2ERn4BSIaHnBYzrbeOrJ7iZW9OHWhnNbHvGcilOJeHzjVmQeAlsON_QBhLu0DjTHfo0Py509TSuZIuprCbaAm7xKukZt0pqjuuQz7KQeftpRO9GQjExwFpyxyMc34rEZ0",
            "czlC_sf7TeiypD11UPgs3l:APA91bE2Fp5KOapq56T4h5Nia1IJeoPWcv8gUi0ovbeFQC3475BdgrJGeeMUxlziPoXxRIdyyoRoT_Q-6MZGftOoU4D2KJ4nXL7kGIKzcy0nkaoQvOAvsPcFq6vMLIuvzW1cQ5MNukHF",
            "eUxowmthQ32VeMPmGLR_Zf:APA91bEDqxClSq7dmBWvP6sDOMaLBkruYltIvB6Of7JBwGqOvB3cVOorBhCCRa1hnw58qxxFsCAhzTQMBdnlaiEidUgiut9aETsW3KX_0DrYOZVOL614tVAk5HaYyCpIkCmmos3vKQr6",
            "fooNNVVpQT6zpjKh2gn6Q5:APA91bG8FEOjuffL0O_klh1_w1SA6SJHIvCKlme9kCid2SXyfw7g4qPcA_g7Mq6RZ0DHbkuW4-xj2QDT-31jP59-A-Ry2D2I9qSfb38jUghnL4jEVUGYFGG3PngTtR8XmqmTM-IyU3jj",
            "f08p7IPTRAqH9uGrdRgYYs:APA91bFdUd0AW6M3lzWsgn7oCt9WaFKdtQ4a3FIJOKAqp1elHmhrKXdmLSb04JEVXvl7W_iriS5m16bukhoLG2IGE5N3nntSVOsnwPRKGiNgaBAeGHw-TGgc-Ilak5xRlQ119b_Eqm9s",
            "ebM1HiY8SpqoQZa6ZRwwXw:APA91bENAtYZjRcT-aBfojlwz2jJ0xIjlVh2_YH94YQWMx9W43NMuTYeJoflusI8P-VDmraYzMt73XTm0gzijfdmUxoEZkrEeVofG9S3hJvxhasmCk9S-YHvuiiTpNjnvySv9HHWY7NF",
            "dXVmO2G5T4OEM8em60x34E:APA91bEzavoS31GmpNRMfLXInDm6wLQ4IXTuaKYqXoXzGEzWXyAeksURgJa2PFduTp3u6Td1oOu7DHfQuOGr_sM0JpnzbIPlDXY6tTulsI9culjP2EoubamTnIAH7JtfaXJr1vM8As99",
            "e4WkCEP-Q5WKvuivNkbsxm:APA91bGq4vKsHr3FDZaHqSpzEDbZgMFn6E9r3kMukDrUOvgJZw6h6U_zhgSgp-bTlcPeo9F_epsD3iqnj08x3gRA-yP2tDbFut2KbBIpqcVykSZbt_PItCTDlaTTPI5zN4SXhCKaICCd",
            "cpL7ArZH9UAHnQfoWPArsO:APA91bERymWtr6xY9RYRWi6OLItYB7ApNbQlhE-HJ_1aj4EM6wU-_xxNG0cO2-Od-awik8O-yOJYJauGeKRFgUNLTx6CY-qudQ0F1pFf05eJPdVsREFdUFn792cXX-unzeXdQ45HVaw_",
            "dm6ommNzDkbvivqdpzZq-J:APA91bEjSWMLG-gg5jC-F9bmFKJMaEdMFCC_7EA9pes-flrwjvNaIuOuMcn0RKYMS6VDGr2FqtABvyJr9axkzti7qtxzBaVMHB8hG_0Fgf6w9szormB-cjU9bkTdGFtxq8cvJQfzZZAk",
            "faKe4J63Ra6w2R3evYkbvz:APA91bHacOguHf00pi4PhKK6jAhbxV9u_TBIM4cMT2xuxEf8PfiiJuErZ4T5RQ5pkq4p7tvd6t8L4IA6CvDJRg_1-InH-IGOYCNdhi7-fXbN9Dlc9vQBfP4RlmNg4n0bB0BbU9vRVZ6p",
            "cyX5Z0krxkK2g8wLsfYPRO:APA91bElisALFwW2tr_mH7tPMeqfa8zLfTC0STxIO7rLxTrME0uGMc2oee_5RresR68yfkmOhoTZzSdO2mQvXG72TxV75vbwbFQ0177_-mYUPH2FhXetOezPhHAC-CGw0sdINGn0K2Xw",
            "czktAa10TLCViU9oVqdzVF:APA91bHRoBmLM-foAYTMfHazCI7fcn7qJsT7O2n2p8tOXOFqv4dWF2iNLn4B8icwm42Cq3bxPhRMHcyQBDaCmYGlmBTZIZ4VIWuXKZ18NhFonpLJo6_yD9yPiTQc6rNI6-oVQXrhFG5d",
            "cveVvMlRCECOirn6kftGum:APA91bFdIE3xiUyneDCVDh_4bYRZW0ZnXmEJgVl-oFKkhtqG1ajuuuynx_LlP2nzO4XAoBrZZc_IvwkEoHFjIkyP6gVq1wra3WHpaaLofG111fF_bab88omlFkYw3-QWJe3fu1SFj-zB",
            "eTu7SrBeQqKbK9XH8X0EQ_:APA91bH2PjixhMG0VvxpBWZFBH9IOyIjwubrCpzHT9sPjbXVzpFeLacyNBxZGTQ-V9-b06H4YfyhTLAOBxovijsyzMfFf0vPhvrO_d5_LDEp9SkbGpYaUHGmTR5B33fAzQ0XeVKNEpsL",
            "cieHo7xvDUdWhXZvXvu5jA:APA91bFdIFGJD6V1EeGAjC5l28o4waBMVsL9L7x8gGPNhrexwkZPtL6FfHAaSE4434HRm8bxfjcrZWMVhJhPXQFHCUgEFIbL0Pe97Ipa16u-MgHZQjyP4k0kL6aRzvAVpc6ltoUu4Dc9",
            "dtjiC6lfReiArRnOHwFs-k:APA91bFpZHk3AMZTVOySlO85uimIb66-D4vaBaXMMhcZeZo8SIxNqsK7WHrtTDVuVEa6zq33pIzIg9r5UbzcSjd1wnGpUEyAOdQdDKf_89KgKmrgl0X2C15ft850ipEau2XziFxtWlJU",
            "fFL8ABLqS5OakPQqSzz9nG:APA91bGb1k4V3BWmVdjKa7zqigsjx8WC-TrN-h7uV5kdD2JrnfM8ZQFVy9OCG68_cuHnHJfXN-_2Z_W5UMxW38jheJi2kH86OCu62uLd8WUBFg7ps96pKsJXH2hkNnUXNcZ9qwXRGgUc",
            "eWcb_QRdMEr_qbedTs4cc4:APA91bEKkcRXUypofz9UADfKM22fhPZpws0cymnKVfHeb9TVWBo12lspza_lsz9ezp5MEx7rqX4rPOpjYbPZO-_V_Wy-TMdQGNQNHx6buEcXGkjSjSpCKIjg55IP5d-ghkFg2ATVMorp",
            "c_wixWzrgkV0ltEO_daEiA:APA91bFsSSJ7yQmjOGkvtYFQt9l1XmE4fz-OWWIVqU4mzQakITg2oxnZYyQ8htsYPdFZYrudNIwpoo_N60oQRrYqAZ5iMXfamAXw7K96u7HlND_-TkyRJBrvDV4kgEHRBYFjIXUwm9Vf",
            "el8ArkScRdKHu6J08_Hcku:APA91bFTpreCVTfEzSt4XfG8whQjN7oOrRikchHgtoThECmaVkdH-12mRAJblCyPlkTqJ7fKxift74UjwVynU-QkWDLpi7BTO0P1jATiurr9HLJPLx2s4_yG1YNL7IEcDVafdUuo1bVZ",
            "d0XIUOMcR-KLn9AnJTvCZ3:APA91bHmvhm8S4b288x1NgkJwB63KkIxcerah7o2-WcIX9VdEz0HMTAoYxUzLi5Fi6xHol8WZU6lQqXboxxqQLrHrqIqkohQ6QMrUNOpJuGsl3M5PTHGZgwY-uETIce634R3vkJNiiOG",
            "fLUFCtPzTUyKhcRtLFyBts:APA91bGOkIVbMMAoUHuIfolzn2uN_xDn_qTfY3cheMwPKgPBYAQ3yDc0dvB66Tmp9_FfRFhRQGoe1FAGO8ZQv9brzeWC6lX5seOUdPuj_aSm3jLoMnVNpEbtePyUdg8YIJ4spJxuqiPV",
            "czZHJOViw0SHlrXrX2V5-Z:APA91bEiFOQ2d1WDdcYNCQ82FSKY8czzgg0j5u0Muu3SscfYfvU05_6_IDVzdGsZ4skk8h2XC91vaoL-z4EXEjuiIa6LccfmORRQ3MldltLUKVj99agV4a-1wgsEfXEZgSPYlgAOoQey"
          ]
        },
        "is_terms_accepted": 1,
        "is_invitation_pending": 0,
        "first_name": "antoine",
        "last_name": "Pemeja",
        "is_nano_staff": 1,
        "clients": [],
        "workspaces": [],
        "allowed_workspaces": []
      },
      "silos": [],
      "created_at": "2022-06-10T18:24:08.663Z",
      "updated_at": "2022-06-10T18:24:08.663Z"
    },
    {
      "id": "f5004bd9-f3f7-487c-b521-3d4e71eb8144",
      "date": "2022-06-29",
      "date_range_end": null,
      "round": null,
      "created_by_id": "d7a541f2-d842-41e5-bb4c-3dde5886b214",
      "timeSlot": "morning",
      "totalTonnage": 0,
      "comment": null,
      "source": "order",
      "created_by": {
        "idUser": "d7a541f2-d842-41e5-bb4c-3dde5886b214",
        "username": "antoine.pemeja@nanolike.com",
        "created_at": "2022-05-18T07:38:08.000Z",
        "updated_at": "2023-01-03T15:09:45.000Z",
        "email": "antoine.pemeja@nanolike.com",
        "acl": 2,
        "last_login": "2023-01-03T15:09:45.000Z",
        "date_joined": "2022-05-18T07:03:44.000Z",
        "configuration": {
          "preferred_language": "en",
          "preferred_timezone": "America/Montreal",
          "firebase_device_tokens": [
            "coXlnKNQTWq5vnqc0o_1jr:APA91bG5u-4TPmFFV0W4pnHKTROKQ8li5TwmyOo0VwE9hAMgqzQ8kD9a2FK4-g9Jtu7PWr_ASgr_O_j7yABZBh3QgE8Cl2gID0fOOKmDWa51g3tL68bmTL0L-yiyF6CKxjPuUoGIdwMN",
            "dJ3REV-iS7WjygK8vTp7Xy:APA91bEEg4DTSGabdD4wX5BHJnOzSvgyLImwIJ9mQQfTcD7ieuXTgb38nVYhPniU7Js8TnmEzrBWz5_Prpx0qZrauWsEsS_8-Cvn92InVQFUZEH7yNGU2PyN9lacsYwFBzfVBiCf1zWr",
            "cHYgL0Sk_0Y0k61MxNuZsM:APA91bFPzBA2ERn4BSIaHnBYzrbeOrJ7iZW9OHWhnNbHvGcilOJeHzjVmQeAlsON_QBhLu0DjTHfo0Py509TSuZIuprCbaAm7xKukZt0pqjuuQz7KQeftpRO9GQjExwFpyxyMc34rEZ0",
            "czlC_sf7TeiypD11UPgs3l:APA91bE2Fp5KOapq56T4h5Nia1IJeoPWcv8gUi0ovbeFQC3475BdgrJGeeMUxlziPoXxRIdyyoRoT_Q-6MZGftOoU4D2KJ4nXL7kGIKzcy0nkaoQvOAvsPcFq6vMLIuvzW1cQ5MNukHF",
            "eUxowmthQ32VeMPmGLR_Zf:APA91bEDqxClSq7dmBWvP6sDOMaLBkruYltIvB6Of7JBwGqOvB3cVOorBhCCRa1hnw58qxxFsCAhzTQMBdnlaiEidUgiut9aETsW3KX_0DrYOZVOL614tVAk5HaYyCpIkCmmos3vKQr6",
            "fooNNVVpQT6zpjKh2gn6Q5:APA91bG8FEOjuffL0O_klh1_w1SA6SJHIvCKlme9kCid2SXyfw7g4qPcA_g7Mq6RZ0DHbkuW4-xj2QDT-31jP59-A-Ry2D2I9qSfb38jUghnL4jEVUGYFGG3PngTtR8XmqmTM-IyU3jj",
            "f08p7IPTRAqH9uGrdRgYYs:APA91bFdUd0AW6M3lzWsgn7oCt9WaFKdtQ4a3FIJOKAqp1elHmhrKXdmLSb04JEVXvl7W_iriS5m16bukhoLG2IGE5N3nntSVOsnwPRKGiNgaBAeGHw-TGgc-Ilak5xRlQ119b_Eqm9s",
            "ebM1HiY8SpqoQZa6ZRwwXw:APA91bENAtYZjRcT-aBfojlwz2jJ0xIjlVh2_YH94YQWMx9W43NMuTYeJoflusI8P-VDmraYzMt73XTm0gzijfdmUxoEZkrEeVofG9S3hJvxhasmCk9S-YHvuiiTpNjnvySv9HHWY7NF",
            "dXVmO2G5T4OEM8em60x34E:APA91bEzavoS31GmpNRMfLXInDm6wLQ4IXTuaKYqXoXzGEzWXyAeksURgJa2PFduTp3u6Td1oOu7DHfQuOGr_sM0JpnzbIPlDXY6tTulsI9culjP2EoubamTnIAH7JtfaXJr1vM8As99",
            "e4WkCEP-Q5WKvuivNkbsxm:APA91bGq4vKsHr3FDZaHqSpzEDbZgMFn6E9r3kMukDrUOvgJZw6h6U_zhgSgp-bTlcPeo9F_epsD3iqnj08x3gRA-yP2tDbFut2KbBIpqcVykSZbt_PItCTDlaTTPI5zN4SXhCKaICCd",
            "cpL7ArZH9UAHnQfoWPArsO:APA91bERymWtr6xY9RYRWi6OLItYB7ApNbQlhE-HJ_1aj4EM6wU-_xxNG0cO2-Od-awik8O-yOJYJauGeKRFgUNLTx6CY-qudQ0F1pFf05eJPdVsREFdUFn792cXX-unzeXdQ45HVaw_",
            "dm6ommNzDkbvivqdpzZq-J:APA91bEjSWMLG-gg5jC-F9bmFKJMaEdMFCC_7EA9pes-flrwjvNaIuOuMcn0RKYMS6VDGr2FqtABvyJr9axkzti7qtxzBaVMHB8hG_0Fgf6w9szormB-cjU9bkTdGFtxq8cvJQfzZZAk",
            "faKe4J63Ra6w2R3evYkbvz:APA91bHacOguHf00pi4PhKK6jAhbxV9u_TBIM4cMT2xuxEf8PfiiJuErZ4T5RQ5pkq4p7tvd6t8L4IA6CvDJRg_1-InH-IGOYCNdhi7-fXbN9Dlc9vQBfP4RlmNg4n0bB0BbU9vRVZ6p",
            "cyX5Z0krxkK2g8wLsfYPRO:APA91bElisALFwW2tr_mH7tPMeqfa8zLfTC0STxIO7rLxTrME0uGMc2oee_5RresR68yfkmOhoTZzSdO2mQvXG72TxV75vbwbFQ0177_-mYUPH2FhXetOezPhHAC-CGw0sdINGn0K2Xw",
            "czktAa10TLCViU9oVqdzVF:APA91bHRoBmLM-foAYTMfHazCI7fcn7qJsT7O2n2p8tOXOFqv4dWF2iNLn4B8icwm42Cq3bxPhRMHcyQBDaCmYGlmBTZIZ4VIWuXKZ18NhFonpLJo6_yD9yPiTQc6rNI6-oVQXrhFG5d",
            "cveVvMlRCECOirn6kftGum:APA91bFdIE3xiUyneDCVDh_4bYRZW0ZnXmEJgVl-oFKkhtqG1ajuuuynx_LlP2nzO4XAoBrZZc_IvwkEoHFjIkyP6gVq1wra3WHpaaLofG111fF_bab88omlFkYw3-QWJe3fu1SFj-zB",
            "eTu7SrBeQqKbK9XH8X0EQ_:APA91bH2PjixhMG0VvxpBWZFBH9IOyIjwubrCpzHT9sPjbXVzpFeLacyNBxZGTQ-V9-b06H4YfyhTLAOBxovijsyzMfFf0vPhvrO_d5_LDEp9SkbGpYaUHGmTR5B33fAzQ0XeVKNEpsL",
            "cieHo7xvDUdWhXZvXvu5jA:APA91bFdIFGJD6V1EeGAjC5l28o4waBMVsL9L7x8gGPNhrexwkZPtL6FfHAaSE4434HRm8bxfjcrZWMVhJhPXQFHCUgEFIbL0Pe97Ipa16u-MgHZQjyP4k0kL6aRzvAVpc6ltoUu4Dc9",
            "dtjiC6lfReiArRnOHwFs-k:APA91bFpZHk3AMZTVOySlO85uimIb66-D4vaBaXMMhcZeZo8SIxNqsK7WHrtTDVuVEa6zq33pIzIg9r5UbzcSjd1wnGpUEyAOdQdDKf_89KgKmrgl0X2C15ft850ipEau2XziFxtWlJU",
            "fFL8ABLqS5OakPQqSzz9nG:APA91bGb1k4V3BWmVdjKa7zqigsjx8WC-TrN-h7uV5kdD2JrnfM8ZQFVy9OCG68_cuHnHJfXN-_2Z_W5UMxW38jheJi2kH86OCu62uLd8WUBFg7ps96pKsJXH2hkNnUXNcZ9qwXRGgUc",
            "eWcb_QRdMEr_qbedTs4cc4:APA91bEKkcRXUypofz9UADfKM22fhPZpws0cymnKVfHeb9TVWBo12lspza_lsz9ezp5MEx7rqX4rPOpjYbPZO-_V_Wy-TMdQGNQNHx6buEcXGkjSjSpCKIjg55IP5d-ghkFg2ATVMorp",
            "c_wixWzrgkV0ltEO_daEiA:APA91bFsSSJ7yQmjOGkvtYFQt9l1XmE4fz-OWWIVqU4mzQakITg2oxnZYyQ8htsYPdFZYrudNIwpoo_N60oQRrYqAZ5iMXfamAXw7K96u7HlND_-TkyRJBrvDV4kgEHRBYFjIXUwm9Vf",
            "el8ArkScRdKHu6J08_Hcku:APA91bFTpreCVTfEzSt4XfG8whQjN7oOrRikchHgtoThECmaVkdH-12mRAJblCyPlkTqJ7fKxift74UjwVynU-QkWDLpi7BTO0P1jATiurr9HLJPLx2s4_yG1YNL7IEcDVafdUuo1bVZ",
            "d0XIUOMcR-KLn9AnJTvCZ3:APA91bHmvhm8S4b288x1NgkJwB63KkIxcerah7o2-WcIX9VdEz0HMTAoYxUzLi5Fi6xHol8WZU6lQqXboxxqQLrHrqIqkohQ6QMrUNOpJuGsl3M5PTHGZgwY-uETIce634R3vkJNiiOG",
            "fLUFCtPzTUyKhcRtLFyBts:APA91bGOkIVbMMAoUHuIfolzn2uN_xDn_qTfY3cheMwPKgPBYAQ3yDc0dvB66Tmp9_FfRFhRQGoe1FAGO8ZQv9brzeWC6lX5seOUdPuj_aSm3jLoMnVNpEbtePyUdg8YIJ4spJxuqiPV",
            "czZHJOViw0SHlrXrX2V5-Z:APA91bEiFOQ2d1WDdcYNCQ82FSKY8czzgg0j5u0Muu3SscfYfvU05_6_IDVzdGsZ4skk8h2XC91vaoL-z4EXEjuiIa6LccfmORRQ3MldltLUKVj99agV4a-1wgsEfXEZgSPYlgAOoQey"
          ]
        },
        "is_terms_accepted": 1,
        "is_invitation_pending": 0,
        "first_name": "antoine",
        "last_name": "Pemeja",
        "is_nano_staff": 1,
        "clients": [],
        "workspaces": [],
        "allowed_workspaces": []
      },
      "silos": [],
      "created_at": "2022-06-10T15:25:20.075Z",
      "updated_at": "2022-06-10T15:25:20.075Z"
    },
    {
      "id": "2d9de61f-e2a3-4fd3-8f1d-fe01f41ad962",
      "date": "2022-07-29",
      "date_range_end": null,
      "round": null,
      "created_by_id": "d7a541f2-d842-41e5-bb4c-3dde5886b214",
      "timeSlot": "morning",
      "totalTonnage": 0,
      "comment": null,
      "source": "order",
      "created_by": {
        "idUser": "d7a541f2-d842-41e5-bb4c-3dde5886b214",
        "username": "antoine.pemeja@nanolike.com",
        "created_at": "2022-05-18T07:38:08.000Z",
        "updated_at": "2023-01-03T15:09:45.000Z",
        "email": "antoine.pemeja@nanolike.com",
        "acl": 2,
        "last_login": "2023-01-03T15:09:45.000Z",
        "date_joined": "2022-05-18T07:03:44.000Z",
        "configuration": {
          "preferred_language": "en",
          "preferred_timezone": "America/Montreal",
          "firebase_device_tokens": [
            "coXlnKNQTWq5vnqc0o_1jr:APA91bG5u-4TPmFFV0W4pnHKTROKQ8li5TwmyOo0VwE9hAMgqzQ8kD9a2FK4-g9Jtu7PWr_ASgr_O_j7yABZBh3QgE8Cl2gID0fOOKmDWa51g3tL68bmTL0L-yiyF6CKxjPuUoGIdwMN",
            "dJ3REV-iS7WjygK8vTp7Xy:APA91bEEg4DTSGabdD4wX5BHJnOzSvgyLImwIJ9mQQfTcD7ieuXTgb38nVYhPniU7Js8TnmEzrBWz5_Prpx0qZrauWsEsS_8-Cvn92InVQFUZEH7yNGU2PyN9lacsYwFBzfVBiCf1zWr",
            "cHYgL0Sk_0Y0k61MxNuZsM:APA91bFPzBA2ERn4BSIaHnBYzrbeOrJ7iZW9OHWhnNbHvGcilOJeHzjVmQeAlsON_QBhLu0DjTHfo0Py509TSuZIuprCbaAm7xKukZt0pqjuuQz7KQeftpRO9GQjExwFpyxyMc34rEZ0",
            "czlC_sf7TeiypD11UPgs3l:APA91bE2Fp5KOapq56T4h5Nia1IJeoPWcv8gUi0ovbeFQC3475BdgrJGeeMUxlziPoXxRIdyyoRoT_Q-6MZGftOoU4D2KJ4nXL7kGIKzcy0nkaoQvOAvsPcFq6vMLIuvzW1cQ5MNukHF",
            "eUxowmthQ32VeMPmGLR_Zf:APA91bEDqxClSq7dmBWvP6sDOMaLBkruYltIvB6Of7JBwGqOvB3cVOorBhCCRa1hnw58qxxFsCAhzTQMBdnlaiEidUgiut9aETsW3KX_0DrYOZVOL614tVAk5HaYyCpIkCmmos3vKQr6",
            "fooNNVVpQT6zpjKh2gn6Q5:APA91bG8FEOjuffL0O_klh1_w1SA6SJHIvCKlme9kCid2SXyfw7g4qPcA_g7Mq6RZ0DHbkuW4-xj2QDT-31jP59-A-Ry2D2I9qSfb38jUghnL4jEVUGYFGG3PngTtR8XmqmTM-IyU3jj",
            "f08p7IPTRAqH9uGrdRgYYs:APA91bFdUd0AW6M3lzWsgn7oCt9WaFKdtQ4a3FIJOKAqp1elHmhrKXdmLSb04JEVXvl7W_iriS5m16bukhoLG2IGE5N3nntSVOsnwPRKGiNgaBAeGHw-TGgc-Ilak5xRlQ119b_Eqm9s",
            "ebM1HiY8SpqoQZa6ZRwwXw:APA91bENAtYZjRcT-aBfojlwz2jJ0xIjlVh2_YH94YQWMx9W43NMuTYeJoflusI8P-VDmraYzMt73XTm0gzijfdmUxoEZkrEeVofG9S3hJvxhasmCk9S-YHvuiiTpNjnvySv9HHWY7NF",
            "dXVmO2G5T4OEM8em60x34E:APA91bEzavoS31GmpNRMfLXInDm6wLQ4IXTuaKYqXoXzGEzWXyAeksURgJa2PFduTp3u6Td1oOu7DHfQuOGr_sM0JpnzbIPlDXY6tTulsI9culjP2EoubamTnIAH7JtfaXJr1vM8As99",
            "e4WkCEP-Q5WKvuivNkbsxm:APA91bGq4vKsHr3FDZaHqSpzEDbZgMFn6E9r3kMukDrUOvgJZw6h6U_zhgSgp-bTlcPeo9F_epsD3iqnj08x3gRA-yP2tDbFut2KbBIpqcVykSZbt_PItCTDlaTTPI5zN4SXhCKaICCd",
            "cpL7ArZH9UAHnQfoWPArsO:APA91bERymWtr6xY9RYRWi6OLItYB7ApNbQlhE-HJ_1aj4EM6wU-_xxNG0cO2-Od-awik8O-yOJYJauGeKRFgUNLTx6CY-qudQ0F1pFf05eJPdVsREFdUFn792cXX-unzeXdQ45HVaw_",
            "dm6ommNzDkbvivqdpzZq-J:APA91bEjSWMLG-gg5jC-F9bmFKJMaEdMFCC_7EA9pes-flrwjvNaIuOuMcn0RKYMS6VDGr2FqtABvyJr9axkzti7qtxzBaVMHB8hG_0Fgf6w9szormB-cjU9bkTdGFtxq8cvJQfzZZAk",
            "faKe4J63Ra6w2R3evYkbvz:APA91bHacOguHf00pi4PhKK6jAhbxV9u_TBIM4cMT2xuxEf8PfiiJuErZ4T5RQ5pkq4p7tvd6t8L4IA6CvDJRg_1-InH-IGOYCNdhi7-fXbN9Dlc9vQBfP4RlmNg4n0bB0BbU9vRVZ6p",
            "cyX5Z0krxkK2g8wLsfYPRO:APA91bElisALFwW2tr_mH7tPMeqfa8zLfTC0STxIO7rLxTrME0uGMc2oee_5RresR68yfkmOhoTZzSdO2mQvXG72TxV75vbwbFQ0177_-mYUPH2FhXetOezPhHAC-CGw0sdINGn0K2Xw",
            "czktAa10TLCViU9oVqdzVF:APA91bHRoBmLM-foAYTMfHazCI7fcn7qJsT7O2n2p8tOXOFqv4dWF2iNLn4B8icwm42Cq3bxPhRMHcyQBDaCmYGlmBTZIZ4VIWuXKZ18NhFonpLJo6_yD9yPiTQc6rNI6-oVQXrhFG5d",
            "cveVvMlRCECOirn6kftGum:APA91bFdIE3xiUyneDCVDh_4bYRZW0ZnXmEJgVl-oFKkhtqG1ajuuuynx_LlP2nzO4XAoBrZZc_IvwkEoHFjIkyP6gVq1wra3WHpaaLofG111fF_bab88omlFkYw3-QWJe3fu1SFj-zB",
            "eTu7SrBeQqKbK9XH8X0EQ_:APA91bH2PjixhMG0VvxpBWZFBH9IOyIjwubrCpzHT9sPjbXVzpFeLacyNBxZGTQ-V9-b06H4YfyhTLAOBxovijsyzMfFf0vPhvrO_d5_LDEp9SkbGpYaUHGmTR5B33fAzQ0XeVKNEpsL",
            "cieHo7xvDUdWhXZvXvu5jA:APA91bFdIFGJD6V1EeGAjC5l28o4waBMVsL9L7x8gGPNhrexwkZPtL6FfHAaSE4434HRm8bxfjcrZWMVhJhPXQFHCUgEFIbL0Pe97Ipa16u-MgHZQjyP4k0kL6aRzvAVpc6ltoUu4Dc9",
            "dtjiC6lfReiArRnOHwFs-k:APA91bFpZHk3AMZTVOySlO85uimIb66-D4vaBaXMMhcZeZo8SIxNqsK7WHrtTDVuVEa6zq33pIzIg9r5UbzcSjd1wnGpUEyAOdQdDKf_89KgKmrgl0X2C15ft850ipEau2XziFxtWlJU",
            "fFL8ABLqS5OakPQqSzz9nG:APA91bGb1k4V3BWmVdjKa7zqigsjx8WC-TrN-h7uV5kdD2JrnfM8ZQFVy9OCG68_cuHnHJfXN-_2Z_W5UMxW38jheJi2kH86OCu62uLd8WUBFg7ps96pKsJXH2hkNnUXNcZ9qwXRGgUc",
            "eWcb_QRdMEr_qbedTs4cc4:APA91bEKkcRXUypofz9UADfKM22fhPZpws0cymnKVfHeb9TVWBo12lspza_lsz9ezp5MEx7rqX4rPOpjYbPZO-_V_Wy-TMdQGNQNHx6buEcXGkjSjSpCKIjg55IP5d-ghkFg2ATVMorp",
            "c_wixWzrgkV0ltEO_daEiA:APA91bFsSSJ7yQmjOGkvtYFQt9l1XmE4fz-OWWIVqU4mzQakITg2oxnZYyQ8htsYPdFZYrudNIwpoo_N60oQRrYqAZ5iMXfamAXw7K96u7HlND_-TkyRJBrvDV4kgEHRBYFjIXUwm9Vf",
            "el8ArkScRdKHu6J08_Hcku:APA91bFTpreCVTfEzSt4XfG8whQjN7oOrRikchHgtoThECmaVkdH-12mRAJblCyPlkTqJ7fKxift74UjwVynU-QkWDLpi7BTO0P1jATiurr9HLJPLx2s4_yG1YNL7IEcDVafdUuo1bVZ",
            "d0XIUOMcR-KLn9AnJTvCZ3:APA91bHmvhm8S4b288x1NgkJwB63KkIxcerah7o2-WcIX9VdEz0HMTAoYxUzLi5Fi6xHol8WZU6lQqXboxxqQLrHrqIqkohQ6QMrUNOpJuGsl3M5PTHGZgwY-uETIce634R3vkJNiiOG",
            "fLUFCtPzTUyKhcRtLFyBts:APA91bGOkIVbMMAoUHuIfolzn2uN_xDn_qTfY3cheMwPKgPBYAQ3yDc0dvB66Tmp9_FfRFhRQGoe1FAGO8ZQv9brzeWC6lX5seOUdPuj_aSm3jLoMnVNpEbtePyUdg8YIJ4spJxuqiPV",
            "czZHJOViw0SHlrXrX2V5-Z:APA91bEiFOQ2d1WDdcYNCQ82FSKY8czzgg0j5u0Muu3SscfYfvU05_6_IDVzdGsZ4skk8h2XC91vaoL-z4EXEjuiIa6LccfmORRQ3MldltLUKVj99agV4a-1wgsEfXEZgSPYlgAOoQey"
          ]
        },
        "is_terms_accepted": 1,
        "is_invitation_pending": 0,
        "first_name": "antoine",
        "last_name": "Pemeja",
        "is_nano_staff": 1,
        "clients": [],
        "workspaces": [],
        "allowed_workspaces": []
      },
      "silos": [],
      "created_at": "2022-07-13T20:34:18.032Z",
      "updated_at": "2022-07-13T20:34:18.032Z"
    },
    {
      "id": "2d9de61f-e2a3-4fd3-8f1d-fe01f41ad962",
      "date": "2024-07-29",
      "date_range_end": "2024-07-30",
      "round": null,
      "created_by_id": "d7a541f2-d842-41e5-bb4c-3dde5886b214",
      "timeSlot": "morning",
      "totalTonnage": 0,
      "comment": null,
      "source": "order",
      "created_by": {
        "idUser": "d7a541f2-d842-41e5-bb4c-3dde5886b214",
        "username": "antoine.pemeja@nanolike.com",
        "created_at": "2022-05-18T07:38:08.000Z",
        "updated_at": "2023-01-03T15:09:45.000Z",
        "email": "antoine.pemeja@nanolike.com",
        "acl": 2,
        "last_login": "2023-01-03T15:09:45.000Z",
        "date_joined": "2022-05-18T07:03:44.000Z",
        "configuration": {
          "preferred_language": "en",
          "preferred_timezone": "America/Montreal",
          "firebase_device_tokens": [
            "coXlnKNQTWq5vnqc0o_1jr:APA91bG5u-4TPmFFV0W4pnHKTROKQ8li5TwmyOo0VwE9hAMgqzQ8kD9a2FK4-g9Jtu7PWr_ASgr_O_j7yABZBh3QgE8Cl2gID0fOOKmDWa51g3tL68bmTL0L-yiyF6CKxjPuUoGIdwMN",
            "dJ3REV-iS7WjygK8vTp7Xy:APA91bEEg4DTSGabdD4wX5BHJnOzSvgyLImwIJ9mQQfTcD7ieuXTgb38nVYhPniU7Js8TnmEzrBWz5_Prpx0qZrauWsEsS_8-Cvn92InVQFUZEH7yNGU2PyN9lacsYwFBzfVBiCf1zWr",
            "cHYgL0Sk_0Y0k61MxNuZsM:APA91bFPzBA2ERn4BSIaHnBYzrbeOrJ7iZW9OHWhnNbHvGcilOJeHzjVmQeAlsON_QBhLu0DjTHfo0Py509TSuZIuprCbaAm7xKukZt0pqjuuQz7KQeftpRO9GQjExwFpyxyMc34rEZ0",
            "czlC_sf7TeiypD11UPgs3l:APA91bE2Fp5KOapq56T4h5Nia1IJeoPWcv8gUi0ovbeFQC3475BdgrJGeeMUxlziPoXxRIdyyoRoT_Q-6MZGftOoU4D2KJ4nXL7kGIKzcy0nkaoQvOAvsPcFq6vMLIuvzW1cQ5MNukHF",
            "eUxowmthQ32VeMPmGLR_Zf:APA91bEDqxClSq7dmBWvP6sDOMaLBkruYltIvB6Of7JBwGqOvB3cVOorBhCCRa1hnw58qxxFsCAhzTQMBdnlaiEidUgiut9aETsW3KX_0DrYOZVOL614tVAk5HaYyCpIkCmmos3vKQr6",
            "fooNNVVpQT6zpjKh2gn6Q5:APA91bG8FEOjuffL0O_klh1_w1SA6SJHIvCKlme9kCid2SXyfw7g4qPcA_g7Mq6RZ0DHbkuW4-xj2QDT-31jP59-A-Ry2D2I9qSfb38jUghnL4jEVUGYFGG3PngTtR8XmqmTM-IyU3jj",
            "f08p7IPTRAqH9uGrdRgYYs:APA91bFdUd0AW6M3lzWsgn7oCt9WaFKdtQ4a3FIJOKAqp1elHmhrKXdmLSb04JEVXvl7W_iriS5m16bukhoLG2IGE5N3nntSVOsnwPRKGiNgaBAeGHw-TGgc-Ilak5xRlQ119b_Eqm9s",
            "ebM1HiY8SpqoQZa6ZRwwXw:APA91bENAtYZjRcT-aBfojlwz2jJ0xIjlVh2_YH94YQWMx9W43NMuTYeJoflusI8P-VDmraYzMt73XTm0gzijfdmUxoEZkrEeVofG9S3hJvxhasmCk9S-YHvuiiTpNjnvySv9HHWY7NF",
            "dXVmO2G5T4OEM8em60x34E:APA91bEzavoS31GmpNRMfLXInDm6wLQ4IXTuaKYqXoXzGEzWXyAeksURgJa2PFduTp3u6Td1oOu7DHfQuOGr_sM0JpnzbIPlDXY6tTulsI9culjP2EoubamTnIAH7JtfaXJr1vM8As99",
            "e4WkCEP-Q5WKvuivNkbsxm:APA91bGq4vKsHr3FDZaHqSpzEDbZgMFn6E9r3kMukDrUOvgJZw6h6U_zhgSgp-bTlcPeo9F_epsD3iqnj08x3gRA-yP2tDbFut2KbBIpqcVykSZbt_PItCTDlaTTPI5zN4SXhCKaICCd",
            "cpL7ArZH9UAHnQfoWPArsO:APA91bERymWtr6xY9RYRWi6OLItYB7ApNbQlhE-HJ_1aj4EM6wU-_xxNG0cO2-Od-awik8O-yOJYJauGeKRFgUNLTx6CY-qudQ0F1pFf05eJPdVsREFdUFn792cXX-unzeXdQ45HVaw_",
            "dm6ommNzDkbvivqdpzZq-J:APA91bEjSWMLG-gg5jC-F9bmFKJMaEdMFCC_7EA9pes-flrwjvNaIuOuMcn0RKYMS6VDGr2FqtABvyJr9axkzti7qtxzBaVMHB8hG_0Fgf6w9szormB-cjU9bkTdGFtxq8cvJQfzZZAk",
            "faKe4J63Ra6w2R3evYkbvz:APA91bHacOguHf00pi4PhKK6jAhbxV9u_TBIM4cMT2xuxEf8PfiiJuErZ4T5RQ5pkq4p7tvd6t8L4IA6CvDJRg_1-InH-IGOYCNdhi7-fXbN9Dlc9vQBfP4RlmNg4n0bB0BbU9vRVZ6p",
            "cyX5Z0krxkK2g8wLsfYPRO:APA91bElisALFwW2tr_mH7tPMeqfa8zLfTC0STxIO7rLxTrME0uGMc2oee_5RresR68yfkmOhoTZzSdO2mQvXG72TxV75vbwbFQ0177_-mYUPH2FhXetOezPhHAC-CGw0sdINGn0K2Xw",
            "czktAa10TLCViU9oVqdzVF:APA91bHRoBmLM-foAYTMfHazCI7fcn7qJsT7O2n2p8tOXOFqv4dWF2iNLn4B8icwm42Cq3bxPhRMHcyQBDaCmYGlmBTZIZ4VIWuXKZ18NhFonpLJo6_yD9yPiTQc6rNI6-oVQXrhFG5d",
            "cveVvMlRCECOirn6kftGum:APA91bFdIE3xiUyneDCVDh_4bYRZW0ZnXmEJgVl-oFKkhtqG1ajuuuynx_LlP2nzO4XAoBrZZc_IvwkEoHFjIkyP6gVq1wra3WHpaaLofG111fF_bab88omlFkYw3-QWJe3fu1SFj-zB",
            "eTu7SrBeQqKbK9XH8X0EQ_:APA91bH2PjixhMG0VvxpBWZFBH9IOyIjwubrCpzHT9sPjbXVzpFeLacyNBxZGTQ-V9-b06H4YfyhTLAOBxovijsyzMfFf0vPhvrO_d5_LDEp9SkbGpYaUHGmTR5B33fAzQ0XeVKNEpsL",
            "cieHo7xvDUdWhXZvXvu5jA:APA91bFdIFGJD6V1EeGAjC5l28o4waBMVsL9L7x8gGPNhrexwkZPtL6FfHAaSE4434HRm8bxfjcrZWMVhJhPXQFHCUgEFIbL0Pe97Ipa16u-MgHZQjyP4k0kL6aRzvAVpc6ltoUu4Dc9",
            "dtjiC6lfReiArRnOHwFs-k:APA91bFpZHk3AMZTVOySlO85uimIb66-D4vaBaXMMhcZeZo8SIxNqsK7WHrtTDVuVEa6zq33pIzIg9r5UbzcSjd1wnGpUEyAOdQdDKf_89KgKmrgl0X2C15ft850ipEau2XziFxtWlJU",
            "fFL8ABLqS5OakPQqSzz9nG:APA91bGb1k4V3BWmVdjKa7zqigsjx8WC-TrN-h7uV5kdD2JrnfM8ZQFVy9OCG68_cuHnHJfXN-_2Z_W5UMxW38jheJi2kH86OCu62uLd8WUBFg7ps96pKsJXH2hkNnUXNcZ9qwXRGgUc",
            "eWcb_QRdMEr_qbedTs4cc4:APA91bEKkcRXUypofz9UADfKM22fhPZpws0cymnKVfHeb9TVWBo12lspza_lsz9ezp5MEx7rqX4rPOpjYbPZO-_V_Wy-TMdQGNQNHx6buEcXGkjSjSpCKIjg55IP5d-ghkFg2ATVMorp",
            "c_wixWzrgkV0ltEO_daEiA:APA91bFsSSJ7yQmjOGkvtYFQt9l1XmE4fz-OWWIVqU4mzQakITg2oxnZYyQ8htsYPdFZYrudNIwpoo_N60oQRrYqAZ5iMXfamAXw7K96u7HlND_-TkyRJBrvDV4kgEHRBYFjIXUwm9Vf",
            "el8ArkScRdKHu6J08_Hcku:APA91bFTpreCVTfEzSt4XfG8whQjN7oOrRikchHgtoThECmaVkdH-12mRAJblCyPlkTqJ7fKxift74UjwVynU-QkWDLpi7BTO0P1jATiurr9HLJPLx2s4_yG1YNL7IEcDVafdUuo1bVZ",
            "d0XIUOMcR-KLn9AnJTvCZ3:APA91bHmvhm8S4b288x1NgkJwB63KkIxcerah7o2-WcIX9VdEz0HMTAoYxUzLi5Fi6xHol8WZU6lQqXboxxqQLrHrqIqkohQ6QMrUNOpJuGsl3M5PTHGZgwY-uETIce634R3vkJNiiOG",
            "fLUFCtPzTUyKhcRtLFyBts:APA91bGOkIVbMMAoUHuIfolzn2uN_xDn_qTfY3cheMwPKgPBYAQ3yDc0dvB66Tmp9_FfRFhRQGoe1FAGO8ZQv9brzeWC6lX5seOUdPuj_aSm3jLoMnVNpEbtePyUdg8YIJ4spJxuqiPV",
            "czZHJOViw0SHlrXrX2V5-Z:APA91bEiFOQ2d1WDdcYNCQ82FSKY8czzgg0j5u0Muu3SscfYfvU05_6_IDVzdGsZ4skk8h2XC91vaoL-z4EXEjuiIa6LccfmORRQ3MldltLUKVj99agV4a-1wgsEfXEZgSPYlgAOoQey"
          ]
        },
        "is_terms_accepted": 1,
        "is_invitation_pending": 0,
        "first_name": "antoine",
        "last_name": "Pemeja",
        "is_nano_staff": 1,
        "clients": [],
        "workspaces": [],
        "allowed_workspaces": []
      },
      "silos": [],
      "created_at": "2022-07-13T20:34:18.032Z",
      "updated_at": "2022-07-13T20:34:18.032Z"
    }
  ]
}