{
  "id": "f465f803-fe62-453a-b0ac-a7120053a297",
  "date": "2021-07-15",
  "date_range_end": "2021-07-18",
  "round": null,
  "created_by_id": "bf556306-a21e-4d9d-9834-909384256ee2",
  "timeSlot": "morning",
  "totalTonnage": 13,
  "comment": "Commment lorem ipsum",
  "source": "order",
  "created_by": null,
  "silos": [
    {
      "id": "ST0004",
      "device_name": "Silo 4",
      "tonnage": 1,
      "comment": null,
      "silo_number": "4",
      "group_ids": [
        "7b500e63-1f28-49d0-9f7a-7667a283650c",
        "df058fac-86c1-4f60-8bfd-7356a8cf0c5e"
      ],
      "farm_name": "Ferme Pierre Martin",
      "calibration_accepted": true,
      "content": {
        "name": "CONTENU",
        "type": "Test",
        "drug": "DRUG 1",
        "supplement": {
          "name": "SUPPLEMENT 1",
          "ratio": null
        }
      }
    },
    {
      "id": "ST0002",
      "device_name": "Silo 2",
      "tonnage": 10,
      "comment": null,
      "silo_number": null,
      "group_ids": [
        "7b500e63-1f28-49d0-9f7a-7667a283650c",
        "df058fac-86c1-4f60-8bfd-7356a8cf0c5e"
      ],
      "farm_name": "Ferme Pierre Martin",
      "calibration_accepted": true,
      "content": {
        "name": "CONTENU",
        "type": "Test",
        "drug": "DRUG 1",
        "supplement": {
          "name": "SUPPLEMENT 1",
          "ratio": null
        }
      }
    },
    {
      "id": "ST0003",
      "device_name": "Silo 3",
      "tonnage": 2,
      "comment": null,
      "silo_number": 3,
      "group_ids": [
        "7b500e63-1f28-49d0-9f7a-7667a283650c",
        "df058fac-86c1-4f60-8bfd-7356a8cf0c5e"
      ],
      "farm_name": "Ferme Pierre Martin",
      "calibration_accepted": true,
      "content": {
        "name": "CONTENU",
        "type": "Test",
        "drug": "DRUG 1",
        "supplement": {
          "name": "SUPPLEMENT 1",
          "ratio": 2
        }
      }
    }
  ],
  "created_at": "2021-07-13T13:37:01.668Z",
  "updated_at": "2021-07-13T13:38:30.446Z"
}